%
M48
M72
T01C0.03150
T02C0.03937
T03C0.04000
%
T01
X130338Y8088
X130338Y18088
X130338Y28088
X130338Y38088
X130338Y48088
X130338Y58088
X130338Y68088
X130338Y78088
X130338Y88088
X130338Y98088
X130338Y108088
X130338Y118088
X130338Y128088
X130338Y138088
X130338Y148088
X150338Y143088
X150338Y153088
X160338Y153088
X160338Y143088
X170338Y143088
X170338Y153088
X190338Y148088
X190338Y138088
X190338Y128088
X190338Y118088
X190338Y108088
X190338Y98088
X190338Y88088
X190338Y78088
X190338Y68088
X190338Y58088
X190338Y48088
X190338Y38088
X190338Y28088
X190338Y18088
X190338Y8088
T02
X11617Y21587
X21617Y21587
X31617Y21587
X41617Y21587
X51617Y21587
X61617Y21587
T03
X88129Y133307
M30
