G75*
%MOIN*%
%OFA0B0*%
%FSLAX25Y25*%
%IPPOS*%
%LPD*%
%AMOC8*
5,1,8,0,0,1.08239X$1,22.5*
%
%ADD10C,0.00000*%
%ADD11C,0.05150*%
%ADD12C,0.05150*%
%ADD13C,0.05937*%
%ADD14R,0.05937X0.05937*%
%ADD15OC8,0.06000*%
D10*
X0001300Y0001306D02*
X0001300Y0217841D01*
X0200119Y0217841D01*
X0200119Y0001306D01*
X0001300Y0001306D01*
D11*
X0127763Y0008088D02*
X0132913Y0008088D01*
X0132913Y0018088D02*
X0127763Y0018088D01*
X0127763Y0028088D02*
X0132913Y0028088D01*
X0132913Y0038088D02*
X0127763Y0038088D01*
X0127763Y0048088D02*
X0132913Y0048088D01*
X0132913Y0058088D02*
X0127763Y0058088D01*
X0127763Y0068088D02*
X0132913Y0068088D01*
X0132913Y0078088D02*
X0127763Y0078088D01*
X0127763Y0088088D02*
X0132913Y0088088D01*
X0132913Y0098088D02*
X0127763Y0098088D01*
X0127763Y0108088D02*
X0132913Y0108088D01*
X0132913Y0118088D02*
X0127763Y0118088D01*
X0127763Y0128088D02*
X0132913Y0128088D01*
X0132913Y0138088D02*
X0127763Y0138088D01*
X0127763Y0148088D02*
X0132913Y0148088D01*
X0187763Y0148088D02*
X0192913Y0148088D01*
X0192913Y0138088D02*
X0187763Y0138088D01*
X0187763Y0128088D02*
X0192913Y0128088D01*
X0192913Y0118088D02*
X0187763Y0118088D01*
X0187763Y0108088D02*
X0192913Y0108088D01*
X0192913Y0098088D02*
X0187763Y0098088D01*
X0187763Y0088088D02*
X0192913Y0088088D01*
X0192913Y0078088D02*
X0187763Y0078088D01*
X0187763Y0068088D02*
X0192913Y0068088D01*
X0192913Y0058088D02*
X0187763Y0058088D01*
X0187763Y0048088D02*
X0192913Y0048088D01*
X0192913Y0038088D02*
X0187763Y0038088D01*
X0187763Y0028088D02*
X0192913Y0028088D01*
X0192913Y0018088D02*
X0187763Y0018088D01*
X0187763Y0008088D02*
X0192913Y0008088D01*
D12*
X0170338Y0143088D03*
X0170338Y0153088D03*
X0160338Y0153088D03*
X0160338Y0143088D03*
X0150338Y0143088D03*
X0150338Y0153088D03*
D13*
X0061617Y0021587D03*
X0051617Y0021587D03*
X0041617Y0021587D03*
X0031617Y0021587D03*
X0021617Y0021587D03*
D14*
X0011617Y0021587D03*
D15*
X0088129Y0133307D03*
M02*
