G75*
%MOIN*%
%OFA0B0*%
%FSLAX25Y25*%
%IPPOS*%
%LPD*%
%AMOC8*
5,1,8,0,0,1.08239X$1,22.5*
%
%ADD10C,0.00000*%
%ADD11C,0.05150*%
%ADD12C,0.05150*%
%ADD13C,0.05937*%
%ADD14R,0.05937X0.05937*%
%ADD15R,0.05118X0.05906*%
%ADD16OC8,0.06000*%
%ADD17R,0.05906X0.05118*%
%ADD18C,0.03200*%
%ADD19C,0.01000*%
%ADD20C,0.00600*%
D10*
X0001300Y0001306D02*
X0001300Y0217841D01*
X0200119Y0217841D01*
X0200119Y0001306D01*
X0001300Y0001306D01*
D11*
X0127763Y0008088D02*
X0132913Y0008088D01*
X0132913Y0018088D02*
X0127763Y0018088D01*
X0127763Y0028088D02*
X0132913Y0028088D01*
X0132913Y0038088D02*
X0127763Y0038088D01*
X0127763Y0048088D02*
X0132913Y0048088D01*
X0132913Y0058088D02*
X0127763Y0058088D01*
X0127763Y0068088D02*
X0132913Y0068088D01*
X0132913Y0078088D02*
X0127763Y0078088D01*
X0127763Y0088088D02*
X0132913Y0088088D01*
X0132913Y0098088D02*
X0127763Y0098088D01*
X0127763Y0108088D02*
X0132913Y0108088D01*
X0132913Y0118088D02*
X0127763Y0118088D01*
X0127763Y0128088D02*
X0132913Y0128088D01*
X0132913Y0138088D02*
X0127763Y0138088D01*
X0127763Y0148088D02*
X0132913Y0148088D01*
X0187763Y0148088D02*
X0192913Y0148088D01*
X0192913Y0138088D02*
X0187763Y0138088D01*
X0187763Y0128088D02*
X0192913Y0128088D01*
X0192913Y0118088D02*
X0187763Y0118088D01*
X0187763Y0108088D02*
X0192913Y0108088D01*
X0192913Y0098088D02*
X0187763Y0098088D01*
X0187763Y0088088D02*
X0192913Y0088088D01*
X0192913Y0078088D02*
X0187763Y0078088D01*
X0187763Y0068088D02*
X0192913Y0068088D01*
X0192913Y0058088D02*
X0187763Y0058088D01*
X0187763Y0048088D02*
X0192913Y0048088D01*
X0192913Y0038088D02*
X0187763Y0038088D01*
X0187763Y0028088D02*
X0192913Y0028088D01*
X0192913Y0018088D02*
X0187763Y0018088D01*
X0187763Y0008088D02*
X0192913Y0008088D01*
D12*
X0170338Y0143088D03*
X0170338Y0153088D03*
X0160338Y0153088D03*
X0160338Y0143088D03*
X0150338Y0143088D03*
X0150338Y0153088D03*
D13*
X0061617Y0021587D03*
X0051617Y0021587D03*
X0041617Y0021587D03*
X0031617Y0021587D03*
X0021617Y0021587D03*
D14*
X0011617Y0021587D03*
D15*
X0087697Y0058311D03*
X0095177Y0058311D03*
X0095602Y0072447D03*
X0088122Y0072447D03*
X0104491Y0088228D03*
X0111971Y0088228D03*
X0111899Y0108352D03*
X0104418Y0108352D03*
X0104435Y0124438D03*
X0111916Y0124438D03*
X0111754Y0140468D03*
X0104274Y0140468D03*
D16*
X0088129Y0133307D03*
D17*
X0088070Y0103665D03*
X0088070Y0096184D03*
D18*
X0051617Y0021587D02*
X0051856Y0021144D01*
X0051856Y0015955D01*
X0054752Y0013059D01*
X0170014Y0013059D01*
X0178100Y0021145D01*
X0178100Y0114108D01*
X0182080Y0118088D01*
X0190338Y0118088D01*
D19*
X0141932Y0069621D02*
X0138903Y0072650D01*
X0108008Y0072650D01*
X0104496Y0076163D01*
X0104496Y0088224D01*
X0112111Y0088088D02*
X0130338Y0088088D01*
X0130338Y0108088D02*
X0112163Y0108088D01*
X0104418Y0108352D02*
X0104418Y0124421D01*
X0104435Y0124438D02*
X0104435Y0140306D01*
X0111760Y0140473D02*
X0111760Y0149918D01*
X0107195Y0154482D01*
X0030446Y0154482D01*
X0021617Y0145653D01*
X0021617Y0021587D01*
X0031617Y0021587D02*
X0031617Y0026309D01*
X0037929Y0032621D01*
X0139025Y0032621D01*
X0139332Y0032621D02*
X0141932Y0035222D01*
X0141932Y0069621D01*
X0130171Y0058255D02*
X0095177Y0058311D01*
X0087697Y0058311D02*
X0087697Y0072022D01*
X0088122Y0072447D02*
X0088070Y0072499D01*
X0088070Y0096184D01*
X0088070Y0103665D02*
X0088070Y0133248D01*
X0088129Y0133307D01*
D20*
X0085337Y0130584D02*
X0023017Y0130584D01*
X0023017Y0129986D02*
X0085935Y0129986D01*
X0086514Y0129407D02*
X0086670Y0129407D01*
X0086670Y0107124D01*
X0084745Y0107124D01*
X0084217Y0106597D01*
X0084217Y0100733D01*
X0084745Y0100206D01*
X0091396Y0100206D01*
X0091923Y0100733D01*
X0091923Y0106597D01*
X0091396Y0107124D01*
X0089470Y0107124D01*
X0089470Y0129407D01*
X0089745Y0129407D01*
X0092029Y0131692D01*
X0092029Y0134923D01*
X0089745Y0137207D01*
X0086514Y0137207D01*
X0084229Y0134923D01*
X0084229Y0131692D01*
X0086514Y0129407D01*
X0086670Y0129387D02*
X0023017Y0129387D01*
X0023017Y0128789D02*
X0086670Y0128789D01*
X0086670Y0128190D02*
X0023017Y0128190D01*
X0023017Y0127592D02*
X0086670Y0127592D01*
X0086670Y0126993D02*
X0023017Y0126993D01*
X0023017Y0126395D02*
X0086670Y0126395D01*
X0086670Y0125796D02*
X0023017Y0125796D01*
X0023017Y0125198D02*
X0086670Y0125198D01*
X0086670Y0124599D02*
X0023017Y0124599D01*
X0023017Y0124001D02*
X0086670Y0124001D01*
X0086670Y0123402D02*
X0023017Y0123402D01*
X0023017Y0122804D02*
X0086670Y0122804D01*
X0086670Y0122205D02*
X0023017Y0122205D01*
X0023017Y0121607D02*
X0086670Y0121607D01*
X0086670Y0121008D02*
X0023017Y0121008D01*
X0023017Y0120410D02*
X0086670Y0120410D01*
X0086670Y0119811D02*
X0023017Y0119811D01*
X0023017Y0119213D02*
X0086670Y0119213D01*
X0086670Y0118614D02*
X0023017Y0118614D01*
X0023017Y0118015D02*
X0086670Y0118015D01*
X0086670Y0117417D02*
X0023017Y0117417D01*
X0023017Y0116818D02*
X0086670Y0116818D01*
X0086670Y0116220D02*
X0023017Y0116220D01*
X0023017Y0115621D02*
X0086670Y0115621D01*
X0086670Y0115023D02*
X0023017Y0115023D01*
X0023017Y0114424D02*
X0086670Y0114424D01*
X0086670Y0113826D02*
X0023017Y0113826D01*
X0023017Y0113227D02*
X0086670Y0113227D01*
X0086670Y0112629D02*
X0023017Y0112629D01*
X0023017Y0112030D02*
X0086670Y0112030D01*
X0086670Y0111432D02*
X0023017Y0111432D01*
X0023017Y0110833D02*
X0086670Y0110833D01*
X0086670Y0110235D02*
X0023017Y0110235D01*
X0023017Y0109636D02*
X0086670Y0109636D01*
X0086670Y0109038D02*
X0023017Y0109038D01*
X0023017Y0108439D02*
X0086670Y0108439D01*
X0086670Y0107841D02*
X0023017Y0107841D01*
X0023017Y0107242D02*
X0086670Y0107242D01*
X0089470Y0107242D02*
X0100959Y0107242D01*
X0100959Y0106644D02*
X0091876Y0106644D01*
X0091923Y0106045D02*
X0100959Y0106045D01*
X0100959Y0105447D02*
X0091923Y0105447D01*
X0091923Y0104848D02*
X0101137Y0104848D01*
X0100959Y0105026D02*
X0101487Y0104499D01*
X0107350Y0104499D01*
X0107877Y0105026D01*
X0107877Y0111677D01*
X0107350Y0112205D01*
X0105818Y0112205D01*
X0105818Y0120585D01*
X0107367Y0120585D01*
X0107894Y0121112D01*
X0107894Y0127763D01*
X0107367Y0128290D01*
X0105835Y0128290D01*
X0105835Y0136615D01*
X0107206Y0136615D01*
X0107733Y0137142D01*
X0107733Y0143793D01*
X0107206Y0144320D01*
X0101342Y0144320D01*
X0100815Y0143793D01*
X0100815Y0137142D01*
X0101342Y0136615D01*
X0103035Y0136615D01*
X0103035Y0128290D01*
X0101503Y0128290D01*
X0100976Y0127763D01*
X0100976Y0121112D01*
X0101503Y0120585D01*
X0103018Y0120585D01*
X0103018Y0112205D01*
X0101487Y0112205D01*
X0100959Y0111677D01*
X0100959Y0105026D01*
X0100959Y0107841D02*
X0089470Y0107841D01*
X0089470Y0108439D02*
X0100959Y0108439D01*
X0100959Y0109038D02*
X0089470Y0109038D01*
X0089470Y0109636D02*
X0100959Y0109636D01*
X0100959Y0110235D02*
X0089470Y0110235D01*
X0089470Y0110833D02*
X0100959Y0110833D01*
X0100959Y0111432D02*
X0089470Y0111432D01*
X0089470Y0112030D02*
X0101312Y0112030D01*
X0103018Y0112629D02*
X0089470Y0112629D01*
X0089470Y0113227D02*
X0103018Y0113227D01*
X0103018Y0113826D02*
X0089470Y0113826D01*
X0089470Y0114424D02*
X0103018Y0114424D01*
X0103018Y0115023D02*
X0089470Y0115023D01*
X0089470Y0115621D02*
X0103018Y0115621D01*
X0103018Y0116220D02*
X0089470Y0116220D01*
X0089470Y0116818D02*
X0103018Y0116818D01*
X0103018Y0117417D02*
X0089470Y0117417D01*
X0089470Y0118015D02*
X0103018Y0118015D01*
X0103018Y0118614D02*
X0089470Y0118614D01*
X0089470Y0119213D02*
X0103018Y0119213D01*
X0103018Y0119811D02*
X0089470Y0119811D01*
X0089470Y0120410D02*
X0103018Y0120410D01*
X0101080Y0121008D02*
X0089470Y0121008D01*
X0089470Y0121607D02*
X0100976Y0121607D01*
X0100976Y0122205D02*
X0089470Y0122205D01*
X0089470Y0122804D02*
X0100976Y0122804D01*
X0100976Y0123402D02*
X0089470Y0123402D01*
X0089470Y0124001D02*
X0100976Y0124001D01*
X0100976Y0124599D02*
X0089470Y0124599D01*
X0089470Y0125198D02*
X0100976Y0125198D01*
X0100976Y0125796D02*
X0089470Y0125796D01*
X0089470Y0126395D02*
X0100976Y0126395D01*
X0100976Y0126993D02*
X0089470Y0126993D01*
X0089470Y0127592D02*
X0100976Y0127592D01*
X0101403Y0128190D02*
X0089470Y0128190D01*
X0089470Y0128789D02*
X0103035Y0128789D01*
X0103035Y0129387D02*
X0089470Y0129387D01*
X0090323Y0129986D02*
X0103035Y0129986D01*
X0103035Y0130584D02*
X0090922Y0130584D01*
X0091520Y0131183D02*
X0103035Y0131183D01*
X0103035Y0131781D02*
X0092029Y0131781D01*
X0092029Y0132380D02*
X0103035Y0132380D01*
X0103035Y0132978D02*
X0092029Y0132978D01*
X0092029Y0133577D02*
X0103035Y0133577D01*
X0103035Y0134175D02*
X0092029Y0134175D01*
X0092029Y0134774D02*
X0103035Y0134774D01*
X0103035Y0135372D02*
X0091580Y0135372D01*
X0090981Y0135971D02*
X0103035Y0135971D01*
X0103035Y0136569D02*
X0090383Y0136569D01*
X0089784Y0137168D02*
X0100815Y0137168D01*
X0100815Y0137766D02*
X0023017Y0137766D01*
X0023017Y0137168D02*
X0086475Y0137168D01*
X0085876Y0136569D02*
X0023017Y0136569D01*
X0023017Y0135971D02*
X0085278Y0135971D01*
X0084679Y0135372D02*
X0023017Y0135372D01*
X0023017Y0134774D02*
X0084229Y0134774D01*
X0084229Y0134175D02*
X0023017Y0134175D01*
X0023017Y0133577D02*
X0084229Y0133577D01*
X0084229Y0132978D02*
X0023017Y0132978D01*
X0023017Y0132380D02*
X0084229Y0132380D01*
X0084229Y0131781D02*
X0023017Y0131781D01*
X0023017Y0131183D02*
X0084738Y0131183D01*
X0100815Y0138365D02*
X0023017Y0138365D01*
X0023017Y0138963D02*
X0100815Y0138963D01*
X0100815Y0139562D02*
X0023017Y0139562D01*
X0023017Y0140160D02*
X0100815Y0140160D01*
X0100815Y0140759D02*
X0023017Y0140759D01*
X0023017Y0141357D02*
X0100815Y0141357D01*
X0100815Y0141956D02*
X0023017Y0141956D01*
X0023017Y0142554D02*
X0100815Y0142554D01*
X0100815Y0143153D02*
X0023017Y0143153D01*
X0023017Y0143751D02*
X0100815Y0143751D01*
X0104274Y0140468D02*
X0104435Y0140306D01*
X0107733Y0140160D02*
X0108295Y0140160D01*
X0108295Y0139562D02*
X0107733Y0139562D01*
X0107733Y0138963D02*
X0108295Y0138963D01*
X0108295Y0138365D02*
X0107733Y0138365D01*
X0107733Y0137766D02*
X0108295Y0137766D01*
X0108295Y0137168D02*
X0107733Y0137168D01*
X0108295Y0137142D02*
X0108823Y0136615D01*
X0114686Y0136615D01*
X0115213Y0137142D01*
X0115213Y0143793D01*
X0114686Y0144320D01*
X0113160Y0144320D01*
X0113160Y0150497D01*
X0112340Y0151317D01*
X0107775Y0155882D01*
X0029866Y0155882D01*
X0029046Y0155062D01*
X0020217Y0146233D01*
X0020217Y0025194D01*
X0019425Y0024866D01*
X0018337Y0023778D01*
X0017748Y0022356D01*
X0017748Y0020817D01*
X0018337Y0019395D01*
X0019425Y0018307D01*
X0020847Y0017718D01*
X0022386Y0017718D01*
X0023808Y0018307D01*
X0024896Y0019395D01*
X0025485Y0020817D01*
X0025485Y0022356D01*
X0024896Y0023778D01*
X0023808Y0024866D01*
X0023017Y0025194D01*
X0023017Y0145073D01*
X0031026Y0153082D01*
X0106615Y0153082D01*
X0110360Y0149338D01*
X0110360Y0144320D01*
X0108823Y0144320D01*
X0108295Y0143793D01*
X0108295Y0137142D01*
X0105835Y0136569D02*
X0124631Y0136569D01*
X0124817Y0136120D02*
X0125795Y0135142D01*
X0127072Y0134613D01*
X0133604Y0134613D01*
X0134881Y0135142D01*
X0135859Y0136120D01*
X0136388Y0137397D01*
X0136388Y0138779D01*
X0135859Y0140056D01*
X0134881Y0141034D01*
X0133604Y0141563D01*
X0127072Y0141563D01*
X0125795Y0141034D01*
X0124817Y0140056D01*
X0124288Y0138779D01*
X0124288Y0137397D01*
X0124817Y0136120D01*
X0124966Y0135971D02*
X0105835Y0135971D01*
X0105835Y0135372D02*
X0125565Y0135372D01*
X0126684Y0134774D02*
X0105835Y0134774D01*
X0105835Y0134175D02*
X0199769Y0134175D01*
X0199769Y0133577D02*
X0105835Y0133577D01*
X0105835Y0132978D02*
X0199769Y0132978D01*
X0199769Y0132380D02*
X0105835Y0132380D01*
X0105835Y0131781D02*
X0199769Y0131781D01*
X0199769Y0131183D02*
X0194522Y0131183D01*
X0194881Y0131034D02*
X0193604Y0131563D01*
X0187072Y0131563D01*
X0185795Y0131034D01*
X0184817Y0130056D01*
X0184288Y0128779D01*
X0184288Y0127397D01*
X0184817Y0126120D01*
X0185795Y0125142D01*
X0187072Y0124613D01*
X0193604Y0124613D01*
X0194881Y0125142D01*
X0195859Y0126120D01*
X0196388Y0127397D01*
X0196388Y0128779D01*
X0195859Y0130056D01*
X0194881Y0131034D01*
X0195331Y0130584D02*
X0199769Y0130584D01*
X0199769Y0129986D02*
X0195888Y0129986D01*
X0196136Y0129387D02*
X0199769Y0129387D01*
X0199769Y0128789D02*
X0196384Y0128789D01*
X0196388Y0128190D02*
X0199769Y0128190D01*
X0199769Y0127592D02*
X0196388Y0127592D01*
X0196220Y0126993D02*
X0199769Y0126993D01*
X0199769Y0126395D02*
X0195972Y0126395D01*
X0195535Y0125796D02*
X0199769Y0125796D01*
X0199769Y0125198D02*
X0194936Y0125198D01*
X0193604Y0121563D02*
X0187072Y0121563D01*
X0185795Y0121034D01*
X0185349Y0120588D01*
X0181583Y0120588D01*
X0180664Y0120207D01*
X0176683Y0116227D01*
X0175980Y0115524D01*
X0175600Y0114605D01*
X0175600Y0022180D01*
X0168978Y0015559D01*
X0135298Y0015559D01*
X0135859Y0016120D01*
X0136388Y0017397D01*
X0136388Y0018779D01*
X0135859Y0020056D01*
X0134881Y0021034D01*
X0133604Y0021563D01*
X0127072Y0021563D01*
X0125795Y0021034D01*
X0124817Y0020056D01*
X0124288Y0018779D01*
X0124288Y0017397D01*
X0124817Y0016120D01*
X0125378Y0015559D01*
X0055787Y0015559D01*
X0054356Y0016990D01*
X0054356Y0018855D01*
X0054896Y0019395D01*
X0055485Y0020817D01*
X0055485Y0022356D01*
X0054896Y0023778D01*
X0053808Y0024866D01*
X0052386Y0025455D01*
X0050847Y0025455D01*
X0049425Y0024866D01*
X0048337Y0023778D01*
X0047748Y0022356D01*
X0047748Y0020817D01*
X0048337Y0019395D01*
X0049356Y0018377D01*
X0049356Y0015457D01*
X0049737Y0014538D01*
X0050440Y0013835D01*
X0053336Y0010939D01*
X0054254Y0010559D01*
X0125320Y0010559D01*
X0124817Y0010056D01*
X0124288Y0008779D01*
X0124288Y0007397D01*
X0124817Y0006120D01*
X0125795Y0005142D01*
X0127072Y0004613D01*
X0133604Y0004613D01*
X0134881Y0005142D01*
X0135859Y0006120D01*
X0136388Y0007397D01*
X0136388Y0008779D01*
X0135859Y0010056D01*
X0135356Y0010559D01*
X0170511Y0010559D01*
X0171430Y0010939D01*
X0172133Y0011643D01*
X0179516Y0019026D01*
X0180219Y0019729D01*
X0180600Y0020648D01*
X0180600Y0113072D01*
X0183115Y0115588D01*
X0185349Y0115588D01*
X0185795Y0115142D01*
X0187072Y0114613D01*
X0193604Y0114613D01*
X0194881Y0115142D01*
X0195859Y0116120D01*
X0196388Y0117397D01*
X0196388Y0118779D01*
X0195859Y0120056D01*
X0194881Y0121034D01*
X0193604Y0121563D01*
X0194907Y0121008D02*
X0199769Y0121008D01*
X0199769Y0120410D02*
X0195505Y0120410D01*
X0195960Y0119811D02*
X0199769Y0119811D01*
X0199769Y0119213D02*
X0196208Y0119213D01*
X0196388Y0118614D02*
X0199769Y0118614D01*
X0199769Y0118015D02*
X0196388Y0118015D01*
X0196388Y0117417D02*
X0199769Y0117417D01*
X0199769Y0116818D02*
X0196148Y0116818D01*
X0195900Y0116220D02*
X0199769Y0116220D01*
X0199769Y0115621D02*
X0195360Y0115621D01*
X0194593Y0115023D02*
X0199769Y0115023D01*
X0199769Y0114424D02*
X0181952Y0114424D01*
X0181353Y0113826D02*
X0199769Y0113826D01*
X0199769Y0113227D02*
X0180755Y0113227D01*
X0180600Y0112629D02*
X0199769Y0112629D01*
X0199769Y0112030D02*
X0180600Y0112030D01*
X0180600Y0111432D02*
X0186756Y0111432D01*
X0187072Y0111563D02*
X0185795Y0111034D01*
X0184817Y0110056D01*
X0184288Y0108779D01*
X0184288Y0107397D01*
X0184817Y0106120D01*
X0185795Y0105142D01*
X0187072Y0104613D01*
X0193604Y0104613D01*
X0194881Y0105142D01*
X0195859Y0106120D01*
X0196388Y0107397D01*
X0196388Y0108779D01*
X0195859Y0110056D01*
X0194881Y0111034D01*
X0193604Y0111563D01*
X0187072Y0111563D01*
X0185594Y0110833D02*
X0180600Y0110833D01*
X0180600Y0110235D02*
X0184996Y0110235D01*
X0184643Y0109636D02*
X0180600Y0109636D01*
X0180600Y0109038D02*
X0184395Y0109038D01*
X0184288Y0108439D02*
X0180600Y0108439D01*
X0180600Y0107841D02*
X0184288Y0107841D01*
X0184352Y0107242D02*
X0180600Y0107242D01*
X0180600Y0106644D02*
X0184600Y0106644D01*
X0184892Y0106045D02*
X0180600Y0106045D01*
X0180600Y0105447D02*
X0185490Y0105447D01*
X0186505Y0104848D02*
X0180600Y0104848D01*
X0180600Y0104250D02*
X0199769Y0104250D01*
X0199769Y0104848D02*
X0194171Y0104848D01*
X0195186Y0105447D02*
X0199769Y0105447D01*
X0199769Y0106045D02*
X0195784Y0106045D01*
X0196076Y0106644D02*
X0199769Y0106644D01*
X0199769Y0107242D02*
X0196324Y0107242D01*
X0196388Y0107841D02*
X0199769Y0107841D01*
X0199769Y0108439D02*
X0196388Y0108439D01*
X0196280Y0109038D02*
X0199769Y0109038D01*
X0199769Y0109636D02*
X0196033Y0109636D01*
X0195680Y0110235D02*
X0199769Y0110235D01*
X0199769Y0110833D02*
X0195082Y0110833D01*
X0193920Y0111432D02*
X0199769Y0111432D01*
X0199769Y0103651D02*
X0180600Y0103651D01*
X0180600Y0103053D02*
X0199769Y0103053D01*
X0199769Y0102454D02*
X0180600Y0102454D01*
X0180600Y0101856D02*
X0199769Y0101856D01*
X0199769Y0101257D02*
X0194342Y0101257D01*
X0194881Y0101034D02*
X0193604Y0101563D01*
X0187072Y0101563D01*
X0185795Y0101034D01*
X0184817Y0100056D01*
X0184288Y0098779D01*
X0184288Y0097397D01*
X0184817Y0096120D01*
X0185795Y0095142D01*
X0187072Y0094613D01*
X0193604Y0094613D01*
X0194881Y0095142D01*
X0195859Y0096120D01*
X0196388Y0097397D01*
X0196388Y0098779D01*
X0195859Y0100056D01*
X0194881Y0101034D01*
X0195256Y0100659D02*
X0199769Y0100659D01*
X0199769Y0100060D02*
X0195855Y0100060D01*
X0196105Y0099462D02*
X0199769Y0099462D01*
X0199769Y0098863D02*
X0196353Y0098863D01*
X0196388Y0098265D02*
X0199769Y0098265D01*
X0199769Y0097666D02*
X0196388Y0097666D01*
X0196251Y0097068D02*
X0199769Y0097068D01*
X0199769Y0096469D02*
X0196003Y0096469D01*
X0195609Y0095871D02*
X0199769Y0095871D01*
X0199769Y0095272D02*
X0195011Y0095272D01*
X0193750Y0094674D02*
X0199769Y0094674D01*
X0199769Y0094075D02*
X0180600Y0094075D01*
X0180600Y0093477D02*
X0199769Y0093477D01*
X0199769Y0092878D02*
X0180600Y0092878D01*
X0180600Y0092280D02*
X0199769Y0092280D01*
X0199769Y0091681D02*
X0180600Y0091681D01*
X0180600Y0091082D02*
X0185912Y0091082D01*
X0185795Y0091034D02*
X0184817Y0090056D01*
X0184288Y0088779D01*
X0184288Y0087397D01*
X0184817Y0086120D01*
X0185795Y0085142D01*
X0187072Y0084613D01*
X0193604Y0084613D01*
X0194881Y0085142D01*
X0195859Y0086120D01*
X0196388Y0087397D01*
X0196388Y0088779D01*
X0195859Y0090056D01*
X0194881Y0091034D01*
X0193604Y0091563D01*
X0187072Y0091563D01*
X0185795Y0091034D01*
X0185245Y0090484D02*
X0180600Y0090484D01*
X0180600Y0089885D02*
X0184747Y0089885D01*
X0184499Y0089287D02*
X0180600Y0089287D01*
X0180600Y0088688D02*
X0184288Y0088688D01*
X0184288Y0088090D02*
X0180600Y0088090D01*
X0180600Y0087491D02*
X0184288Y0087491D01*
X0184497Y0086893D02*
X0180600Y0086893D01*
X0180600Y0086294D02*
X0184745Y0086294D01*
X0185241Y0085696D02*
X0180600Y0085696D01*
X0180600Y0085097D02*
X0185903Y0085097D01*
X0187072Y0081563D02*
X0185795Y0081034D01*
X0184817Y0080056D01*
X0184288Y0078779D01*
X0184288Y0077397D01*
X0184817Y0076120D01*
X0185795Y0075142D01*
X0187072Y0074613D01*
X0193604Y0074613D01*
X0194881Y0075142D01*
X0195859Y0076120D01*
X0196388Y0077397D01*
X0196388Y0078779D01*
X0195859Y0080056D01*
X0194881Y0081034D01*
X0193604Y0081563D01*
X0187072Y0081563D01*
X0186935Y0081506D02*
X0180600Y0081506D01*
X0180600Y0080908D02*
X0185669Y0080908D01*
X0185070Y0080309D02*
X0180600Y0080309D01*
X0180600Y0079711D02*
X0184674Y0079711D01*
X0184426Y0079112D02*
X0180600Y0079112D01*
X0180600Y0078514D02*
X0184288Y0078514D01*
X0184288Y0077915D02*
X0180600Y0077915D01*
X0180600Y0077317D02*
X0184322Y0077317D01*
X0184569Y0076718D02*
X0180600Y0076718D01*
X0180600Y0076120D02*
X0184817Y0076120D01*
X0185416Y0075521D02*
X0180600Y0075521D01*
X0180600Y0074923D02*
X0186325Y0074923D01*
X0187072Y0071563D02*
X0185795Y0071034D01*
X0184817Y0070056D01*
X0184288Y0068779D01*
X0184288Y0067397D01*
X0184817Y0066120D01*
X0185795Y0065142D01*
X0187072Y0064613D01*
X0193604Y0064613D01*
X0194881Y0065142D01*
X0195859Y0066120D01*
X0196388Y0067397D01*
X0196388Y0068779D01*
X0195859Y0070056D01*
X0194881Y0071034D01*
X0193604Y0071563D01*
X0187072Y0071563D01*
X0186514Y0071332D02*
X0180600Y0071332D01*
X0180600Y0071930D02*
X0199769Y0071930D01*
X0199769Y0071332D02*
X0194162Y0071332D01*
X0195182Y0070733D02*
X0199769Y0070733D01*
X0199769Y0070135D02*
X0195780Y0070135D01*
X0196074Y0069536D02*
X0199769Y0069536D01*
X0199769Y0068938D02*
X0196322Y0068938D01*
X0196388Y0068339D02*
X0199769Y0068339D01*
X0199769Y0067741D02*
X0196388Y0067741D01*
X0196282Y0067142D02*
X0199769Y0067142D01*
X0199769Y0066544D02*
X0196034Y0066544D01*
X0195684Y0065945D02*
X0199769Y0065945D01*
X0199769Y0065346D02*
X0195085Y0065346D01*
X0193929Y0064748D02*
X0199769Y0064748D01*
X0199769Y0064149D02*
X0180600Y0064149D01*
X0180600Y0063551D02*
X0199769Y0063551D01*
X0199769Y0062952D02*
X0180600Y0062952D01*
X0180600Y0062354D02*
X0199769Y0062354D01*
X0199769Y0061755D02*
X0180600Y0061755D01*
X0180600Y0061157D02*
X0186092Y0061157D01*
X0185795Y0061034D02*
X0184817Y0060056D01*
X0184288Y0058779D01*
X0184288Y0057397D01*
X0184817Y0056120D01*
X0185795Y0055142D01*
X0187072Y0054613D01*
X0193604Y0054613D01*
X0194881Y0055142D01*
X0195859Y0056120D01*
X0196388Y0057397D01*
X0196388Y0058779D01*
X0195859Y0060056D01*
X0194881Y0061034D01*
X0193604Y0061563D01*
X0187072Y0061563D01*
X0185795Y0061034D01*
X0185319Y0060558D02*
X0180600Y0060558D01*
X0180600Y0059960D02*
X0184777Y0059960D01*
X0184530Y0059361D02*
X0180600Y0059361D01*
X0180600Y0058763D02*
X0184288Y0058763D01*
X0184288Y0058164D02*
X0180600Y0058164D01*
X0180600Y0057566D02*
X0184288Y0057566D01*
X0184466Y0056967D02*
X0180600Y0056967D01*
X0180600Y0056369D02*
X0184714Y0056369D01*
X0185167Y0055770D02*
X0180600Y0055770D01*
X0180600Y0055172D02*
X0185765Y0055172D01*
X0187072Y0051563D02*
X0185795Y0051034D01*
X0184817Y0050056D01*
X0184288Y0048779D01*
X0184288Y0047397D01*
X0184817Y0046120D01*
X0185795Y0045142D01*
X0187072Y0044613D01*
X0193604Y0044613D01*
X0194881Y0045142D01*
X0195859Y0046120D01*
X0196388Y0047397D01*
X0196388Y0048779D01*
X0195859Y0050056D01*
X0194881Y0051034D01*
X0193604Y0051563D01*
X0187072Y0051563D01*
X0185743Y0050982D02*
X0180600Y0050982D01*
X0180600Y0050384D02*
X0185145Y0050384D01*
X0184705Y0049785D02*
X0180600Y0049785D01*
X0180600Y0049187D02*
X0184457Y0049187D01*
X0184288Y0048588D02*
X0180600Y0048588D01*
X0180600Y0047990D02*
X0184288Y0047990D01*
X0184291Y0047391D02*
X0180600Y0047391D01*
X0180600Y0046793D02*
X0184539Y0046793D01*
X0184787Y0046194D02*
X0180600Y0046194D01*
X0180600Y0045596D02*
X0185341Y0045596D01*
X0186145Y0044997D02*
X0180600Y0044997D01*
X0180600Y0044399D02*
X0199769Y0044399D01*
X0199769Y0044997D02*
X0194531Y0044997D01*
X0195334Y0045596D02*
X0199769Y0045596D01*
X0199769Y0046194D02*
X0195889Y0046194D01*
X0196137Y0046793D02*
X0199769Y0046793D01*
X0199769Y0047391D02*
X0196385Y0047391D01*
X0196388Y0047990D02*
X0199769Y0047990D01*
X0199769Y0048588D02*
X0196388Y0048588D01*
X0196219Y0049187D02*
X0199769Y0049187D01*
X0199769Y0049785D02*
X0195971Y0049785D01*
X0195531Y0050384D02*
X0199769Y0050384D01*
X0199769Y0050982D02*
X0194933Y0050982D01*
X0194911Y0055172D02*
X0199769Y0055172D01*
X0199769Y0055770D02*
X0195509Y0055770D01*
X0195962Y0056369D02*
X0199769Y0056369D01*
X0199769Y0056967D02*
X0196210Y0056967D01*
X0196388Y0057566D02*
X0199769Y0057566D01*
X0199769Y0058164D02*
X0196388Y0058164D01*
X0196388Y0058763D02*
X0199769Y0058763D01*
X0199769Y0059361D02*
X0196146Y0059361D01*
X0195899Y0059960D02*
X0199769Y0059960D01*
X0199769Y0060558D02*
X0195357Y0060558D01*
X0194584Y0061157D02*
X0199769Y0061157D01*
X0199769Y0054573D02*
X0180600Y0054573D01*
X0180600Y0053975D02*
X0199769Y0053975D01*
X0199769Y0053376D02*
X0180600Y0053376D01*
X0180600Y0052778D02*
X0199769Y0052778D01*
X0199769Y0052179D02*
X0180600Y0052179D01*
X0180600Y0051581D02*
X0199769Y0051581D01*
X0199769Y0043800D02*
X0180600Y0043800D01*
X0180600Y0043202D02*
X0199769Y0043202D01*
X0199769Y0042603D02*
X0180600Y0042603D01*
X0180600Y0042005D02*
X0199769Y0042005D01*
X0199769Y0041406D02*
X0193983Y0041406D01*
X0193604Y0041563D02*
X0187072Y0041563D01*
X0185795Y0041034D01*
X0184817Y0040056D01*
X0184288Y0038779D01*
X0184288Y0037397D01*
X0184817Y0036120D01*
X0185795Y0035142D01*
X0187072Y0034613D01*
X0193604Y0034613D01*
X0194881Y0035142D01*
X0195859Y0036120D01*
X0196388Y0037397D01*
X0196388Y0038779D01*
X0195859Y0040056D01*
X0194881Y0041034D01*
X0193604Y0041563D01*
X0195107Y0040808D02*
X0199769Y0040808D01*
X0199769Y0040209D02*
X0195706Y0040209D01*
X0196043Y0039611D02*
X0199769Y0039611D01*
X0199769Y0039012D02*
X0196291Y0039012D01*
X0196388Y0038413D02*
X0199769Y0038413D01*
X0199769Y0037815D02*
X0196388Y0037815D01*
X0196313Y0037216D02*
X0199769Y0037216D01*
X0199769Y0036618D02*
X0196065Y0036618D01*
X0195758Y0036019D02*
X0199769Y0036019D01*
X0199769Y0035421D02*
X0195160Y0035421D01*
X0194109Y0034822D02*
X0199769Y0034822D01*
X0199769Y0034224D02*
X0180600Y0034224D01*
X0180600Y0034822D02*
X0186567Y0034822D01*
X0185516Y0035421D02*
X0180600Y0035421D01*
X0180600Y0036019D02*
X0184918Y0036019D01*
X0184611Y0036618D02*
X0180600Y0036618D01*
X0180600Y0037216D02*
X0184363Y0037216D01*
X0184288Y0037815D02*
X0180600Y0037815D01*
X0180600Y0038413D02*
X0184288Y0038413D01*
X0184385Y0039012D02*
X0180600Y0039012D01*
X0180600Y0039611D02*
X0184633Y0039611D01*
X0184970Y0040209D02*
X0180600Y0040209D01*
X0180600Y0040808D02*
X0185569Y0040808D01*
X0186693Y0041406D02*
X0180600Y0041406D01*
X0175600Y0041406D02*
X0143332Y0041406D01*
X0143332Y0040808D02*
X0175600Y0040808D01*
X0175600Y0040209D02*
X0143332Y0040209D01*
X0143332Y0039611D02*
X0175600Y0039611D01*
X0175600Y0039012D02*
X0143332Y0039012D01*
X0143332Y0038413D02*
X0175600Y0038413D01*
X0175600Y0037815D02*
X0143332Y0037815D01*
X0143332Y0037216D02*
X0175600Y0037216D01*
X0175600Y0036618D02*
X0143332Y0036618D01*
X0143332Y0036019D02*
X0175600Y0036019D01*
X0175600Y0035421D02*
X0143332Y0035421D01*
X0143332Y0034822D02*
X0175600Y0034822D01*
X0175600Y0034224D02*
X0142914Y0034224D01*
X0142512Y0033822D02*
X0143332Y0034642D01*
X0143332Y0070201D01*
X0140303Y0073230D01*
X0139483Y0074050D01*
X0108588Y0074050D01*
X0105896Y0076743D01*
X0105896Y0084375D01*
X0107423Y0084375D01*
X0107950Y0084903D01*
X0107950Y0091554D01*
X0107423Y0092081D01*
X0101559Y0092081D01*
X0101032Y0091554D01*
X0101032Y0084903D01*
X0101559Y0084375D01*
X0103096Y0084375D01*
X0103096Y0075583D01*
X0103916Y0074763D01*
X0107428Y0071250D01*
X0126317Y0071250D01*
X0125795Y0071034D01*
X0124817Y0070056D01*
X0124288Y0068779D01*
X0124288Y0067397D01*
X0124817Y0066120D01*
X0125795Y0065142D01*
X0127072Y0064613D01*
X0133604Y0064613D01*
X0134881Y0065142D01*
X0135859Y0066120D01*
X0136388Y0067397D01*
X0136388Y0068779D01*
X0135859Y0070056D01*
X0134881Y0071034D01*
X0134358Y0071250D01*
X0138324Y0071250D01*
X0140532Y0069042D01*
X0140532Y0035802D01*
X0138752Y0034021D01*
X0037349Y0034021D01*
X0036529Y0033201D01*
X0031037Y0027709D01*
X0030217Y0026889D01*
X0030217Y0025194D01*
X0029425Y0024866D01*
X0028337Y0023778D01*
X0027748Y0022356D01*
X0027748Y0020817D01*
X0028337Y0019395D01*
X0029425Y0018307D01*
X0030847Y0017718D01*
X0032386Y0017718D01*
X0033808Y0018307D01*
X0034896Y0019395D01*
X0035485Y0020817D01*
X0035485Y0022356D01*
X0034896Y0023778D01*
X0033808Y0024866D01*
X0033017Y0025194D01*
X0033017Y0025729D01*
X0038508Y0031221D01*
X0126247Y0031221D01*
X0125795Y0031034D01*
X0124817Y0030056D01*
X0124288Y0028779D01*
X0124288Y0027397D01*
X0124817Y0026120D01*
X0125795Y0025142D01*
X0127072Y0024613D01*
X0133604Y0024613D01*
X0134881Y0025142D01*
X0135859Y0026120D01*
X0136388Y0027397D01*
X0136388Y0028779D01*
X0135859Y0030056D01*
X0134881Y0031034D01*
X0134429Y0031221D01*
X0139912Y0031221D01*
X0142512Y0033822D01*
X0142316Y0033625D02*
X0175600Y0033625D01*
X0175600Y0033027D02*
X0141717Y0033027D01*
X0141119Y0032428D02*
X0175600Y0032428D01*
X0175600Y0031830D02*
X0140520Y0031830D01*
X0139922Y0031231D02*
X0175600Y0031231D01*
X0175600Y0030633D02*
X0135282Y0030633D01*
X0135868Y0030034D02*
X0175600Y0030034D01*
X0175600Y0029436D02*
X0136116Y0029436D01*
X0136364Y0028837D02*
X0175600Y0028837D01*
X0175600Y0028239D02*
X0136388Y0028239D01*
X0136388Y0027640D02*
X0175600Y0027640D01*
X0175600Y0027042D02*
X0136240Y0027042D01*
X0135993Y0026443D02*
X0175600Y0026443D01*
X0175600Y0025845D02*
X0135584Y0025845D01*
X0134985Y0025246D02*
X0175600Y0025246D01*
X0175600Y0024648D02*
X0133687Y0024648D01*
X0134826Y0021057D02*
X0174476Y0021057D01*
X0175074Y0021655D02*
X0065485Y0021655D01*
X0065485Y0021057D02*
X0125850Y0021057D01*
X0125219Y0020458D02*
X0065337Y0020458D01*
X0065485Y0020817D02*
X0064896Y0019395D01*
X0063808Y0018307D01*
X0062386Y0017718D01*
X0060847Y0017718D01*
X0059425Y0018307D01*
X0058337Y0019395D01*
X0057748Y0020817D01*
X0057748Y0022356D01*
X0058337Y0023778D01*
X0059425Y0024866D01*
X0060847Y0025455D01*
X0062386Y0025455D01*
X0063808Y0024866D01*
X0064896Y0023778D01*
X0065485Y0022356D01*
X0065485Y0020817D01*
X0065089Y0019860D02*
X0124736Y0019860D01*
X0124488Y0019261D02*
X0064762Y0019261D01*
X0064164Y0018663D02*
X0124288Y0018663D01*
X0124288Y0018064D02*
X0063221Y0018064D01*
X0060012Y0018064D02*
X0054356Y0018064D01*
X0054356Y0017466D02*
X0124288Y0017466D01*
X0124508Y0016867D02*
X0054479Y0016867D01*
X0055077Y0016269D02*
X0124756Y0016269D01*
X0125267Y0015670D02*
X0055676Y0015670D01*
X0054356Y0018663D02*
X0059070Y0018663D01*
X0058471Y0019261D02*
X0054762Y0019261D01*
X0055089Y0019860D02*
X0058145Y0019860D01*
X0057897Y0020458D02*
X0055337Y0020458D01*
X0055485Y0021057D02*
X0057748Y0021057D01*
X0057748Y0021655D02*
X0055485Y0021655D01*
X0055485Y0022254D02*
X0057748Y0022254D01*
X0057954Y0022852D02*
X0055280Y0022852D01*
X0055032Y0023451D02*
X0058202Y0023451D01*
X0058608Y0024049D02*
X0054625Y0024049D01*
X0054027Y0024648D02*
X0059207Y0024648D01*
X0060343Y0025246D02*
X0052891Y0025246D01*
X0050343Y0025246D02*
X0043837Y0025246D01*
X0043854Y0025237D02*
X0043255Y0025542D01*
X0042616Y0025750D01*
X0041953Y0025855D01*
X0041917Y0025855D01*
X0041917Y0021887D01*
X0041317Y0021887D01*
X0041317Y0025855D01*
X0041281Y0025855D01*
X0040617Y0025750D01*
X0039978Y0025542D01*
X0039380Y0025237D01*
X0038836Y0024842D01*
X0038361Y0024367D01*
X0037966Y0023824D01*
X0037661Y0023225D01*
X0037453Y0022586D01*
X0037348Y0021923D01*
X0037348Y0021887D01*
X0041317Y0021887D01*
X0041317Y0021287D01*
X0037348Y0021287D01*
X0037348Y0021251D01*
X0037453Y0020587D01*
X0037661Y0019948D01*
X0037966Y0019349D01*
X0038361Y0018806D01*
X0038836Y0018331D01*
X0039380Y0017936D01*
X0039978Y0017631D01*
X0040617Y0017423D01*
X0041281Y0017318D01*
X0041317Y0017318D01*
X0041317Y0021287D01*
X0041917Y0021287D01*
X0041917Y0021887D01*
X0045885Y0021887D01*
X0045885Y0021923D01*
X0045780Y0022586D01*
X0045573Y0023225D01*
X0045268Y0023824D01*
X0044873Y0024367D01*
X0044398Y0024842D01*
X0043854Y0025237D01*
X0044592Y0024648D02*
X0049207Y0024648D01*
X0048608Y0024049D02*
X0045104Y0024049D01*
X0045458Y0023451D02*
X0048202Y0023451D01*
X0047954Y0022852D02*
X0045694Y0022852D01*
X0045833Y0022254D02*
X0047748Y0022254D01*
X0047748Y0021655D02*
X0041917Y0021655D01*
X0041917Y0021287D02*
X0045885Y0021287D01*
X0045885Y0021251D01*
X0045780Y0020587D01*
X0045573Y0019948D01*
X0045268Y0019349D01*
X0044873Y0018806D01*
X0044398Y0018331D01*
X0043854Y0017936D01*
X0043255Y0017631D01*
X0042616Y0017423D01*
X0041953Y0017318D01*
X0041917Y0017318D01*
X0041917Y0021287D01*
X0041917Y0021057D02*
X0041317Y0021057D01*
X0041317Y0021655D02*
X0035485Y0021655D01*
X0035485Y0021057D02*
X0037379Y0021057D01*
X0037495Y0020458D02*
X0035337Y0020458D01*
X0035089Y0019860D02*
X0037706Y0019860D01*
X0038030Y0019261D02*
X0034762Y0019261D01*
X0034164Y0018663D02*
X0038504Y0018663D01*
X0039203Y0018064D02*
X0033221Y0018064D01*
X0030012Y0018064D02*
X0023221Y0018064D01*
X0024164Y0018663D02*
X0029070Y0018663D01*
X0028471Y0019261D02*
X0024762Y0019261D01*
X0025089Y0019860D02*
X0028145Y0019860D01*
X0027897Y0020458D02*
X0025337Y0020458D01*
X0025485Y0021057D02*
X0027748Y0021057D01*
X0027748Y0021655D02*
X0025485Y0021655D01*
X0025485Y0022254D02*
X0027748Y0022254D01*
X0027954Y0022852D02*
X0025280Y0022852D01*
X0025032Y0023451D02*
X0028202Y0023451D01*
X0028608Y0024049D02*
X0024625Y0024049D01*
X0024027Y0024648D02*
X0029207Y0024648D01*
X0030217Y0025246D02*
X0023017Y0025246D01*
X0023017Y0025845D02*
X0030217Y0025845D01*
X0030217Y0026443D02*
X0023017Y0026443D01*
X0023017Y0027042D02*
X0030369Y0027042D01*
X0030968Y0027640D02*
X0023017Y0027640D01*
X0023017Y0028239D02*
X0031566Y0028239D01*
X0031037Y0027709D02*
X0031037Y0027709D01*
X0032165Y0028837D02*
X0023017Y0028837D01*
X0023017Y0029436D02*
X0032763Y0029436D01*
X0033362Y0030034D02*
X0023017Y0030034D01*
X0023017Y0030633D02*
X0033960Y0030633D01*
X0034559Y0031231D02*
X0023017Y0031231D01*
X0023017Y0031830D02*
X0035157Y0031830D01*
X0035756Y0032428D02*
X0023017Y0032428D01*
X0023017Y0033027D02*
X0036355Y0033027D01*
X0036529Y0033201D02*
X0036529Y0033201D01*
X0036953Y0033625D02*
X0023017Y0033625D01*
X0023017Y0034224D02*
X0138955Y0034224D01*
X0139553Y0034822D02*
X0134109Y0034822D01*
X0133604Y0034613D02*
X0134881Y0035142D01*
X0135859Y0036120D01*
X0136388Y0037397D01*
X0136388Y0038779D01*
X0135859Y0040056D01*
X0134881Y0041034D01*
X0133604Y0041563D01*
X0127072Y0041563D01*
X0125795Y0041034D01*
X0124817Y0040056D01*
X0124288Y0038779D01*
X0124288Y0037397D01*
X0124817Y0036120D01*
X0125795Y0035142D01*
X0127072Y0034613D01*
X0133604Y0034613D01*
X0135160Y0035421D02*
X0140152Y0035421D01*
X0140532Y0036019D02*
X0135758Y0036019D01*
X0136065Y0036618D02*
X0140532Y0036618D01*
X0140532Y0037216D02*
X0136313Y0037216D01*
X0136388Y0037815D02*
X0140532Y0037815D01*
X0140532Y0038413D02*
X0136388Y0038413D01*
X0136291Y0039012D02*
X0140532Y0039012D01*
X0140532Y0039611D02*
X0136043Y0039611D01*
X0135706Y0040209D02*
X0140532Y0040209D01*
X0140532Y0040808D02*
X0135107Y0040808D01*
X0133983Y0041406D02*
X0140532Y0041406D01*
X0140532Y0042005D02*
X0023017Y0042005D01*
X0023017Y0042603D02*
X0140532Y0042603D01*
X0140532Y0043202D02*
X0023017Y0043202D01*
X0023017Y0043800D02*
X0140532Y0043800D01*
X0140532Y0044399D02*
X0023017Y0044399D01*
X0023017Y0044997D02*
X0126145Y0044997D01*
X0125795Y0045142D02*
X0127072Y0044613D01*
X0133604Y0044613D01*
X0134881Y0045142D01*
X0135859Y0046120D01*
X0136388Y0047397D01*
X0136388Y0048779D01*
X0135859Y0050056D01*
X0134881Y0051034D01*
X0133604Y0051563D01*
X0127072Y0051563D01*
X0125795Y0051034D01*
X0124817Y0050056D01*
X0124288Y0048779D01*
X0124288Y0047397D01*
X0124817Y0046120D01*
X0125795Y0045142D01*
X0125341Y0045596D02*
X0023017Y0045596D01*
X0023017Y0046194D02*
X0124787Y0046194D01*
X0124539Y0046793D02*
X0023017Y0046793D01*
X0023017Y0047391D02*
X0124291Y0047391D01*
X0124288Y0047990D02*
X0023017Y0047990D01*
X0023017Y0048588D02*
X0124288Y0048588D01*
X0124457Y0049187D02*
X0023017Y0049187D01*
X0023017Y0049785D02*
X0124705Y0049785D01*
X0125145Y0050384D02*
X0023017Y0050384D01*
X0023017Y0050982D02*
X0125743Y0050982D01*
X0127072Y0054613D02*
X0133604Y0054613D01*
X0134881Y0055142D01*
X0135859Y0056120D01*
X0136388Y0057397D01*
X0136388Y0058779D01*
X0135859Y0060056D01*
X0134881Y0061034D01*
X0133604Y0061563D01*
X0127072Y0061563D01*
X0125795Y0061034D01*
X0124817Y0060056D01*
X0124655Y0059664D01*
X0098637Y0059705D01*
X0098637Y0061636D01*
X0098109Y0062164D01*
X0092246Y0062164D01*
X0091718Y0061636D01*
X0091718Y0054985D01*
X0092246Y0054458D01*
X0098109Y0054458D01*
X0098637Y0054985D01*
X0098637Y0056905D01*
X0124509Y0056864D01*
X0124817Y0056120D01*
X0125795Y0055142D01*
X0127072Y0054613D01*
X0125765Y0055172D02*
X0098637Y0055172D01*
X0098637Y0055770D02*
X0125167Y0055770D01*
X0124714Y0056369D02*
X0098637Y0056369D01*
X0098225Y0054573D02*
X0140532Y0054573D01*
X0140532Y0053975D02*
X0023017Y0053975D01*
X0023017Y0054573D02*
X0084650Y0054573D01*
X0084765Y0054458D02*
X0090629Y0054458D01*
X0091156Y0054985D01*
X0091156Y0061636D01*
X0090629Y0062164D01*
X0089097Y0062164D01*
X0089097Y0068594D01*
X0091054Y0068594D01*
X0091581Y0069122D01*
X0091581Y0075773D01*
X0091054Y0076300D01*
X0089470Y0076300D01*
X0089470Y0092725D01*
X0091396Y0092725D01*
X0091923Y0093253D01*
X0091923Y0099116D01*
X0091396Y0099643D01*
X0084745Y0099643D01*
X0084217Y0099116D01*
X0084217Y0093253D01*
X0084745Y0092725D01*
X0086670Y0092725D01*
X0086670Y0076300D01*
X0085190Y0076300D01*
X0084663Y0075773D01*
X0084663Y0069122D01*
X0085190Y0068594D01*
X0086297Y0068594D01*
X0086297Y0062164D01*
X0084765Y0062164D01*
X0084238Y0061636D01*
X0084238Y0054985D01*
X0084765Y0054458D01*
X0084238Y0055172D02*
X0023017Y0055172D01*
X0023017Y0055770D02*
X0084238Y0055770D01*
X0084238Y0056369D02*
X0023017Y0056369D01*
X0023017Y0056967D02*
X0084238Y0056967D01*
X0084238Y0057566D02*
X0023017Y0057566D01*
X0023017Y0058164D02*
X0084238Y0058164D01*
X0084238Y0058763D02*
X0023017Y0058763D01*
X0023017Y0059361D02*
X0084238Y0059361D01*
X0084238Y0059960D02*
X0023017Y0059960D01*
X0023017Y0060558D02*
X0084238Y0060558D01*
X0084238Y0061157D02*
X0023017Y0061157D01*
X0023017Y0061755D02*
X0084357Y0061755D01*
X0086297Y0062354D02*
X0023017Y0062354D01*
X0023017Y0062952D02*
X0086297Y0062952D01*
X0086297Y0063551D02*
X0023017Y0063551D01*
X0023017Y0064149D02*
X0086297Y0064149D01*
X0086297Y0064748D02*
X0023017Y0064748D01*
X0023017Y0065346D02*
X0086297Y0065346D01*
X0086297Y0065945D02*
X0023017Y0065945D01*
X0023017Y0066544D02*
X0086297Y0066544D01*
X0086297Y0067142D02*
X0023017Y0067142D01*
X0023017Y0067741D02*
X0086297Y0067741D01*
X0086297Y0068339D02*
X0023017Y0068339D01*
X0023017Y0068938D02*
X0084847Y0068938D01*
X0084663Y0069536D02*
X0023017Y0069536D01*
X0023017Y0070135D02*
X0084663Y0070135D01*
X0084663Y0070733D02*
X0023017Y0070733D01*
X0023017Y0071332D02*
X0084663Y0071332D01*
X0084663Y0071930D02*
X0023017Y0071930D01*
X0023017Y0072529D02*
X0084663Y0072529D01*
X0084663Y0073127D02*
X0023017Y0073127D01*
X0023017Y0073726D02*
X0084663Y0073726D01*
X0084663Y0074324D02*
X0023017Y0074324D01*
X0023017Y0074923D02*
X0084663Y0074923D01*
X0084663Y0075521D02*
X0023017Y0075521D01*
X0023017Y0076120D02*
X0085010Y0076120D01*
X0086670Y0076718D02*
X0023017Y0076718D01*
X0023017Y0077317D02*
X0086670Y0077317D01*
X0086670Y0077915D02*
X0023017Y0077915D01*
X0023017Y0078514D02*
X0086670Y0078514D01*
X0086670Y0079112D02*
X0023017Y0079112D01*
X0023017Y0079711D02*
X0086670Y0079711D01*
X0086670Y0080309D02*
X0023017Y0080309D01*
X0023017Y0080908D02*
X0086670Y0080908D01*
X0086670Y0081506D02*
X0023017Y0081506D01*
X0023017Y0082105D02*
X0086670Y0082105D01*
X0086670Y0082703D02*
X0023017Y0082703D01*
X0023017Y0083302D02*
X0086670Y0083302D01*
X0086670Y0083900D02*
X0023017Y0083900D01*
X0023017Y0084499D02*
X0086670Y0084499D01*
X0086670Y0085097D02*
X0023017Y0085097D01*
X0023017Y0085696D02*
X0086670Y0085696D01*
X0086670Y0086294D02*
X0023017Y0086294D01*
X0023017Y0086893D02*
X0086670Y0086893D01*
X0086670Y0087491D02*
X0023017Y0087491D01*
X0023017Y0088090D02*
X0086670Y0088090D01*
X0086670Y0088688D02*
X0023017Y0088688D01*
X0023017Y0089287D02*
X0086670Y0089287D01*
X0086670Y0089885D02*
X0023017Y0089885D01*
X0023017Y0090484D02*
X0086670Y0090484D01*
X0086670Y0091082D02*
X0023017Y0091082D01*
X0023017Y0091681D02*
X0086670Y0091681D01*
X0086670Y0092280D02*
X0023017Y0092280D01*
X0023017Y0092878D02*
X0084592Y0092878D01*
X0084217Y0093477D02*
X0023017Y0093477D01*
X0023017Y0094075D02*
X0084217Y0094075D01*
X0084217Y0094674D02*
X0023017Y0094674D01*
X0023017Y0095272D02*
X0084217Y0095272D01*
X0084217Y0095871D02*
X0023017Y0095871D01*
X0023017Y0096469D02*
X0084217Y0096469D01*
X0084217Y0097068D02*
X0023017Y0097068D01*
X0023017Y0097666D02*
X0084217Y0097666D01*
X0084217Y0098265D02*
X0023017Y0098265D01*
X0023017Y0098863D02*
X0084217Y0098863D01*
X0084563Y0099462D02*
X0023017Y0099462D01*
X0023017Y0100060D02*
X0124821Y0100060D01*
X0124817Y0100056D02*
X0124288Y0098779D01*
X0124288Y0097397D01*
X0124817Y0096120D01*
X0125795Y0095142D01*
X0127072Y0094613D01*
X0133604Y0094613D01*
X0134881Y0095142D01*
X0135859Y0096120D01*
X0136388Y0097397D01*
X0136388Y0098779D01*
X0135859Y0100056D01*
X0134881Y0101034D01*
X0133604Y0101563D01*
X0127072Y0101563D01*
X0125795Y0101034D01*
X0124817Y0100056D01*
X0124571Y0099462D02*
X0091578Y0099462D01*
X0091923Y0098863D02*
X0124323Y0098863D01*
X0124288Y0098265D02*
X0091923Y0098265D01*
X0091923Y0097666D02*
X0124288Y0097666D01*
X0124425Y0097068D02*
X0091923Y0097068D01*
X0091923Y0096469D02*
X0124673Y0096469D01*
X0125067Y0095871D02*
X0091923Y0095871D01*
X0091923Y0095272D02*
X0125665Y0095272D01*
X0126926Y0094674D02*
X0091923Y0094674D01*
X0091923Y0094075D02*
X0175600Y0094075D01*
X0175600Y0093477D02*
X0091923Y0093477D01*
X0091548Y0092878D02*
X0175600Y0092878D01*
X0175600Y0092280D02*
X0089470Y0092280D01*
X0089470Y0091681D02*
X0101159Y0091681D01*
X0101032Y0091082D02*
X0089470Y0091082D01*
X0089470Y0090484D02*
X0101032Y0090484D01*
X0101032Y0089885D02*
X0089470Y0089885D01*
X0089470Y0089287D02*
X0101032Y0089287D01*
X0101032Y0088688D02*
X0089470Y0088688D01*
X0089470Y0088090D02*
X0101032Y0088090D01*
X0101032Y0087491D02*
X0089470Y0087491D01*
X0089470Y0086893D02*
X0101032Y0086893D01*
X0101032Y0086294D02*
X0089470Y0086294D01*
X0089470Y0085696D02*
X0101032Y0085696D01*
X0101032Y0085097D02*
X0089470Y0085097D01*
X0089470Y0084499D02*
X0101436Y0084499D01*
X0103096Y0083900D02*
X0089470Y0083900D01*
X0089470Y0083302D02*
X0103096Y0083302D01*
X0103096Y0082703D02*
X0089470Y0082703D01*
X0089470Y0082105D02*
X0103096Y0082105D01*
X0103096Y0081506D02*
X0089470Y0081506D01*
X0089470Y0080908D02*
X0103096Y0080908D01*
X0103096Y0080309D02*
X0089470Y0080309D01*
X0089470Y0079711D02*
X0103096Y0079711D01*
X0103096Y0079112D02*
X0089470Y0079112D01*
X0089470Y0078514D02*
X0103096Y0078514D01*
X0103096Y0077915D02*
X0089470Y0077915D01*
X0089470Y0077317D02*
X0103096Y0077317D01*
X0103096Y0076718D02*
X0089470Y0076718D01*
X0091234Y0076120D02*
X0091958Y0076120D01*
X0092003Y0076198D02*
X0091832Y0075902D01*
X0091743Y0075571D01*
X0091743Y0072747D01*
X0095302Y0072747D01*
X0095302Y0072147D01*
X0091743Y0072147D01*
X0091743Y0069323D01*
X0091832Y0068993D01*
X0092003Y0068696D01*
X0092245Y0068454D01*
X0092542Y0068283D01*
X0092872Y0068194D01*
X0095303Y0068194D01*
X0095303Y0072147D01*
X0095902Y0072147D01*
X0095902Y0068194D01*
X0098333Y0068194D01*
X0098663Y0068283D01*
X0098960Y0068454D01*
X0099202Y0068696D01*
X0099373Y0068993D01*
X0099462Y0069323D01*
X0099462Y0072147D01*
X0095903Y0072147D01*
X0095903Y0072747D01*
X0099462Y0072747D01*
X0099462Y0075571D01*
X0099373Y0075902D01*
X0099202Y0076198D01*
X0098960Y0076440D01*
X0098663Y0076611D01*
X0098333Y0076700D01*
X0095902Y0076700D01*
X0095902Y0072747D01*
X0095303Y0072747D01*
X0095303Y0076700D01*
X0092872Y0076700D01*
X0092542Y0076611D01*
X0092245Y0076440D01*
X0092003Y0076198D01*
X0091743Y0075521D02*
X0091581Y0075521D01*
X0091581Y0074923D02*
X0091743Y0074923D01*
X0091743Y0074324D02*
X0091581Y0074324D01*
X0091581Y0073726D02*
X0091743Y0073726D01*
X0091743Y0073127D02*
X0091581Y0073127D01*
X0091581Y0072529D02*
X0095302Y0072529D01*
X0095303Y0073127D02*
X0095902Y0073127D01*
X0095903Y0072529D02*
X0106150Y0072529D01*
X0105552Y0073127D02*
X0099462Y0073127D01*
X0099462Y0073726D02*
X0104953Y0073726D01*
X0104355Y0074324D02*
X0099462Y0074324D01*
X0099462Y0074923D02*
X0103756Y0074923D01*
X0103158Y0075521D02*
X0099462Y0075521D01*
X0099247Y0076120D02*
X0103096Y0076120D01*
X0105920Y0076718D02*
X0124569Y0076718D01*
X0124817Y0076120D02*
X0124288Y0077397D01*
X0124288Y0078779D01*
X0124817Y0080056D01*
X0125795Y0081034D01*
X0127072Y0081563D01*
X0133604Y0081563D01*
X0134881Y0081034D01*
X0135859Y0080056D01*
X0136388Y0078779D01*
X0136388Y0077397D01*
X0135859Y0076120D01*
X0134881Y0075142D01*
X0133604Y0074613D01*
X0127072Y0074613D01*
X0125795Y0075142D01*
X0124817Y0076120D01*
X0106519Y0076120D01*
X0107117Y0075521D02*
X0125416Y0075521D01*
X0126325Y0074923D02*
X0107716Y0074923D01*
X0108314Y0074324D02*
X0175600Y0074324D01*
X0175600Y0073726D02*
X0139808Y0073726D01*
X0140407Y0073127D02*
X0175600Y0073127D01*
X0175600Y0072529D02*
X0141005Y0072529D01*
X0141604Y0071930D02*
X0175600Y0071930D01*
X0175600Y0071332D02*
X0142202Y0071332D01*
X0142801Y0070733D02*
X0175600Y0070733D01*
X0175600Y0070135D02*
X0143332Y0070135D01*
X0143332Y0069536D02*
X0175600Y0069536D01*
X0175600Y0068938D02*
X0143332Y0068938D01*
X0143332Y0068339D02*
X0175600Y0068339D01*
X0175600Y0067741D02*
X0143332Y0067741D01*
X0143332Y0067142D02*
X0175600Y0067142D01*
X0175600Y0066544D02*
X0143332Y0066544D01*
X0143332Y0065945D02*
X0175600Y0065945D01*
X0175600Y0065346D02*
X0143332Y0065346D01*
X0143332Y0064748D02*
X0175600Y0064748D01*
X0175600Y0064149D02*
X0143332Y0064149D01*
X0143332Y0063551D02*
X0175600Y0063551D01*
X0175600Y0062952D02*
X0143332Y0062952D01*
X0143332Y0062354D02*
X0175600Y0062354D01*
X0175600Y0061755D02*
X0143332Y0061755D01*
X0143332Y0061157D02*
X0175600Y0061157D01*
X0175600Y0060558D02*
X0143332Y0060558D01*
X0143332Y0059960D02*
X0175600Y0059960D01*
X0175600Y0059361D02*
X0143332Y0059361D01*
X0143332Y0058763D02*
X0175600Y0058763D01*
X0175600Y0058164D02*
X0143332Y0058164D01*
X0143332Y0057566D02*
X0175600Y0057566D01*
X0175600Y0056967D02*
X0143332Y0056967D01*
X0143332Y0056369D02*
X0175600Y0056369D01*
X0175600Y0055770D02*
X0143332Y0055770D01*
X0143332Y0055172D02*
X0175600Y0055172D01*
X0175600Y0054573D02*
X0143332Y0054573D01*
X0143332Y0053975D02*
X0175600Y0053975D01*
X0175600Y0053376D02*
X0143332Y0053376D01*
X0143332Y0052778D02*
X0175600Y0052778D01*
X0175600Y0052179D02*
X0143332Y0052179D01*
X0143332Y0051581D02*
X0175600Y0051581D01*
X0175600Y0050982D02*
X0143332Y0050982D01*
X0143332Y0050384D02*
X0175600Y0050384D01*
X0175600Y0049785D02*
X0143332Y0049785D01*
X0143332Y0049187D02*
X0175600Y0049187D01*
X0175600Y0048588D02*
X0143332Y0048588D01*
X0143332Y0047990D02*
X0175600Y0047990D01*
X0175600Y0047391D02*
X0143332Y0047391D01*
X0143332Y0046793D02*
X0175600Y0046793D01*
X0175600Y0046194D02*
X0143332Y0046194D01*
X0143332Y0045596D02*
X0175600Y0045596D01*
X0175600Y0044997D02*
X0143332Y0044997D01*
X0143332Y0044399D02*
X0175600Y0044399D01*
X0175600Y0043800D02*
X0143332Y0043800D01*
X0143332Y0043202D02*
X0175600Y0043202D01*
X0175600Y0042603D02*
X0143332Y0042603D01*
X0143332Y0042005D02*
X0175600Y0042005D01*
X0180600Y0033625D02*
X0199769Y0033625D01*
X0199769Y0033027D02*
X0180600Y0033027D01*
X0180600Y0032428D02*
X0199769Y0032428D01*
X0199769Y0031830D02*
X0180600Y0031830D01*
X0180600Y0031231D02*
X0186272Y0031231D01*
X0185795Y0031034D02*
X0184817Y0030056D01*
X0184288Y0028779D01*
X0184288Y0027397D01*
X0184817Y0026120D01*
X0185795Y0025142D01*
X0187072Y0024613D01*
X0193604Y0024613D01*
X0194881Y0025142D01*
X0195859Y0026120D01*
X0196388Y0027397D01*
X0196388Y0028779D01*
X0195859Y0030056D01*
X0194881Y0031034D01*
X0193604Y0031563D01*
X0187072Y0031563D01*
X0185795Y0031034D01*
X0185394Y0030633D02*
X0180600Y0030633D01*
X0180600Y0030034D02*
X0184808Y0030034D01*
X0184560Y0029436D02*
X0180600Y0029436D01*
X0180600Y0028837D02*
X0184312Y0028837D01*
X0184288Y0028239D02*
X0180600Y0028239D01*
X0180600Y0027640D02*
X0184288Y0027640D01*
X0184435Y0027042D02*
X0180600Y0027042D01*
X0180600Y0026443D02*
X0184683Y0026443D01*
X0185092Y0025845D02*
X0180600Y0025845D01*
X0180600Y0025246D02*
X0185691Y0025246D01*
X0186989Y0024648D02*
X0180600Y0024648D01*
X0180600Y0024049D02*
X0199769Y0024049D01*
X0199769Y0023451D02*
X0180600Y0023451D01*
X0180600Y0022852D02*
X0199769Y0022852D01*
X0199769Y0022254D02*
X0180600Y0022254D01*
X0180600Y0021655D02*
X0199769Y0021655D01*
X0199769Y0021057D02*
X0194826Y0021057D01*
X0194881Y0021034D02*
X0193604Y0021563D01*
X0187072Y0021563D01*
X0185795Y0021034D01*
X0184817Y0020056D01*
X0184288Y0018779D01*
X0184288Y0017397D01*
X0184817Y0016120D01*
X0185795Y0015142D01*
X0187072Y0014613D01*
X0193604Y0014613D01*
X0194881Y0015142D01*
X0195859Y0016120D01*
X0196388Y0017397D01*
X0196388Y0018779D01*
X0195859Y0020056D01*
X0194881Y0021034D01*
X0195457Y0020458D02*
X0199769Y0020458D01*
X0199769Y0019860D02*
X0195940Y0019860D01*
X0196188Y0019261D02*
X0199769Y0019261D01*
X0199769Y0018663D02*
X0196388Y0018663D01*
X0196388Y0018064D02*
X0199769Y0018064D01*
X0199769Y0017466D02*
X0196388Y0017466D01*
X0196168Y0016867D02*
X0199769Y0016867D01*
X0199769Y0016269D02*
X0195920Y0016269D01*
X0195409Y0015670D02*
X0199769Y0015670D01*
X0199769Y0015072D02*
X0194710Y0015072D01*
X0193604Y0011563D02*
X0187072Y0011563D01*
X0185795Y0011034D01*
X0184817Y0010056D01*
X0184288Y0008779D01*
X0184288Y0007397D01*
X0184817Y0006120D01*
X0185795Y0005142D01*
X0187072Y0004613D01*
X0193604Y0004613D01*
X0194881Y0005142D01*
X0195859Y0006120D01*
X0196388Y0007397D01*
X0196388Y0008779D01*
X0195859Y0010056D01*
X0194881Y0011034D01*
X0193604Y0011563D01*
X0193803Y0011480D02*
X0199769Y0011480D01*
X0199769Y0010882D02*
X0195033Y0010882D01*
X0195631Y0010283D02*
X0199769Y0010283D01*
X0199769Y0009685D02*
X0196012Y0009685D01*
X0196260Y0009086D02*
X0199769Y0009086D01*
X0199769Y0008488D02*
X0196388Y0008488D01*
X0196388Y0007889D02*
X0199769Y0007889D01*
X0199769Y0007291D02*
X0196344Y0007291D01*
X0196096Y0006692D02*
X0199769Y0006692D01*
X0199769Y0006094D02*
X0195833Y0006094D01*
X0195234Y0005495D02*
X0199769Y0005495D01*
X0199769Y0004897D02*
X0194289Y0004897D01*
X0199769Y0004298D02*
X0001650Y0004298D01*
X0001650Y0003700D02*
X0199769Y0003700D01*
X0199769Y0003101D02*
X0001650Y0003101D01*
X0001650Y0002503D02*
X0199769Y0002503D01*
X0199769Y0001904D02*
X0001650Y0001904D01*
X0001650Y0001656D02*
X0001650Y0178471D01*
X0199769Y0178471D01*
X0199769Y0001656D01*
X0001650Y0001656D01*
X0001650Y0004897D02*
X0126387Y0004897D01*
X0125442Y0005495D02*
X0001650Y0005495D01*
X0001650Y0006094D02*
X0124843Y0006094D01*
X0124580Y0006692D02*
X0001650Y0006692D01*
X0001650Y0007291D02*
X0124332Y0007291D01*
X0124288Y0007889D02*
X0001650Y0007889D01*
X0001650Y0008488D02*
X0124288Y0008488D01*
X0124416Y0009086D02*
X0001650Y0009086D01*
X0001650Y0009685D02*
X0124664Y0009685D01*
X0125044Y0010283D02*
X0001650Y0010283D01*
X0001650Y0010882D02*
X0053474Y0010882D01*
X0052795Y0011480D02*
X0001650Y0011480D01*
X0001650Y0012079D02*
X0052196Y0012079D01*
X0051598Y0012677D02*
X0001650Y0012677D01*
X0001650Y0013276D02*
X0050999Y0013276D01*
X0050400Y0013875D02*
X0001650Y0013875D01*
X0001650Y0014473D02*
X0049802Y0014473D01*
X0049516Y0015072D02*
X0001650Y0015072D01*
X0001650Y0015670D02*
X0049356Y0015670D01*
X0049356Y0016269D02*
X0001650Y0016269D01*
X0001650Y0016867D02*
X0049356Y0016867D01*
X0049356Y0017466D02*
X0042747Y0017466D01*
X0041917Y0017466D02*
X0041317Y0017466D01*
X0041317Y0018064D02*
X0041917Y0018064D01*
X0041917Y0018663D02*
X0041317Y0018663D01*
X0041317Y0019261D02*
X0041917Y0019261D01*
X0041917Y0019860D02*
X0041317Y0019860D01*
X0041317Y0020458D02*
X0041917Y0020458D01*
X0041917Y0022254D02*
X0041317Y0022254D01*
X0041317Y0022852D02*
X0041917Y0022852D01*
X0041917Y0023451D02*
X0041317Y0023451D01*
X0041317Y0024049D02*
X0041917Y0024049D01*
X0041917Y0024648D02*
X0041317Y0024648D01*
X0041317Y0025246D02*
X0041917Y0025246D01*
X0041917Y0025845D02*
X0041317Y0025845D01*
X0041215Y0025845D02*
X0033132Y0025845D01*
X0033017Y0025246D02*
X0039397Y0025246D01*
X0038641Y0024648D02*
X0034027Y0024648D01*
X0034625Y0024049D02*
X0038130Y0024049D01*
X0037776Y0023451D02*
X0035032Y0023451D01*
X0035280Y0022852D02*
X0037540Y0022852D01*
X0037401Y0022254D02*
X0035485Y0022254D01*
X0033731Y0026443D02*
X0124683Y0026443D01*
X0124435Y0027042D02*
X0034329Y0027042D01*
X0034928Y0027640D02*
X0124288Y0027640D01*
X0124288Y0028239D02*
X0035526Y0028239D01*
X0036125Y0028837D02*
X0124312Y0028837D01*
X0124560Y0029436D02*
X0036723Y0029436D01*
X0037322Y0030034D02*
X0124808Y0030034D01*
X0125394Y0030633D02*
X0037920Y0030633D01*
X0042018Y0025845D02*
X0125092Y0025845D01*
X0125691Y0025246D02*
X0062891Y0025246D01*
X0064027Y0024648D02*
X0126989Y0024648D01*
X0135457Y0020458D02*
X0173877Y0020458D01*
X0173279Y0019860D02*
X0135940Y0019860D01*
X0136188Y0019261D02*
X0172680Y0019261D01*
X0172082Y0018663D02*
X0136388Y0018663D01*
X0136388Y0018064D02*
X0171483Y0018064D01*
X0170885Y0017466D02*
X0136388Y0017466D01*
X0136168Y0016867D02*
X0170286Y0016867D01*
X0169688Y0016269D02*
X0135920Y0016269D01*
X0135409Y0015670D02*
X0169089Y0015670D01*
X0172569Y0012079D02*
X0199769Y0012079D01*
X0199769Y0012677D02*
X0173168Y0012677D01*
X0173766Y0013276D02*
X0199769Y0013276D01*
X0199769Y0013875D02*
X0174365Y0013875D01*
X0174963Y0014473D02*
X0199769Y0014473D01*
X0199769Y0024648D02*
X0193687Y0024648D01*
X0194985Y0025246D02*
X0199769Y0025246D01*
X0199769Y0025845D02*
X0195584Y0025845D01*
X0195993Y0026443D02*
X0199769Y0026443D01*
X0199769Y0027042D02*
X0196240Y0027042D01*
X0196388Y0027640D02*
X0199769Y0027640D01*
X0199769Y0028239D02*
X0196388Y0028239D01*
X0196364Y0028837D02*
X0199769Y0028837D01*
X0199769Y0029436D02*
X0196116Y0029436D01*
X0195868Y0030034D02*
X0199769Y0030034D01*
X0199769Y0030633D02*
X0195282Y0030633D01*
X0194404Y0031231D02*
X0199769Y0031231D01*
X0185850Y0021057D02*
X0180600Y0021057D01*
X0180521Y0020458D02*
X0185219Y0020458D01*
X0184736Y0019860D02*
X0180273Y0019860D01*
X0179751Y0019261D02*
X0184488Y0019261D01*
X0184288Y0018663D02*
X0179153Y0018663D01*
X0179516Y0019026D02*
X0179516Y0019026D01*
X0178554Y0018064D02*
X0184288Y0018064D01*
X0184288Y0017466D02*
X0177956Y0017466D01*
X0177357Y0016867D02*
X0184508Y0016867D01*
X0184756Y0016269D02*
X0176759Y0016269D01*
X0176160Y0015670D02*
X0185267Y0015670D01*
X0185966Y0015072D02*
X0175562Y0015072D01*
X0171971Y0011480D02*
X0186873Y0011480D01*
X0185643Y0010882D02*
X0171291Y0010882D01*
X0175600Y0022254D02*
X0065485Y0022254D01*
X0065280Y0022852D02*
X0175600Y0022852D01*
X0175600Y0023451D02*
X0065032Y0023451D01*
X0064625Y0024049D02*
X0175600Y0024049D01*
X0185044Y0010283D02*
X0135631Y0010283D01*
X0136012Y0009685D02*
X0184664Y0009685D01*
X0184416Y0009086D02*
X0136260Y0009086D01*
X0136388Y0008488D02*
X0184288Y0008488D01*
X0184288Y0007889D02*
X0136388Y0007889D01*
X0136344Y0007291D02*
X0184332Y0007291D01*
X0184580Y0006692D02*
X0136096Y0006692D01*
X0135833Y0006094D02*
X0184843Y0006094D01*
X0185442Y0005495D02*
X0135234Y0005495D01*
X0134289Y0004897D02*
X0186387Y0004897D01*
X0139332Y0032621D02*
X0139025Y0032621D01*
X0140532Y0044997D02*
X0134531Y0044997D01*
X0135334Y0045596D02*
X0140532Y0045596D01*
X0140532Y0046194D02*
X0135889Y0046194D01*
X0136137Y0046793D02*
X0140532Y0046793D01*
X0140532Y0047391D02*
X0136385Y0047391D01*
X0136388Y0047990D02*
X0140532Y0047990D01*
X0140532Y0048588D02*
X0136388Y0048588D01*
X0136219Y0049187D02*
X0140532Y0049187D01*
X0140532Y0049785D02*
X0135971Y0049785D01*
X0135531Y0050384D02*
X0140532Y0050384D01*
X0140532Y0050982D02*
X0134933Y0050982D01*
X0134911Y0055172D02*
X0140532Y0055172D01*
X0140532Y0055770D02*
X0135509Y0055770D01*
X0135962Y0056369D02*
X0140532Y0056369D01*
X0140532Y0056967D02*
X0136210Y0056967D01*
X0136388Y0057566D02*
X0140532Y0057566D01*
X0140532Y0058164D02*
X0136388Y0058164D01*
X0136388Y0058763D02*
X0140532Y0058763D01*
X0140532Y0059361D02*
X0136146Y0059361D01*
X0135899Y0059960D02*
X0140532Y0059960D01*
X0140532Y0060558D02*
X0135357Y0060558D01*
X0134584Y0061157D02*
X0140532Y0061157D01*
X0140532Y0061755D02*
X0098517Y0061755D01*
X0098637Y0061157D02*
X0126092Y0061157D01*
X0125319Y0060558D02*
X0098637Y0060558D01*
X0098637Y0059960D02*
X0124777Y0059960D01*
X0126747Y0064748D02*
X0089097Y0064748D01*
X0089097Y0065346D02*
X0125591Y0065346D01*
X0124992Y0065945D02*
X0089097Y0065945D01*
X0089097Y0066544D02*
X0124642Y0066544D01*
X0124394Y0067142D02*
X0089097Y0067142D01*
X0089097Y0067741D02*
X0124288Y0067741D01*
X0124288Y0068339D02*
X0098760Y0068339D01*
X0099341Y0068938D02*
X0124354Y0068938D01*
X0124602Y0069536D02*
X0099462Y0069536D01*
X0099462Y0070135D02*
X0124896Y0070135D01*
X0125494Y0070733D02*
X0099462Y0070733D01*
X0099462Y0071332D02*
X0107347Y0071332D01*
X0106749Y0071930D02*
X0099462Y0071930D01*
X0095902Y0071930D02*
X0095303Y0071930D01*
X0095303Y0071332D02*
X0095902Y0071332D01*
X0095902Y0070733D02*
X0095303Y0070733D01*
X0095303Y0070135D02*
X0095902Y0070135D01*
X0095902Y0069536D02*
X0095303Y0069536D01*
X0095303Y0068938D02*
X0095902Y0068938D01*
X0095902Y0068339D02*
X0095303Y0068339D01*
X0092444Y0068339D02*
X0089097Y0068339D01*
X0091397Y0068938D02*
X0091864Y0068938D01*
X0091743Y0069536D02*
X0091581Y0069536D01*
X0091581Y0070135D02*
X0091743Y0070135D01*
X0091743Y0070733D02*
X0091581Y0070733D01*
X0091581Y0071332D02*
X0091743Y0071332D01*
X0091743Y0071930D02*
X0091581Y0071930D01*
X0088122Y0072447D02*
X0087697Y0072022D01*
X0089097Y0064149D02*
X0140532Y0064149D01*
X0140532Y0063551D02*
X0089097Y0063551D01*
X0089097Y0062952D02*
X0140532Y0062952D01*
X0140532Y0062354D02*
X0089097Y0062354D01*
X0091037Y0061755D02*
X0091837Y0061755D01*
X0091718Y0061157D02*
X0091156Y0061157D01*
X0091156Y0060558D02*
X0091718Y0060558D01*
X0091718Y0059960D02*
X0091156Y0059960D01*
X0091156Y0059361D02*
X0091718Y0059361D01*
X0091718Y0058763D02*
X0091156Y0058763D01*
X0091156Y0058164D02*
X0091718Y0058164D01*
X0091718Y0057566D02*
X0091156Y0057566D01*
X0091156Y0056967D02*
X0091718Y0056967D01*
X0091718Y0056369D02*
X0091156Y0056369D01*
X0091156Y0055770D02*
X0091718Y0055770D01*
X0091718Y0055172D02*
X0091156Y0055172D01*
X0090744Y0054573D02*
X0092130Y0054573D01*
X0095303Y0073726D02*
X0095902Y0073726D01*
X0095902Y0074324D02*
X0095303Y0074324D01*
X0095303Y0074923D02*
X0095902Y0074923D01*
X0095902Y0075521D02*
X0095303Y0075521D01*
X0095303Y0076120D02*
X0095902Y0076120D01*
X0105896Y0077317D02*
X0124322Y0077317D01*
X0124288Y0077915D02*
X0105896Y0077915D01*
X0105896Y0078514D02*
X0124288Y0078514D01*
X0124426Y0079112D02*
X0105896Y0079112D01*
X0105896Y0079711D02*
X0124674Y0079711D01*
X0125070Y0080309D02*
X0105896Y0080309D01*
X0105896Y0080908D02*
X0125669Y0080908D01*
X0126935Y0081506D02*
X0105896Y0081506D01*
X0105896Y0082105D02*
X0175600Y0082105D01*
X0175600Y0082703D02*
X0105896Y0082703D01*
X0105896Y0083302D02*
X0175600Y0083302D01*
X0175600Y0083900D02*
X0105896Y0083900D01*
X0107546Y0084499D02*
X0108916Y0084499D01*
X0109039Y0084375D02*
X0114903Y0084375D01*
X0115430Y0084903D01*
X0115430Y0086688D01*
X0124582Y0086688D01*
X0124817Y0086120D01*
X0125795Y0085142D01*
X0127072Y0084613D01*
X0133604Y0084613D01*
X0134881Y0085142D01*
X0135859Y0086120D01*
X0136388Y0087397D01*
X0136388Y0088779D01*
X0135859Y0090056D01*
X0134881Y0091034D01*
X0133604Y0091563D01*
X0127072Y0091563D01*
X0125795Y0091034D01*
X0124817Y0090056D01*
X0124582Y0089488D01*
X0115430Y0089488D01*
X0115430Y0091554D01*
X0114903Y0092081D01*
X0109039Y0092081D01*
X0108512Y0091554D01*
X0108512Y0084903D01*
X0109039Y0084375D01*
X0108512Y0085097D02*
X0107950Y0085097D01*
X0107950Y0085696D02*
X0108512Y0085696D01*
X0108512Y0086294D02*
X0107950Y0086294D01*
X0107950Y0086893D02*
X0108512Y0086893D01*
X0108512Y0087491D02*
X0107950Y0087491D01*
X0107950Y0088090D02*
X0108512Y0088090D01*
X0108512Y0088688D02*
X0107950Y0088688D01*
X0107950Y0089287D02*
X0108512Y0089287D01*
X0108512Y0089885D02*
X0107950Y0089885D01*
X0107950Y0090484D02*
X0108512Y0090484D01*
X0108512Y0091082D02*
X0107950Y0091082D01*
X0107823Y0091681D02*
X0108640Y0091681D01*
X0111971Y0088228D02*
X0112111Y0088088D01*
X0115430Y0086294D02*
X0124745Y0086294D01*
X0125241Y0085696D02*
X0115430Y0085696D01*
X0115430Y0085097D02*
X0125903Y0085097D01*
X0124747Y0089885D02*
X0115430Y0089885D01*
X0115430Y0090484D02*
X0125245Y0090484D01*
X0125912Y0091082D02*
X0115430Y0091082D01*
X0115303Y0091681D02*
X0175600Y0091681D01*
X0175600Y0091082D02*
X0134764Y0091082D01*
X0135431Y0090484D02*
X0175600Y0090484D01*
X0175600Y0089885D02*
X0135929Y0089885D01*
X0136177Y0089287D02*
X0175600Y0089287D01*
X0175600Y0088688D02*
X0136388Y0088688D01*
X0136388Y0088090D02*
X0175600Y0088090D01*
X0175600Y0087491D02*
X0136388Y0087491D01*
X0136179Y0086893D02*
X0175600Y0086893D01*
X0175600Y0086294D02*
X0135931Y0086294D01*
X0135435Y0085696D02*
X0175600Y0085696D01*
X0175600Y0085097D02*
X0134773Y0085097D01*
X0133740Y0081506D02*
X0175600Y0081506D01*
X0175600Y0080908D02*
X0135007Y0080908D01*
X0135606Y0080309D02*
X0175600Y0080309D01*
X0175600Y0079711D02*
X0136002Y0079711D01*
X0136250Y0079112D02*
X0175600Y0079112D01*
X0175600Y0078514D02*
X0136388Y0078514D01*
X0136388Y0077915D02*
X0175600Y0077915D01*
X0175600Y0077317D02*
X0136354Y0077317D01*
X0136106Y0076718D02*
X0175600Y0076718D01*
X0175600Y0076120D02*
X0135859Y0076120D01*
X0135260Y0075521D02*
X0175600Y0075521D01*
X0175600Y0074923D02*
X0134351Y0074923D01*
X0135182Y0070733D02*
X0138841Y0070733D01*
X0139439Y0070135D02*
X0135780Y0070135D01*
X0136074Y0069536D02*
X0140038Y0069536D01*
X0140532Y0068938D02*
X0136322Y0068938D01*
X0136388Y0068339D02*
X0140532Y0068339D01*
X0140532Y0067741D02*
X0136388Y0067741D01*
X0136282Y0067142D02*
X0140532Y0067142D01*
X0140532Y0066544D02*
X0136034Y0066544D01*
X0135684Y0065945D02*
X0140532Y0065945D01*
X0140532Y0065346D02*
X0135085Y0065346D01*
X0133929Y0064748D02*
X0140532Y0064748D01*
X0140532Y0053376D02*
X0023017Y0053376D01*
X0023017Y0052778D02*
X0140532Y0052778D01*
X0140532Y0052179D02*
X0023017Y0052179D01*
X0023017Y0051581D02*
X0140532Y0051581D01*
X0130338Y0058088D02*
X0130171Y0058255D01*
X0126693Y0041406D02*
X0023017Y0041406D01*
X0023017Y0040808D02*
X0125569Y0040808D01*
X0124970Y0040209D02*
X0023017Y0040209D01*
X0023017Y0039611D02*
X0124633Y0039611D01*
X0124385Y0039012D02*
X0023017Y0039012D01*
X0023017Y0038413D02*
X0124288Y0038413D01*
X0124288Y0037815D02*
X0023017Y0037815D01*
X0023017Y0037216D02*
X0124363Y0037216D01*
X0124611Y0036618D02*
X0023017Y0036618D01*
X0023017Y0036019D02*
X0124918Y0036019D01*
X0125516Y0035421D02*
X0023017Y0035421D01*
X0023017Y0034822D02*
X0126567Y0034822D01*
X0115027Y0084499D02*
X0175600Y0084499D01*
X0180600Y0084499D02*
X0199769Y0084499D01*
X0199769Y0085097D02*
X0194773Y0085097D01*
X0195435Y0085696D02*
X0199769Y0085696D01*
X0199769Y0086294D02*
X0195931Y0086294D01*
X0196179Y0086893D02*
X0199769Y0086893D01*
X0199769Y0087491D02*
X0196388Y0087491D01*
X0196388Y0088090D02*
X0199769Y0088090D01*
X0199769Y0088688D02*
X0196388Y0088688D01*
X0196177Y0089287D02*
X0199769Y0089287D01*
X0199769Y0089885D02*
X0195929Y0089885D01*
X0195431Y0090484D02*
X0199769Y0090484D01*
X0199769Y0091082D02*
X0194764Y0091082D01*
X0199769Y0083900D02*
X0180600Y0083900D01*
X0180600Y0083302D02*
X0199769Y0083302D01*
X0199769Y0082703D02*
X0180600Y0082703D01*
X0180600Y0082105D02*
X0199769Y0082105D01*
X0199769Y0081506D02*
X0193740Y0081506D01*
X0195007Y0080908D02*
X0199769Y0080908D01*
X0199769Y0080309D02*
X0195606Y0080309D01*
X0196002Y0079711D02*
X0199769Y0079711D01*
X0199769Y0079112D02*
X0196250Y0079112D01*
X0196388Y0078514D02*
X0199769Y0078514D01*
X0199769Y0077915D02*
X0196388Y0077915D01*
X0196354Y0077317D02*
X0199769Y0077317D01*
X0199769Y0076718D02*
X0196106Y0076718D01*
X0195859Y0076120D02*
X0199769Y0076120D01*
X0199769Y0075521D02*
X0195260Y0075521D01*
X0194351Y0074923D02*
X0199769Y0074923D01*
X0199769Y0074324D02*
X0180600Y0074324D01*
X0180600Y0073726D02*
X0199769Y0073726D01*
X0199769Y0073127D02*
X0180600Y0073127D01*
X0180600Y0072529D02*
X0199769Y0072529D01*
X0185494Y0070733D02*
X0180600Y0070733D01*
X0180600Y0070135D02*
X0184896Y0070135D01*
X0184602Y0069536D02*
X0180600Y0069536D01*
X0180600Y0068938D02*
X0184354Y0068938D01*
X0184288Y0068339D02*
X0180600Y0068339D01*
X0180600Y0067741D02*
X0184288Y0067741D01*
X0184394Y0067142D02*
X0180600Y0067142D01*
X0180600Y0066544D02*
X0184642Y0066544D01*
X0184992Y0065945D02*
X0180600Y0065945D01*
X0180600Y0065346D02*
X0185591Y0065346D01*
X0186747Y0064748D02*
X0180600Y0064748D01*
X0180600Y0094674D02*
X0186926Y0094674D01*
X0185665Y0095272D02*
X0180600Y0095272D01*
X0180600Y0095871D02*
X0185067Y0095871D01*
X0184673Y0096469D02*
X0180600Y0096469D01*
X0180600Y0097068D02*
X0184425Y0097068D01*
X0184288Y0097666D02*
X0180600Y0097666D01*
X0180600Y0098265D02*
X0184288Y0098265D01*
X0184323Y0098863D02*
X0180600Y0098863D01*
X0180600Y0099462D02*
X0184571Y0099462D01*
X0184821Y0100060D02*
X0180600Y0100060D01*
X0180600Y0100659D02*
X0185420Y0100659D01*
X0186334Y0101257D02*
X0180600Y0101257D01*
X0175600Y0101257D02*
X0134342Y0101257D01*
X0135256Y0100659D02*
X0175600Y0100659D01*
X0175600Y0100060D02*
X0135855Y0100060D01*
X0136105Y0099462D02*
X0175600Y0099462D01*
X0175600Y0098863D02*
X0136353Y0098863D01*
X0136388Y0098265D02*
X0175600Y0098265D01*
X0175600Y0097666D02*
X0136388Y0097666D01*
X0136251Y0097068D02*
X0175600Y0097068D01*
X0175600Y0096469D02*
X0136003Y0096469D01*
X0135609Y0095871D02*
X0175600Y0095871D01*
X0175600Y0095272D02*
X0135011Y0095272D01*
X0133750Y0094674D02*
X0175600Y0094674D01*
X0175600Y0101856D02*
X0091923Y0101856D01*
X0091923Y0102454D02*
X0175600Y0102454D01*
X0175600Y0103053D02*
X0091923Y0103053D01*
X0091923Y0103651D02*
X0175600Y0103651D01*
X0175600Y0104250D02*
X0091923Y0104250D01*
X0091923Y0101257D02*
X0126334Y0101257D01*
X0125420Y0100659D02*
X0091849Y0100659D01*
X0084292Y0100659D02*
X0023017Y0100659D01*
X0023017Y0101257D02*
X0084217Y0101257D01*
X0084217Y0101856D02*
X0023017Y0101856D01*
X0023017Y0102454D02*
X0084217Y0102454D01*
X0084217Y0103053D02*
X0023017Y0103053D01*
X0023017Y0103651D02*
X0084217Y0103651D01*
X0084217Y0104250D02*
X0023017Y0104250D01*
X0023017Y0104848D02*
X0084217Y0104848D01*
X0084217Y0105447D02*
X0023017Y0105447D01*
X0023017Y0106045D02*
X0084217Y0106045D01*
X0084265Y0106644D02*
X0023017Y0106644D01*
X0020217Y0106644D02*
X0001650Y0106644D01*
X0001650Y0107242D02*
X0020217Y0107242D01*
X0020217Y0107841D02*
X0001650Y0107841D01*
X0001650Y0108439D02*
X0020217Y0108439D01*
X0020217Y0109038D02*
X0001650Y0109038D01*
X0001650Y0109636D02*
X0020217Y0109636D01*
X0020217Y0110235D02*
X0001650Y0110235D01*
X0001650Y0110833D02*
X0020217Y0110833D01*
X0020217Y0111432D02*
X0001650Y0111432D01*
X0001650Y0112030D02*
X0020217Y0112030D01*
X0020217Y0112629D02*
X0001650Y0112629D01*
X0001650Y0113227D02*
X0020217Y0113227D01*
X0020217Y0113826D02*
X0001650Y0113826D01*
X0001650Y0114424D02*
X0020217Y0114424D01*
X0020217Y0115023D02*
X0001650Y0115023D01*
X0001650Y0115621D02*
X0020217Y0115621D01*
X0020217Y0116220D02*
X0001650Y0116220D01*
X0001650Y0116818D02*
X0020217Y0116818D01*
X0020217Y0117417D02*
X0001650Y0117417D01*
X0001650Y0118015D02*
X0020217Y0118015D01*
X0020217Y0118614D02*
X0001650Y0118614D01*
X0001650Y0119213D02*
X0020217Y0119213D01*
X0020217Y0119811D02*
X0001650Y0119811D01*
X0001650Y0120410D02*
X0020217Y0120410D01*
X0020217Y0121008D02*
X0001650Y0121008D01*
X0001650Y0121607D02*
X0020217Y0121607D01*
X0020217Y0122205D02*
X0001650Y0122205D01*
X0001650Y0122804D02*
X0020217Y0122804D01*
X0020217Y0123402D02*
X0001650Y0123402D01*
X0001650Y0124001D02*
X0020217Y0124001D01*
X0020217Y0124599D02*
X0001650Y0124599D01*
X0001650Y0125198D02*
X0020217Y0125198D01*
X0020217Y0125796D02*
X0001650Y0125796D01*
X0001650Y0126395D02*
X0020217Y0126395D01*
X0020217Y0126993D02*
X0001650Y0126993D01*
X0001650Y0127592D02*
X0020217Y0127592D01*
X0020217Y0128190D02*
X0001650Y0128190D01*
X0001650Y0128789D02*
X0020217Y0128789D01*
X0020217Y0129387D02*
X0001650Y0129387D01*
X0001650Y0129986D02*
X0020217Y0129986D01*
X0020217Y0130584D02*
X0001650Y0130584D01*
X0001650Y0131183D02*
X0020217Y0131183D01*
X0020217Y0131781D02*
X0001650Y0131781D01*
X0001650Y0132380D02*
X0020217Y0132380D01*
X0020217Y0132978D02*
X0001650Y0132978D01*
X0001650Y0133577D02*
X0020217Y0133577D01*
X0020217Y0134175D02*
X0001650Y0134175D01*
X0001650Y0134774D02*
X0020217Y0134774D01*
X0020217Y0135372D02*
X0001650Y0135372D01*
X0001650Y0135971D02*
X0020217Y0135971D01*
X0020217Y0136569D02*
X0001650Y0136569D01*
X0001650Y0137168D02*
X0020217Y0137168D01*
X0020217Y0137766D02*
X0001650Y0137766D01*
X0001650Y0138365D02*
X0020217Y0138365D01*
X0020217Y0138963D02*
X0001650Y0138963D01*
X0001650Y0139562D02*
X0020217Y0139562D01*
X0020217Y0140160D02*
X0001650Y0140160D01*
X0001650Y0140759D02*
X0020217Y0140759D01*
X0020217Y0141357D02*
X0001650Y0141357D01*
X0001650Y0141956D02*
X0020217Y0141956D01*
X0020217Y0142554D02*
X0001650Y0142554D01*
X0001650Y0143153D02*
X0020217Y0143153D01*
X0020217Y0143751D02*
X0001650Y0143751D01*
X0001650Y0144350D02*
X0020217Y0144350D01*
X0020217Y0144948D02*
X0001650Y0144948D01*
X0001650Y0145547D02*
X0020217Y0145547D01*
X0020217Y0146146D02*
X0001650Y0146146D01*
X0001650Y0146744D02*
X0020728Y0146744D01*
X0021327Y0147343D02*
X0001650Y0147343D01*
X0001650Y0147941D02*
X0021925Y0147941D01*
X0022524Y0148540D02*
X0001650Y0148540D01*
X0001650Y0149138D02*
X0023122Y0149138D01*
X0023721Y0149737D02*
X0001650Y0149737D01*
X0001650Y0150335D02*
X0024319Y0150335D01*
X0024918Y0150934D02*
X0001650Y0150934D01*
X0001650Y0151532D02*
X0025516Y0151532D01*
X0026115Y0152131D02*
X0001650Y0152131D01*
X0001650Y0152729D02*
X0026713Y0152729D01*
X0027312Y0153328D02*
X0001650Y0153328D01*
X0001650Y0153926D02*
X0027910Y0153926D01*
X0028509Y0154525D02*
X0001650Y0154525D01*
X0001650Y0155123D02*
X0029107Y0155123D01*
X0029706Y0155722D02*
X0001650Y0155722D01*
X0001650Y0156320D02*
X0149061Y0156320D01*
X0149647Y0156563D02*
X0148370Y0156034D01*
X0147392Y0155056D01*
X0146863Y0153779D01*
X0146863Y0152397D01*
X0147392Y0151120D01*
X0148370Y0150142D01*
X0149647Y0149613D01*
X0151029Y0149613D01*
X0152306Y0150142D01*
X0153284Y0151120D01*
X0153813Y0152397D01*
X0153813Y0153779D01*
X0153284Y0155056D01*
X0152306Y0156034D01*
X0151029Y0156563D01*
X0149647Y0156563D01*
X0148058Y0155722D02*
X0107935Y0155722D01*
X0108534Y0155123D02*
X0147459Y0155123D01*
X0147172Y0154525D02*
X0109132Y0154525D01*
X0109731Y0153926D02*
X0146924Y0153926D01*
X0146863Y0153328D02*
X0110329Y0153328D01*
X0110928Y0152729D02*
X0146863Y0152729D01*
X0146973Y0152131D02*
X0111526Y0152131D01*
X0112125Y0151532D02*
X0126998Y0151532D01*
X0127072Y0151563D02*
X0125795Y0151034D01*
X0124817Y0150056D01*
X0124288Y0148779D01*
X0124288Y0147397D01*
X0124817Y0146120D01*
X0125795Y0145142D01*
X0127072Y0144613D01*
X0133604Y0144613D01*
X0134881Y0145142D01*
X0135859Y0146120D01*
X0136388Y0147397D01*
X0136388Y0148779D01*
X0135859Y0150056D01*
X0134881Y0151034D01*
X0133604Y0151563D01*
X0127072Y0151563D01*
X0125695Y0150934D02*
X0112724Y0150934D01*
X0113160Y0150335D02*
X0125096Y0150335D01*
X0124685Y0149737D02*
X0113160Y0149737D01*
X0113160Y0149138D02*
X0124437Y0149138D01*
X0124288Y0148540D02*
X0113160Y0148540D01*
X0113160Y0147941D02*
X0124288Y0147941D01*
X0124311Y0147343D02*
X0113160Y0147343D01*
X0113160Y0146744D02*
X0124559Y0146744D01*
X0124807Y0146146D02*
X0113160Y0146146D01*
X0113160Y0145547D02*
X0125390Y0145547D01*
X0126263Y0144948D02*
X0113160Y0144948D01*
X0113160Y0144350D02*
X0147100Y0144350D01*
X0146863Y0143779D02*
X0147392Y0145056D01*
X0148370Y0146034D01*
X0149647Y0146563D01*
X0151029Y0146563D01*
X0152306Y0146034D01*
X0153284Y0145056D01*
X0153813Y0143779D01*
X0153813Y0142397D01*
X0153284Y0141120D01*
X0152306Y0140142D01*
X0151029Y0139613D01*
X0149647Y0139613D01*
X0148370Y0140142D01*
X0147392Y0141120D01*
X0146863Y0142397D01*
X0146863Y0143779D01*
X0146863Y0143751D02*
X0115213Y0143751D01*
X0115213Y0143153D02*
X0146863Y0143153D01*
X0146863Y0142554D02*
X0115213Y0142554D01*
X0115213Y0141956D02*
X0147046Y0141956D01*
X0147294Y0141357D02*
X0134100Y0141357D01*
X0135156Y0140759D02*
X0147753Y0140759D01*
X0148352Y0140160D02*
X0135755Y0140160D01*
X0136063Y0139562D02*
X0184180Y0139562D01*
X0184037Y0139218D02*
X0183888Y0138470D01*
X0183888Y0138388D01*
X0190038Y0138388D01*
X0190038Y0141963D01*
X0187382Y0141963D01*
X0186633Y0141814D01*
X0185928Y0141522D01*
X0185293Y0141098D01*
X0184753Y0140558D01*
X0184329Y0139923D01*
X0184037Y0139218D01*
X0183987Y0138963D02*
X0136311Y0138963D01*
X0136388Y0138365D02*
X0190038Y0138365D01*
X0190038Y0138388D02*
X0190038Y0137788D01*
X0190638Y0137788D01*
X0190638Y0138388D01*
X0196788Y0138388D01*
X0196788Y0138470D01*
X0196639Y0139218D01*
X0196347Y0139923D01*
X0195923Y0140558D01*
X0195383Y0141098D01*
X0194748Y0141522D01*
X0194043Y0141814D01*
X0193294Y0141963D01*
X0190638Y0141963D01*
X0190638Y0138388D01*
X0190038Y0138388D01*
X0190038Y0138963D02*
X0190638Y0138963D01*
X0190638Y0138365D02*
X0199769Y0138365D01*
X0199769Y0138963D02*
X0196689Y0138963D01*
X0196496Y0139562D02*
X0199769Y0139562D01*
X0199769Y0140160D02*
X0196188Y0140160D01*
X0195722Y0140759D02*
X0199769Y0140759D01*
X0199769Y0141357D02*
X0194994Y0141357D01*
X0193329Y0141956D02*
X0199769Y0141956D01*
X0199769Y0142554D02*
X0173813Y0142554D01*
X0173813Y0142397D02*
X0173284Y0141120D01*
X0172306Y0140142D01*
X0171029Y0139613D01*
X0169647Y0139613D01*
X0168370Y0140142D01*
X0167392Y0141120D01*
X0166863Y0142397D01*
X0166863Y0143779D01*
X0167392Y0145056D01*
X0168370Y0146034D01*
X0169647Y0146563D01*
X0171029Y0146563D01*
X0172306Y0146034D01*
X0173284Y0145056D01*
X0173813Y0143779D01*
X0173813Y0142397D01*
X0173630Y0141956D02*
X0187347Y0141956D01*
X0185682Y0141357D02*
X0173382Y0141357D01*
X0172923Y0140759D02*
X0184954Y0140759D01*
X0184488Y0140160D02*
X0172324Y0140160D01*
X0173813Y0143153D02*
X0199769Y0143153D01*
X0199769Y0143751D02*
X0173813Y0143751D01*
X0173576Y0144350D02*
X0199769Y0144350D01*
X0199769Y0144948D02*
X0194413Y0144948D01*
X0194881Y0145142D02*
X0195859Y0146120D01*
X0196388Y0147397D01*
X0196388Y0148779D01*
X0195859Y0150056D01*
X0194881Y0151034D01*
X0193604Y0151563D01*
X0187072Y0151563D01*
X0185795Y0151034D01*
X0184817Y0150056D01*
X0184288Y0148779D01*
X0184288Y0147397D01*
X0184817Y0146120D01*
X0185795Y0145142D01*
X0187072Y0144613D01*
X0193604Y0144613D01*
X0194881Y0145142D01*
X0195286Y0145547D02*
X0199769Y0145547D01*
X0199769Y0146146D02*
X0195869Y0146146D01*
X0196117Y0146744D02*
X0199769Y0146744D01*
X0199769Y0147343D02*
X0196365Y0147343D01*
X0196388Y0147941D02*
X0199769Y0147941D01*
X0199769Y0148540D02*
X0196388Y0148540D01*
X0196239Y0149138D02*
X0199769Y0149138D01*
X0199769Y0149737D02*
X0195991Y0149737D01*
X0195580Y0150335D02*
X0199769Y0150335D01*
X0199769Y0150934D02*
X0194981Y0150934D01*
X0193678Y0151532D02*
X0199769Y0151532D01*
X0199769Y0152131D02*
X0173702Y0152131D01*
X0173813Y0152397D02*
X0173284Y0151120D01*
X0172306Y0150142D01*
X0171029Y0149613D01*
X0169647Y0149613D01*
X0168370Y0150142D01*
X0167392Y0151120D01*
X0166863Y0152397D01*
X0166863Y0153779D01*
X0167392Y0155056D01*
X0168370Y0156034D01*
X0169647Y0156563D01*
X0171029Y0156563D01*
X0172306Y0156034D01*
X0173284Y0155056D01*
X0173813Y0153779D01*
X0173813Y0152397D01*
X0173813Y0152729D02*
X0199769Y0152729D01*
X0199769Y0153328D02*
X0173813Y0153328D01*
X0173752Y0153926D02*
X0199769Y0153926D01*
X0199769Y0154525D02*
X0173504Y0154525D01*
X0173217Y0155123D02*
X0199769Y0155123D01*
X0199769Y0155722D02*
X0172618Y0155722D01*
X0171615Y0156320D02*
X0199769Y0156320D01*
X0199769Y0156919D02*
X0001650Y0156919D01*
X0001650Y0157517D02*
X0199769Y0157517D01*
X0199769Y0158116D02*
X0001650Y0158116D01*
X0001650Y0158714D02*
X0199769Y0158714D01*
X0199769Y0159313D02*
X0001650Y0159313D01*
X0001650Y0159911D02*
X0199769Y0159911D01*
X0199769Y0160510D02*
X0001650Y0160510D01*
X0001650Y0161108D02*
X0199769Y0161108D01*
X0199769Y0161707D02*
X0001650Y0161707D01*
X0001650Y0162305D02*
X0199769Y0162305D01*
X0199769Y0162904D02*
X0001650Y0162904D01*
X0001650Y0163502D02*
X0199769Y0163502D01*
X0199769Y0164101D02*
X0001650Y0164101D01*
X0001650Y0164699D02*
X0199769Y0164699D01*
X0199769Y0165298D02*
X0001650Y0165298D01*
X0001650Y0165896D02*
X0199769Y0165896D01*
X0199769Y0166495D02*
X0001650Y0166495D01*
X0001650Y0167093D02*
X0199769Y0167093D01*
X0199769Y0167692D02*
X0001650Y0167692D01*
X0001650Y0168290D02*
X0199769Y0168290D01*
X0199769Y0168889D02*
X0001650Y0168889D01*
X0001650Y0169487D02*
X0199769Y0169487D01*
X0199769Y0170086D02*
X0001650Y0170086D01*
X0001650Y0170684D02*
X0199769Y0170684D01*
X0199769Y0171283D02*
X0001650Y0171283D01*
X0001650Y0171882D02*
X0199769Y0171882D01*
X0199769Y0172480D02*
X0001650Y0172480D01*
X0001650Y0173079D02*
X0199769Y0173079D01*
X0199769Y0173677D02*
X0001650Y0173677D01*
X0001650Y0174276D02*
X0199769Y0174276D01*
X0199769Y0174874D02*
X0001650Y0174874D01*
X0001650Y0175473D02*
X0199769Y0175473D01*
X0199769Y0176071D02*
X0001650Y0176071D01*
X0001650Y0176670D02*
X0199769Y0176670D01*
X0199769Y0177268D02*
X0001650Y0177268D01*
X0001650Y0177867D02*
X0199769Y0177867D01*
X0199769Y0178465D02*
X0001650Y0178465D01*
X0027680Y0149737D02*
X0109961Y0149737D01*
X0110360Y0149138D02*
X0027082Y0149138D01*
X0026483Y0148540D02*
X0110360Y0148540D01*
X0110360Y0147941D02*
X0025885Y0147941D01*
X0025286Y0147343D02*
X0110360Y0147343D01*
X0110360Y0146744D02*
X0024688Y0146744D01*
X0024089Y0146146D02*
X0110360Y0146146D01*
X0110360Y0145547D02*
X0023491Y0145547D01*
X0023017Y0144948D02*
X0110360Y0144948D01*
X0110360Y0144350D02*
X0023017Y0144350D01*
X0028279Y0150335D02*
X0109362Y0150335D01*
X0108764Y0150934D02*
X0028877Y0150934D01*
X0029476Y0151532D02*
X0108165Y0151532D01*
X0107567Y0152131D02*
X0030074Y0152131D01*
X0030673Y0152729D02*
X0106968Y0152729D01*
X0107733Y0143751D02*
X0108295Y0143751D01*
X0108295Y0143153D02*
X0107733Y0143153D01*
X0107733Y0142554D02*
X0108295Y0142554D01*
X0108295Y0141956D02*
X0107733Y0141956D01*
X0107733Y0141357D02*
X0108295Y0141357D01*
X0108295Y0140759D02*
X0107733Y0140759D01*
X0111754Y0140468D02*
X0111760Y0140473D01*
X0115213Y0140759D02*
X0125520Y0140759D01*
X0124921Y0140160D02*
X0115213Y0140160D01*
X0115213Y0139562D02*
X0124613Y0139562D01*
X0124365Y0138963D02*
X0115213Y0138963D01*
X0115213Y0138365D02*
X0124288Y0138365D01*
X0124288Y0137766D02*
X0115213Y0137766D01*
X0115213Y0137168D02*
X0124383Y0137168D01*
X0126576Y0141357D02*
X0115213Y0141357D01*
X0105835Y0131183D02*
X0126154Y0131183D01*
X0125795Y0131034D02*
X0124817Y0130056D01*
X0124288Y0128779D01*
X0124288Y0127397D01*
X0124817Y0126120D01*
X0125795Y0125142D01*
X0127072Y0124613D01*
X0133604Y0124613D01*
X0134881Y0125142D01*
X0135859Y0126120D01*
X0136388Y0127397D01*
X0136388Y0128779D01*
X0135859Y0130056D01*
X0134881Y0131034D01*
X0133604Y0131563D01*
X0127072Y0131563D01*
X0125795Y0131034D01*
X0125345Y0130584D02*
X0105835Y0130584D01*
X0105835Y0129986D02*
X0124788Y0129986D01*
X0124540Y0129387D02*
X0105835Y0129387D01*
X0105835Y0128789D02*
X0124292Y0128789D01*
X0124288Y0128190D02*
X0115513Y0128190D01*
X0115515Y0128189D02*
X0115273Y0128431D01*
X0114976Y0128602D01*
X0114646Y0128690D01*
X0112216Y0128690D01*
X0112216Y0124738D01*
X0111616Y0124738D01*
X0111616Y0128690D01*
X0109185Y0128690D01*
X0108855Y0128602D01*
X0108558Y0128431D01*
X0108316Y0128189D01*
X0108145Y0127892D01*
X0108057Y0127562D01*
X0108057Y0124738D01*
X0111616Y0124738D01*
X0111616Y0124138D01*
X0108057Y0124138D01*
X0108057Y0121314D01*
X0108145Y0120983D01*
X0108316Y0120687D01*
X0108558Y0120445D01*
X0108855Y0120273D01*
X0109185Y0120185D01*
X0111616Y0120185D01*
X0111616Y0124138D01*
X0112216Y0124138D01*
X0112216Y0124738D01*
X0115775Y0124738D01*
X0115775Y0127562D01*
X0115686Y0127892D01*
X0115515Y0128189D01*
X0115767Y0127592D02*
X0124288Y0127592D01*
X0124456Y0126993D02*
X0115775Y0126993D01*
X0115775Y0126395D02*
X0124703Y0126395D01*
X0125141Y0125796D02*
X0115775Y0125796D01*
X0115775Y0125198D02*
X0125739Y0125198D01*
X0126633Y0121814D02*
X0125928Y0121522D01*
X0125293Y0121098D01*
X0124753Y0120558D01*
X0124329Y0119923D01*
X0124037Y0119218D01*
X0123888Y0118470D01*
X0123888Y0118388D01*
X0130038Y0118388D01*
X0130038Y0121963D01*
X0127382Y0121963D01*
X0126633Y0121814D01*
X0126132Y0121607D02*
X0115775Y0121607D01*
X0115775Y0121314D02*
X0115775Y0124138D01*
X0112216Y0124138D01*
X0112216Y0120185D01*
X0114646Y0120185D01*
X0114976Y0120273D01*
X0115273Y0120445D01*
X0115515Y0120687D01*
X0115686Y0120983D01*
X0115775Y0121314D01*
X0115693Y0121008D02*
X0125203Y0121008D01*
X0124654Y0120410D02*
X0115212Y0120410D01*
X0115775Y0122205D02*
X0199769Y0122205D01*
X0199769Y0121607D02*
X0134544Y0121607D01*
X0134748Y0121522D02*
X0134043Y0121814D01*
X0133294Y0121963D01*
X0130638Y0121963D01*
X0130638Y0118388D01*
X0136788Y0118388D01*
X0136788Y0118470D01*
X0136639Y0119218D01*
X0136347Y0119923D01*
X0135923Y0120558D01*
X0135383Y0121098D01*
X0134748Y0121522D01*
X0135473Y0121008D02*
X0185769Y0121008D01*
X0185739Y0125198D02*
X0134936Y0125198D01*
X0135535Y0125796D02*
X0185141Y0125796D01*
X0184703Y0126395D02*
X0135972Y0126395D01*
X0136220Y0126993D02*
X0184456Y0126993D01*
X0184288Y0127592D02*
X0136388Y0127592D01*
X0136388Y0128190D02*
X0184288Y0128190D01*
X0184292Y0128789D02*
X0136384Y0128789D01*
X0136136Y0129387D02*
X0184540Y0129387D01*
X0184788Y0129986D02*
X0135888Y0129986D01*
X0135331Y0130584D02*
X0185345Y0130584D01*
X0186154Y0131183D02*
X0134522Y0131183D01*
X0133992Y0134774D02*
X0185749Y0134774D01*
X0185928Y0134654D02*
X0186633Y0134362D01*
X0187382Y0134213D01*
X0190038Y0134213D01*
X0190038Y0137788D01*
X0183888Y0137788D01*
X0183888Y0137706D01*
X0184037Y0136958D01*
X0184329Y0136253D01*
X0184753Y0135618D01*
X0185293Y0135078D01*
X0185928Y0134654D01*
X0184999Y0135372D02*
X0135111Y0135372D01*
X0135710Y0135971D02*
X0184518Y0135971D01*
X0184198Y0136569D02*
X0136045Y0136569D01*
X0136293Y0137168D02*
X0183995Y0137168D01*
X0183888Y0137766D02*
X0136388Y0137766D01*
X0134413Y0144948D02*
X0147348Y0144948D01*
X0147883Y0145547D02*
X0135286Y0145547D01*
X0135869Y0146146D02*
X0148639Y0146146D01*
X0152037Y0146146D02*
X0158639Y0146146D01*
X0158370Y0146034D02*
X0157392Y0145056D01*
X0156863Y0143779D01*
X0156863Y0142397D01*
X0157392Y0141120D01*
X0158370Y0140142D01*
X0159647Y0139613D01*
X0161029Y0139613D01*
X0162306Y0140142D01*
X0163284Y0141120D01*
X0163813Y0142397D01*
X0163813Y0143779D01*
X0163284Y0145056D01*
X0162306Y0146034D01*
X0161029Y0146563D01*
X0159647Y0146563D01*
X0158370Y0146034D01*
X0157883Y0145547D02*
X0152793Y0145547D01*
X0153328Y0144948D02*
X0157348Y0144948D01*
X0157100Y0144350D02*
X0153576Y0144350D01*
X0153813Y0143751D02*
X0156863Y0143751D01*
X0156863Y0143153D02*
X0153813Y0143153D01*
X0153813Y0142554D02*
X0156863Y0142554D01*
X0157046Y0141956D02*
X0153630Y0141956D01*
X0153382Y0141357D02*
X0157294Y0141357D01*
X0157753Y0140759D02*
X0152923Y0140759D01*
X0152324Y0140160D02*
X0158352Y0140160D01*
X0162324Y0140160D02*
X0168352Y0140160D01*
X0167753Y0140759D02*
X0162923Y0140759D01*
X0163382Y0141357D02*
X0167294Y0141357D01*
X0167046Y0141956D02*
X0163630Y0141956D01*
X0163813Y0142554D02*
X0166863Y0142554D01*
X0166863Y0143153D02*
X0163813Y0143153D01*
X0163813Y0143751D02*
X0166863Y0143751D01*
X0167100Y0144350D02*
X0163576Y0144350D01*
X0163328Y0144948D02*
X0167348Y0144948D01*
X0167883Y0145547D02*
X0162793Y0145547D01*
X0162037Y0146146D02*
X0168639Y0146146D01*
X0172037Y0146146D02*
X0184807Y0146146D01*
X0184559Y0146744D02*
X0136117Y0146744D01*
X0136365Y0147343D02*
X0184311Y0147343D01*
X0184288Y0147941D02*
X0136388Y0147941D01*
X0136388Y0148540D02*
X0184288Y0148540D01*
X0184437Y0149138D02*
X0136239Y0149138D01*
X0135991Y0149737D02*
X0149349Y0149737D01*
X0148177Y0150335D02*
X0135580Y0150335D01*
X0134981Y0150934D02*
X0147578Y0150934D01*
X0147221Y0151532D02*
X0133678Y0151532D01*
X0151327Y0149737D02*
X0159349Y0149737D01*
X0159647Y0149613D02*
X0161029Y0149613D01*
X0162306Y0150142D01*
X0163284Y0151120D01*
X0163813Y0152397D01*
X0163813Y0153779D01*
X0163284Y0155056D01*
X0162306Y0156034D01*
X0161029Y0156563D01*
X0159647Y0156563D01*
X0158370Y0156034D01*
X0157392Y0155056D01*
X0156863Y0153779D01*
X0156863Y0152397D01*
X0157392Y0151120D01*
X0158370Y0150142D01*
X0159647Y0149613D01*
X0158177Y0150335D02*
X0152499Y0150335D01*
X0153098Y0150934D02*
X0157578Y0150934D01*
X0157221Y0151532D02*
X0153455Y0151532D01*
X0153702Y0152131D02*
X0156973Y0152131D01*
X0156863Y0152729D02*
X0153813Y0152729D01*
X0153813Y0153328D02*
X0156863Y0153328D01*
X0156924Y0153926D02*
X0153752Y0153926D01*
X0153504Y0154525D02*
X0157172Y0154525D01*
X0157459Y0155123D02*
X0153217Y0155123D01*
X0152618Y0155722D02*
X0158058Y0155722D01*
X0159061Y0156320D02*
X0151615Y0156320D01*
X0161615Y0156320D02*
X0169061Y0156320D01*
X0168058Y0155722D02*
X0162618Y0155722D01*
X0163217Y0155123D02*
X0167459Y0155123D01*
X0167172Y0154525D02*
X0163504Y0154525D01*
X0163752Y0153926D02*
X0166924Y0153926D01*
X0166863Y0153328D02*
X0163813Y0153328D01*
X0163813Y0152729D02*
X0166863Y0152729D01*
X0166973Y0152131D02*
X0163702Y0152131D01*
X0163455Y0151532D02*
X0167221Y0151532D01*
X0167578Y0150934D02*
X0163098Y0150934D01*
X0162499Y0150335D02*
X0168177Y0150335D01*
X0169349Y0149737D02*
X0161327Y0149737D01*
X0171327Y0149737D02*
X0184685Y0149737D01*
X0185096Y0150335D02*
X0172499Y0150335D01*
X0173098Y0150934D02*
X0185695Y0150934D01*
X0186998Y0151532D02*
X0173455Y0151532D01*
X0172793Y0145547D02*
X0185390Y0145547D01*
X0186263Y0144948D02*
X0173328Y0144948D01*
X0190038Y0141956D02*
X0190638Y0141956D01*
X0190638Y0141357D02*
X0190038Y0141357D01*
X0190038Y0140759D02*
X0190638Y0140759D01*
X0190638Y0140160D02*
X0190038Y0140160D01*
X0190038Y0139562D02*
X0190638Y0139562D01*
X0190638Y0137788D02*
X0196788Y0137788D01*
X0196788Y0137706D01*
X0196639Y0136958D01*
X0196347Y0136253D01*
X0195923Y0135618D01*
X0195383Y0135078D01*
X0194748Y0134654D01*
X0194043Y0134362D01*
X0193294Y0134213D01*
X0190638Y0134213D01*
X0190638Y0137788D01*
X0190638Y0137766D02*
X0190038Y0137766D01*
X0190038Y0137168D02*
X0190638Y0137168D01*
X0190638Y0136569D02*
X0190038Y0136569D01*
X0190038Y0135971D02*
X0190638Y0135971D01*
X0190638Y0135372D02*
X0190038Y0135372D01*
X0190038Y0134774D02*
X0190638Y0134774D01*
X0194927Y0134774D02*
X0199769Y0134774D01*
X0199769Y0135372D02*
X0195677Y0135372D01*
X0196158Y0135971D02*
X0199769Y0135971D01*
X0199769Y0136569D02*
X0196478Y0136569D01*
X0196680Y0137168D02*
X0199769Y0137168D01*
X0199769Y0137766D02*
X0196788Y0137766D01*
X0199769Y0124599D02*
X0112216Y0124599D01*
X0112216Y0124001D02*
X0111616Y0124001D01*
X0111616Y0124599D02*
X0107894Y0124599D01*
X0107894Y0124001D02*
X0108057Y0124001D01*
X0108057Y0123402D02*
X0107894Y0123402D01*
X0107894Y0122804D02*
X0108057Y0122804D01*
X0108057Y0122205D02*
X0107894Y0122205D01*
X0107894Y0121607D02*
X0108057Y0121607D01*
X0108139Y0121008D02*
X0107790Y0121008D01*
X0108619Y0120410D02*
X0105818Y0120410D01*
X0105818Y0119811D02*
X0124283Y0119811D01*
X0124036Y0119213D02*
X0105818Y0119213D01*
X0105818Y0118614D02*
X0123917Y0118614D01*
X0123888Y0117788D02*
X0123888Y0117706D01*
X0124037Y0116958D01*
X0124329Y0116253D01*
X0124753Y0115618D01*
X0125293Y0115078D01*
X0125928Y0114654D01*
X0126633Y0114362D01*
X0127382Y0114213D01*
X0130038Y0114213D01*
X0130038Y0117788D01*
X0130638Y0117788D01*
X0130638Y0118388D01*
X0130038Y0118388D01*
X0130038Y0117788D01*
X0123888Y0117788D01*
X0123946Y0117417D02*
X0105818Y0117417D01*
X0105818Y0118015D02*
X0130038Y0118015D01*
X0130038Y0117417D02*
X0130638Y0117417D01*
X0130638Y0117788D02*
X0130638Y0114213D01*
X0133294Y0114213D01*
X0134043Y0114362D01*
X0134748Y0114654D01*
X0135383Y0115078D01*
X0135923Y0115618D01*
X0136347Y0116253D01*
X0136639Y0116958D01*
X0136788Y0117706D01*
X0136788Y0117788D01*
X0130638Y0117788D01*
X0130638Y0118015D02*
X0178472Y0118015D01*
X0177873Y0117417D02*
X0136730Y0117417D01*
X0136581Y0116818D02*
X0177275Y0116818D01*
X0176683Y0116227D02*
X0176683Y0116227D01*
X0176676Y0116220D02*
X0136325Y0116220D01*
X0135925Y0115621D02*
X0176078Y0115621D01*
X0175773Y0115023D02*
X0135300Y0115023D01*
X0134193Y0114424D02*
X0175600Y0114424D01*
X0175600Y0113826D02*
X0105818Y0113826D01*
X0105818Y0114424D02*
X0126483Y0114424D01*
X0125376Y0115023D02*
X0105818Y0115023D01*
X0105818Y0115621D02*
X0124751Y0115621D01*
X0124351Y0116220D02*
X0105818Y0116220D01*
X0105818Y0116818D02*
X0124095Y0116818D01*
X0130038Y0116818D02*
X0130638Y0116818D01*
X0130638Y0116220D02*
X0130038Y0116220D01*
X0130038Y0115621D02*
X0130638Y0115621D01*
X0130638Y0115023D02*
X0130038Y0115023D01*
X0130038Y0114424D02*
X0130638Y0114424D01*
X0133604Y0111563D02*
X0127072Y0111563D01*
X0125795Y0111034D01*
X0124817Y0110056D01*
X0124582Y0109488D01*
X0115358Y0109488D01*
X0115358Y0111677D01*
X0114831Y0112205D01*
X0108967Y0112205D01*
X0108440Y0111677D01*
X0108440Y0105026D01*
X0108967Y0104499D01*
X0114831Y0104499D01*
X0115358Y0105026D01*
X0115358Y0106688D01*
X0124582Y0106688D01*
X0124817Y0106120D01*
X0125795Y0105142D01*
X0127072Y0104613D01*
X0133604Y0104613D01*
X0134881Y0105142D01*
X0135859Y0106120D01*
X0136388Y0107397D01*
X0136388Y0108779D01*
X0135859Y0110056D01*
X0134881Y0111034D01*
X0133604Y0111563D01*
X0133920Y0111432D02*
X0175600Y0111432D01*
X0175600Y0112030D02*
X0115005Y0112030D01*
X0115358Y0111432D02*
X0126756Y0111432D01*
X0125594Y0110833D02*
X0115358Y0110833D01*
X0115358Y0110235D02*
X0124996Y0110235D01*
X0124643Y0109636D02*
X0115358Y0109636D01*
X0115358Y0106644D02*
X0124600Y0106644D01*
X0124892Y0106045D02*
X0115358Y0106045D01*
X0115358Y0105447D02*
X0125490Y0105447D01*
X0126505Y0104848D02*
X0115180Y0104848D01*
X0112163Y0108088D02*
X0111899Y0108352D01*
X0108440Y0108439D02*
X0107877Y0108439D01*
X0107877Y0107841D02*
X0108440Y0107841D01*
X0108440Y0107242D02*
X0107877Y0107242D01*
X0107877Y0106644D02*
X0108440Y0106644D01*
X0108440Y0106045D02*
X0107877Y0106045D01*
X0107877Y0105447D02*
X0108440Y0105447D01*
X0108618Y0104848D02*
X0107699Y0104848D01*
X0107877Y0109038D02*
X0108440Y0109038D01*
X0108440Y0109636D02*
X0107877Y0109636D01*
X0107877Y0110235D02*
X0108440Y0110235D01*
X0108440Y0110833D02*
X0107877Y0110833D01*
X0107877Y0111432D02*
X0108440Y0111432D01*
X0108793Y0112030D02*
X0107524Y0112030D01*
X0105818Y0112629D02*
X0175600Y0112629D01*
X0175600Y0113227D02*
X0105818Y0113227D01*
X0111616Y0120410D02*
X0112216Y0120410D01*
X0112216Y0121008D02*
X0111616Y0121008D01*
X0111616Y0121607D02*
X0112216Y0121607D01*
X0112216Y0122205D02*
X0111616Y0122205D01*
X0111616Y0122804D02*
X0112216Y0122804D01*
X0112216Y0123402D02*
X0111616Y0123402D01*
X0111616Y0125198D02*
X0112216Y0125198D01*
X0112216Y0125796D02*
X0111616Y0125796D01*
X0111616Y0126395D02*
X0112216Y0126395D01*
X0112216Y0126993D02*
X0111616Y0126993D01*
X0111616Y0127592D02*
X0112216Y0127592D01*
X0112216Y0128190D02*
X0111616Y0128190D01*
X0108318Y0128190D02*
X0107467Y0128190D01*
X0107894Y0127592D02*
X0108065Y0127592D01*
X0108057Y0126993D02*
X0107894Y0126993D01*
X0107894Y0126395D02*
X0108057Y0126395D01*
X0108057Y0125796D02*
X0107894Y0125796D01*
X0107894Y0125198D02*
X0108057Y0125198D01*
X0104435Y0124438D02*
X0104418Y0124421D01*
X0115775Y0124001D02*
X0199769Y0124001D01*
X0199769Y0123402D02*
X0115775Y0123402D01*
X0115775Y0122804D02*
X0199769Y0122804D01*
X0186083Y0115023D02*
X0182550Y0115023D01*
X0179070Y0118614D02*
X0136759Y0118614D01*
X0136640Y0119213D02*
X0179669Y0119213D01*
X0180267Y0119811D02*
X0136393Y0119811D01*
X0136022Y0120410D02*
X0181152Y0120410D01*
X0175600Y0110833D02*
X0135082Y0110833D01*
X0135680Y0110235D02*
X0175600Y0110235D01*
X0175600Y0109636D02*
X0136033Y0109636D01*
X0136280Y0109038D02*
X0175600Y0109038D01*
X0175600Y0108439D02*
X0136388Y0108439D01*
X0136388Y0107841D02*
X0175600Y0107841D01*
X0175600Y0107242D02*
X0136324Y0107242D01*
X0136076Y0106644D02*
X0175600Y0106644D01*
X0175600Y0106045D02*
X0135784Y0106045D01*
X0135186Y0105447D02*
X0175600Y0105447D01*
X0175600Y0104848D02*
X0134171Y0104848D01*
X0130638Y0118614D02*
X0130038Y0118614D01*
X0130038Y0119213D02*
X0130638Y0119213D01*
X0130638Y0119811D02*
X0130038Y0119811D01*
X0130038Y0120410D02*
X0130638Y0120410D01*
X0130638Y0121008D02*
X0130038Y0121008D01*
X0130038Y0121607D02*
X0130638Y0121607D01*
X0104496Y0088224D02*
X0104491Y0088228D01*
X0047748Y0021057D02*
X0045855Y0021057D01*
X0045738Y0020458D02*
X0047897Y0020458D01*
X0048145Y0019860D02*
X0045527Y0019860D01*
X0045203Y0019261D02*
X0048471Y0019261D01*
X0049070Y0018663D02*
X0044729Y0018663D01*
X0044030Y0018064D02*
X0049356Y0018064D01*
X0040487Y0017466D02*
X0001650Y0017466D01*
X0001650Y0018064D02*
X0007930Y0018064D01*
X0007748Y0018245D02*
X0008275Y0017718D01*
X0014958Y0017718D01*
X0015485Y0018245D01*
X0015485Y0024928D01*
X0014958Y0025455D01*
X0008275Y0025455D01*
X0007748Y0024928D01*
X0007748Y0018245D01*
X0007748Y0018663D02*
X0001650Y0018663D01*
X0001650Y0019261D02*
X0007748Y0019261D01*
X0007748Y0019860D02*
X0001650Y0019860D01*
X0001650Y0020458D02*
X0007748Y0020458D01*
X0007748Y0021057D02*
X0001650Y0021057D01*
X0001650Y0021655D02*
X0007748Y0021655D01*
X0007748Y0022254D02*
X0001650Y0022254D01*
X0001650Y0022852D02*
X0007748Y0022852D01*
X0007748Y0023451D02*
X0001650Y0023451D01*
X0001650Y0024049D02*
X0007748Y0024049D01*
X0007748Y0024648D02*
X0001650Y0024648D01*
X0001650Y0025246D02*
X0008067Y0025246D01*
X0015167Y0025246D02*
X0020217Y0025246D01*
X0020217Y0025845D02*
X0001650Y0025845D01*
X0001650Y0026443D02*
X0020217Y0026443D01*
X0020217Y0027042D02*
X0001650Y0027042D01*
X0001650Y0027640D02*
X0020217Y0027640D01*
X0020217Y0028239D02*
X0001650Y0028239D01*
X0001650Y0028837D02*
X0020217Y0028837D01*
X0020217Y0029436D02*
X0001650Y0029436D01*
X0001650Y0030034D02*
X0020217Y0030034D01*
X0020217Y0030633D02*
X0001650Y0030633D01*
X0001650Y0031231D02*
X0020217Y0031231D01*
X0020217Y0031830D02*
X0001650Y0031830D01*
X0001650Y0032428D02*
X0020217Y0032428D01*
X0020217Y0033027D02*
X0001650Y0033027D01*
X0001650Y0033625D02*
X0020217Y0033625D01*
X0020217Y0034224D02*
X0001650Y0034224D01*
X0001650Y0034822D02*
X0020217Y0034822D01*
X0020217Y0035421D02*
X0001650Y0035421D01*
X0001650Y0036019D02*
X0020217Y0036019D01*
X0020217Y0036618D02*
X0001650Y0036618D01*
X0001650Y0037216D02*
X0020217Y0037216D01*
X0020217Y0037815D02*
X0001650Y0037815D01*
X0001650Y0038413D02*
X0020217Y0038413D01*
X0020217Y0039012D02*
X0001650Y0039012D01*
X0001650Y0039611D02*
X0020217Y0039611D01*
X0020217Y0040209D02*
X0001650Y0040209D01*
X0001650Y0040808D02*
X0020217Y0040808D01*
X0020217Y0041406D02*
X0001650Y0041406D01*
X0001650Y0042005D02*
X0020217Y0042005D01*
X0020217Y0042603D02*
X0001650Y0042603D01*
X0001650Y0043202D02*
X0020217Y0043202D01*
X0020217Y0043800D02*
X0001650Y0043800D01*
X0001650Y0044399D02*
X0020217Y0044399D01*
X0020217Y0044997D02*
X0001650Y0044997D01*
X0001650Y0045596D02*
X0020217Y0045596D01*
X0020217Y0046194D02*
X0001650Y0046194D01*
X0001650Y0046793D02*
X0020217Y0046793D01*
X0020217Y0047391D02*
X0001650Y0047391D01*
X0001650Y0047990D02*
X0020217Y0047990D01*
X0020217Y0048588D02*
X0001650Y0048588D01*
X0001650Y0049187D02*
X0020217Y0049187D01*
X0020217Y0049785D02*
X0001650Y0049785D01*
X0001650Y0050384D02*
X0020217Y0050384D01*
X0020217Y0050982D02*
X0001650Y0050982D01*
X0001650Y0051581D02*
X0020217Y0051581D01*
X0020217Y0052179D02*
X0001650Y0052179D01*
X0001650Y0052778D02*
X0020217Y0052778D01*
X0020217Y0053376D02*
X0001650Y0053376D01*
X0001650Y0053975D02*
X0020217Y0053975D01*
X0020217Y0054573D02*
X0001650Y0054573D01*
X0001650Y0055172D02*
X0020217Y0055172D01*
X0020217Y0055770D02*
X0001650Y0055770D01*
X0001650Y0056369D02*
X0020217Y0056369D01*
X0020217Y0056967D02*
X0001650Y0056967D01*
X0001650Y0057566D02*
X0020217Y0057566D01*
X0020217Y0058164D02*
X0001650Y0058164D01*
X0001650Y0058763D02*
X0020217Y0058763D01*
X0020217Y0059361D02*
X0001650Y0059361D01*
X0001650Y0059960D02*
X0020217Y0059960D01*
X0020217Y0060558D02*
X0001650Y0060558D01*
X0001650Y0061157D02*
X0020217Y0061157D01*
X0020217Y0061755D02*
X0001650Y0061755D01*
X0001650Y0062354D02*
X0020217Y0062354D01*
X0020217Y0062952D02*
X0001650Y0062952D01*
X0001650Y0063551D02*
X0020217Y0063551D01*
X0020217Y0064149D02*
X0001650Y0064149D01*
X0001650Y0064748D02*
X0020217Y0064748D01*
X0020217Y0065346D02*
X0001650Y0065346D01*
X0001650Y0065945D02*
X0020217Y0065945D01*
X0020217Y0066544D02*
X0001650Y0066544D01*
X0001650Y0067142D02*
X0020217Y0067142D01*
X0020217Y0067741D02*
X0001650Y0067741D01*
X0001650Y0068339D02*
X0020217Y0068339D01*
X0020217Y0068938D02*
X0001650Y0068938D01*
X0001650Y0069536D02*
X0020217Y0069536D01*
X0020217Y0070135D02*
X0001650Y0070135D01*
X0001650Y0070733D02*
X0020217Y0070733D01*
X0020217Y0071332D02*
X0001650Y0071332D01*
X0001650Y0071930D02*
X0020217Y0071930D01*
X0020217Y0072529D02*
X0001650Y0072529D01*
X0001650Y0073127D02*
X0020217Y0073127D01*
X0020217Y0073726D02*
X0001650Y0073726D01*
X0001650Y0074324D02*
X0020217Y0074324D01*
X0020217Y0074923D02*
X0001650Y0074923D01*
X0001650Y0075521D02*
X0020217Y0075521D01*
X0020217Y0076120D02*
X0001650Y0076120D01*
X0001650Y0076718D02*
X0020217Y0076718D01*
X0020217Y0077317D02*
X0001650Y0077317D01*
X0001650Y0077915D02*
X0020217Y0077915D01*
X0020217Y0078514D02*
X0001650Y0078514D01*
X0001650Y0079112D02*
X0020217Y0079112D01*
X0020217Y0079711D02*
X0001650Y0079711D01*
X0001650Y0080309D02*
X0020217Y0080309D01*
X0020217Y0080908D02*
X0001650Y0080908D01*
X0001650Y0081506D02*
X0020217Y0081506D01*
X0020217Y0082105D02*
X0001650Y0082105D01*
X0001650Y0082703D02*
X0020217Y0082703D01*
X0020217Y0083302D02*
X0001650Y0083302D01*
X0001650Y0083900D02*
X0020217Y0083900D01*
X0020217Y0084499D02*
X0001650Y0084499D01*
X0001650Y0085097D02*
X0020217Y0085097D01*
X0020217Y0085696D02*
X0001650Y0085696D01*
X0001650Y0086294D02*
X0020217Y0086294D01*
X0020217Y0086893D02*
X0001650Y0086893D01*
X0001650Y0087491D02*
X0020217Y0087491D01*
X0020217Y0088090D02*
X0001650Y0088090D01*
X0001650Y0088688D02*
X0020217Y0088688D01*
X0020217Y0089287D02*
X0001650Y0089287D01*
X0001650Y0089885D02*
X0020217Y0089885D01*
X0020217Y0090484D02*
X0001650Y0090484D01*
X0001650Y0091082D02*
X0020217Y0091082D01*
X0020217Y0091681D02*
X0001650Y0091681D01*
X0001650Y0092280D02*
X0020217Y0092280D01*
X0020217Y0092878D02*
X0001650Y0092878D01*
X0001650Y0093477D02*
X0020217Y0093477D01*
X0020217Y0094075D02*
X0001650Y0094075D01*
X0001650Y0094674D02*
X0020217Y0094674D01*
X0020217Y0095272D02*
X0001650Y0095272D01*
X0001650Y0095871D02*
X0020217Y0095871D01*
X0020217Y0096469D02*
X0001650Y0096469D01*
X0001650Y0097068D02*
X0020217Y0097068D01*
X0020217Y0097666D02*
X0001650Y0097666D01*
X0001650Y0098265D02*
X0020217Y0098265D01*
X0020217Y0098863D02*
X0001650Y0098863D01*
X0001650Y0099462D02*
X0020217Y0099462D01*
X0020217Y0100060D02*
X0001650Y0100060D01*
X0001650Y0100659D02*
X0020217Y0100659D01*
X0020217Y0101257D02*
X0001650Y0101257D01*
X0001650Y0101856D02*
X0020217Y0101856D01*
X0020217Y0102454D02*
X0001650Y0102454D01*
X0001650Y0103053D02*
X0020217Y0103053D01*
X0020217Y0103651D02*
X0001650Y0103651D01*
X0001650Y0104250D02*
X0020217Y0104250D01*
X0020217Y0104848D02*
X0001650Y0104848D01*
X0001650Y0105447D02*
X0020217Y0105447D01*
X0020217Y0106045D02*
X0001650Y0106045D01*
X0015485Y0024648D02*
X0019207Y0024648D01*
X0018608Y0024049D02*
X0015485Y0024049D01*
X0015485Y0023451D02*
X0018202Y0023451D01*
X0017954Y0022852D02*
X0015485Y0022852D01*
X0015485Y0022254D02*
X0017748Y0022254D01*
X0017748Y0021655D02*
X0015485Y0021655D01*
X0015485Y0021057D02*
X0017748Y0021057D01*
X0017897Y0020458D02*
X0015485Y0020458D01*
X0015485Y0019860D02*
X0018145Y0019860D01*
X0018471Y0019261D02*
X0015485Y0019261D01*
X0015485Y0018663D02*
X0019070Y0018663D01*
X0020012Y0018064D02*
X0015304Y0018064D01*
M02*
