<?xml version="1.0" encoding="utf-8"?>
<!DOCTYPE eagle SYSTEM "eagle.dtd">
<eagle version="8.2.2">
<drawing>
<settings>
<setting alwaysvectorfont="no"/>
<setting verticaltext="up"/>
</settings>
<grid distance="0.003125" unitdist="mic" unit="mm" style="lines" multiple="1" display="no" altdistance="0.003125" altunitdist="mic" altunit="mm"/>
<layers>
<layer number="1" name="Top" color="4" fill="1" visible="yes" active="yes"/>
<layer number="2" name="Route2" color="1" fill="3" visible="no" active="no"/>
<layer number="3" name="Route3" color="4" fill="3" visible="no" active="no"/>
<layer number="4" name="Route4" color="1" fill="4" visible="no" active="no"/>
<layer number="5" name="Route5" color="4" fill="4" visible="no" active="no"/>
<layer number="6" name="Route6" color="1" fill="8" visible="no" active="no"/>
<layer number="7" name="Route7" color="4" fill="8" visible="no" active="no"/>
<layer number="8" name="Route8" color="1" fill="2" visible="no" active="no"/>
<layer number="9" name="Route9" color="4" fill="2" visible="no" active="no"/>
<layer number="10" name="Route10" color="1" fill="7" visible="no" active="no"/>
<layer number="11" name="Route11" color="4" fill="7" visible="no" active="no"/>
<layer number="12" name="Route12" color="1" fill="5" visible="no" active="no"/>
<layer number="13" name="Route13" color="4" fill="5" visible="no" active="no"/>
<layer number="14" name="Route14" color="1" fill="6" visible="no" active="no"/>
<layer number="15" name="Route15" color="4" fill="6" visible="no" active="no"/>
<layer number="16" name="Bottom" color="1" fill="1" visible="yes" active="yes"/>
<layer number="17" name="Pads" color="2" fill="1" visible="yes" active="yes"/>
<layer number="18" name="Vias" color="2" fill="1" visible="yes" active="yes"/>
<layer number="19" name="Unrouted" color="6" fill="1" visible="yes" active="yes"/>
<layer number="20" name="Dimension" color="15" fill="1" visible="yes" active="yes"/>
<layer number="21" name="tPlace" color="7" fill="1" visible="yes" active="yes"/>
<layer number="22" name="bPlace" color="7" fill="1" visible="yes" active="yes"/>
<layer number="23" name="tOrigins" color="15" fill="1" visible="yes" active="yes"/>
<layer number="24" name="bOrigins" color="15" fill="1" visible="yes" active="yes"/>
<layer number="25" name="tNames" color="7" fill="1" visible="yes" active="yes"/>
<layer number="26" name="bNames" color="7" fill="1" visible="yes" active="yes"/>
<layer number="27" name="tValues" color="7" fill="1" visible="yes" active="yes"/>
<layer number="28" name="bValues" color="7" fill="1" visible="yes" active="yes"/>
<layer number="29" name="tStop" color="7" fill="3" visible="yes" active="yes"/>
<layer number="30" name="bStop" color="7" fill="6" visible="yes" active="yes"/>
<layer number="31" name="tCream" color="7" fill="4" visible="yes" active="yes"/>
<layer number="32" name="bCream" color="7" fill="5" visible="yes" active="yes"/>
<layer number="33" name="tFinish" color="6" fill="3" visible="yes" active="yes"/>
<layer number="34" name="bFinish" color="6" fill="6" visible="yes" active="yes"/>
<layer number="35" name="tGlue" color="7" fill="4" visible="yes" active="yes"/>
<layer number="36" name="bGlue" color="7" fill="5" visible="yes" active="yes"/>
<layer number="37" name="tTest" color="7" fill="1" visible="yes" active="yes"/>
<layer number="38" name="bTest" color="7" fill="1" visible="yes" active="yes"/>
<layer number="39" name="tKeepout" color="4" fill="11" visible="yes" active="yes"/>
<layer number="40" name="bKeepout" color="1" fill="11" visible="yes" active="yes"/>
<layer number="41" name="tRestrict" color="4" fill="10" visible="yes" active="yes"/>
<layer number="42" name="bRestrict" color="1" fill="10" visible="yes" active="yes"/>
<layer number="43" name="vRestrict" color="2" fill="10" visible="yes" active="yes"/>
<layer number="44" name="Drills" color="7" fill="1" visible="yes" active="yes"/>
<layer number="45" name="Holes" color="7" fill="1" visible="yes" active="yes"/>
<layer number="46" name="Milling" color="3" fill="1" visible="yes" active="yes"/>
<layer number="47" name="Measures" color="7" fill="1" visible="yes" active="yes"/>
<layer number="48" name="Document" color="7" fill="1" visible="yes" active="yes"/>
<layer number="49" name="Reference" color="7" fill="1" visible="yes" active="yes"/>
<layer number="50" name="dxf" color="7" fill="1" visible="no" active="no"/>
<layer number="51" name="tDocu" color="7" fill="1" visible="yes" active="yes"/>
<layer number="52" name="bDocu" color="7" fill="1" visible="yes" active="yes"/>
<layer number="53" name="tGND_GNDA" color="7" fill="9" visible="no" active="no"/>
<layer number="54" name="bGND_GNDA" color="1" fill="9" visible="no" active="no"/>
<layer number="56" name="wert" color="7" fill="1" visible="no" active="no"/>
<layer number="57" name="tCAD" color="7" fill="1" visible="no" active="no"/>
<layer number="59" name="tCarbon" color="7" fill="1" visible="no" active="no"/>
<layer number="60" name="bCarbon" color="7" fill="1" visible="no" active="no"/>
<layer number="90" name="Modules" color="5" fill="1" visible="no" active="no"/>
<layer number="91" name="Nets" color="2" fill="1" visible="no" active="no"/>
<layer number="92" name="Busses" color="1" fill="1" visible="no" active="no"/>
<layer number="93" name="Pins" color="2" fill="1" visible="no" active="no"/>
<layer number="94" name="Symbols" color="4" fill="1" visible="no" active="no"/>
<layer number="95" name="Names" color="7" fill="1" visible="no" active="no"/>
<layer number="96" name="Values" color="7" fill="1" visible="no" active="no"/>
<layer number="97" name="Info" color="7" fill="1" visible="no" active="no"/>
<layer number="98" name="Guide" color="6" fill="1" visible="no" active="no"/>
<layer number="99" name="SpiceOrder" color="5" fill="1" visible="no" active="no"/>
<layer number="100" name="Muster" color="7" fill="1" visible="no" active="no"/>
<layer number="101" name="Patch_Top" color="12" fill="4" visible="yes" active="yes"/>
<layer number="102" name="Vscore" color="7" fill="1" visible="yes" active="yes"/>
<layer number="103" name="fp3" color="7" fill="1" visible="yes" active="yes"/>
<layer number="104" name="Name" color="7" fill="1" visible="yes" active="yes"/>
<layer number="105" name="Beschreib" color="9" fill="1" visible="yes" active="yes"/>
<layer number="106" name="BGA-Top" color="4" fill="1" visible="yes" active="yes"/>
<layer number="107" name="BD-Top" color="5" fill="1" visible="yes" active="yes"/>
<layer number="108" name="fp8" color="7" fill="1" visible="yes" active="yes"/>
<layer number="109" name="fp9" color="7" fill="1" visible="yes" active="yes"/>
<layer number="110" name="fp0" color="7" fill="1" visible="yes" active="yes"/>
<layer number="111" name="LPC17xx" color="7" fill="1" visible="yes" active="yes"/>
<layer number="112" name="tSilk" color="7" fill="1" visible="yes" active="yes"/>
<layer number="113" name="IDFDebug" color="7" fill="1" visible="yes" active="yes"/>
<layer number="114" name="FRNTMAAT1" color="7" fill="1" visible="yes" active="yes"/>
<layer number="115" name="FRNTMAAT2" color="7" fill="1" visible="yes" active="yes"/>
<layer number="116" name="Patch_BOT" color="9" fill="4" visible="yes" active="yes"/>
<layer number="117" name="BACKMAAT1" color="7" fill="1" visible="yes" active="yes"/>
<layer number="118" name="Rect_Pads" color="7" fill="1" visible="no" active="no"/>
<layer number="119" name="KAP_TEKEN" color="7" fill="1" visible="yes" active="yes"/>
<layer number="120" name="Descript" color="7" fill="1" visible="yes" active="yes"/>
<layer number="121" name="_tsilk" color="7" fill="1" visible="yes" active="yes"/>
<layer number="122" name="_bsilk" color="7" fill="1" visible="yes" active="yes"/>
<layer number="123" name="tTestmark" color="7" fill="1" visible="yes" active="yes"/>
<layer number="124" name="bTestmark" color="7" fill="1" visible="yes" active="yes"/>
<layer number="125" name="_tNames" color="7" fill="1" visible="yes" active="yes"/>
<layer number="126" name="_bNames" color="7" fill="1" visible="yes" active="yes"/>
<layer number="127" name="_tValues" color="7" fill="1" visible="yes" active="yes"/>
<layer number="128" name="_bValues" color="7" fill="1" visible="yes" active="yes"/>
<layer number="129" name="mtStop" color="7" fill="1" visible="no" active="no"/>
<layer number="130" name="SMDSTROOK" color="7" fill="1" visible="yes" active="yes"/>
<layer number="131" name="tAdjust" color="7" fill="1" visible="yes" active="yes"/>
<layer number="132" name="bAdjust" color="7" fill="1" visible="yes" active="yes"/>
<layer number="133" name="mtFinish" color="7" fill="1" visible="no" active="no"/>
<layer number="134" name="mbFinish" color="7" fill="1" visible="no" active="no"/>
<layer number="135" name="mtGlue" color="7" fill="1" visible="no" active="no"/>
<layer number="136" name="mbGlue" color="7" fill="1" visible="no" active="no"/>
<layer number="137" name="mtTest" color="7" fill="1" visible="no" active="no"/>
<layer number="138" name="mbTest" color="7" fill="1" visible="no" active="no"/>
<layer number="139" name="mtKeepout" color="7" fill="1" visible="no" active="no"/>
<layer number="140" name="mbKeepout" color="7" fill="1" visible="no" active="no"/>
<layer number="141" name="mtRestrict" color="7" fill="1" visible="no" active="no"/>
<layer number="142" name="mbRestrict" color="7" fill="1" visible="no" active="no"/>
<layer number="143" name="mvRestrict" color="7" fill="1" visible="no" active="no"/>
<layer number="144" name="Drill_legend" color="7" fill="1" visible="yes" active="yes"/>
<layer number="145" name="mHoles" color="7" fill="1" visible="no" active="no"/>
<layer number="146" name="mMilling" color="7" fill="1" visible="no" active="no"/>
<layer number="147" name="mMeasures" color="7" fill="1" visible="no" active="no"/>
<layer number="148" name="mDocument" color="7" fill="1" visible="no" active="no"/>
<layer number="149" name="mReference" color="7" fill="1" visible="no" active="no"/>
<layer number="150" name="Notes" color="7" fill="1" visible="yes" active="yes"/>
<layer number="151" name="HeatSink" color="7" fill="1" visible="yes" active="yes"/>
<layer number="152" name="_bDocu" color="7" fill="1" visible="yes" active="yes"/>
<layer number="153" name="FabDoc1" color="6" fill="1" visible="no" active="no"/>
<layer number="154" name="FabDoc2" color="2" fill="1" visible="no" active="no"/>
<layer number="155" name="FabDoc3" color="7" fill="15" visible="no" active="no"/>
<layer number="191" name="mNets" color="7" fill="1" visible="no" active="no"/>
<layer number="192" name="mBusses" color="7" fill="1" visible="no" active="no"/>
<layer number="193" name="mPins" color="7" fill="1" visible="no" active="no"/>
<layer number="194" name="mSymbols" color="7" fill="1" visible="no" active="no"/>
<layer number="195" name="mNames" color="7" fill="1" visible="no" active="no"/>
<layer number="196" name="mValues" color="7" fill="1" visible="no" active="no"/>
<layer number="199" name="Contour" color="7" fill="1" visible="yes" active="yes"/>
<layer number="200" name="200bmp" color="1" fill="10" visible="yes" active="yes"/>
<layer number="201" name="201bmp" color="2" fill="1" visible="no" active="no"/>
<layer number="202" name="202bmp" color="3" fill="1" visible="no" active="no"/>
<layer number="203" name="203bmp" color="4" fill="10" visible="yes" active="yes"/>
<layer number="204" name="204bmp" color="5" fill="10" visible="yes" active="yes"/>
<layer number="205" name="205bmp" color="6" fill="10" visible="yes" active="yes"/>
<layer number="206" name="206bmp" color="7" fill="10" visible="yes" active="yes"/>
<layer number="207" name="207bmp" color="8" fill="10" visible="yes" active="yes"/>
<layer number="208" name="208bmp" color="9" fill="10" visible="yes" active="yes"/>
<layer number="209" name="209bmp" color="7" fill="1" visible="yes" active="yes"/>
<layer number="210" name="210bmp" color="7" fill="1" visible="yes" active="yes"/>
<layer number="211" name="211bmp" color="7" fill="1" visible="yes" active="yes"/>
<layer number="212" name="212bmp" color="7" fill="1" visible="yes" active="yes"/>
<layer number="213" name="213bmp" color="7" fill="1" visible="yes" active="yes"/>
<layer number="214" name="214bmp" color="7" fill="1" visible="yes" active="yes"/>
<layer number="215" name="215bmp" color="7" fill="1" visible="yes" active="yes"/>
<layer number="216" name="216bmp" color="7" fill="1" visible="yes" active="yes"/>
<layer number="217" name="217bmp" color="18" fill="1" visible="no" active="no"/>
<layer number="218" name="218bmp" color="19" fill="1" visible="no" active="no"/>
<layer number="219" name="219bmp" color="20" fill="1" visible="no" active="no"/>
<layer number="220" name="220bmp" color="21" fill="1" visible="no" active="no"/>
<layer number="221" name="221bmp" color="22" fill="1" visible="no" active="no"/>
<layer number="222" name="222bmp" color="23" fill="1" visible="no" active="no"/>
<layer number="223" name="223bmp" color="24" fill="1" visible="no" active="no"/>
<layer number="224" name="224bmp" color="25" fill="1" visible="no" active="no"/>
<layer number="225" name="225bmp" color="7" fill="1" visible="yes" active="yes"/>
<layer number="226" name="226bmp" color="7" fill="1" visible="yes" active="yes"/>
<layer number="227" name="227bmp" color="7" fill="1" visible="yes" active="yes"/>
<layer number="228" name="228bmp" color="7" fill="1" visible="yes" active="yes"/>
<layer number="229" name="229bmp" color="7" fill="1" visible="yes" active="yes"/>
<layer number="230" name="230bmp" color="7" fill="1" visible="yes" active="yes"/>
<layer number="231" name="Eagle3D_PG1" color="7" fill="1" visible="yes" active="yes"/>
<layer number="232" name="Eagle3D_PG2" color="7" fill="1" visible="yes" active="yes"/>
<layer number="233" name="Eagle3D_PG3" color="7" fill="1" visible="yes" active="yes"/>
<layer number="248" name="Housing" color="7" fill="1" visible="yes" active="yes"/>
<layer number="249" name="Edge" color="7" fill="1" visible="yes" active="yes"/>
<layer number="250" name="Descript" color="7" fill="1" visible="no" active="no"/>
<layer number="251" name="SMDround" color="7" fill="1" visible="no" active="no"/>
<layer number="254" name="cooling" color="7" fill="1" visible="yes" active="yes"/>
<layer number="255" name="INPROGRESS" color="7" fill="1" visible="yes" active="yes"/>
</layers>
<board>
<plain>
<wire x1="60.3424" y1="50.5122" x2="60.3814" y2="60.2688" width="0" layer="20"/>
<wire x1="60.2426" y1="15.6488" x2="62.7004" y2="15.5652" width="0" layer="20"/>
<wire x1="62.7004" y1="15.5652" x2="62.5958" y2="50.499" width="0" layer="20"/>
<wire x1="62.5958" y1="50.499" x2="60.3424" y2="50.5122" width="0" layer="20"/>
<wire x1="60.2256" y1="5.5528" x2="60.2426" y2="15.6488" width="0" layer="20"/>
<text x="26.868578125" y="57.74426875" size="1.4224" layer="21" font="vector" ratio="1">EMeRGE 07/17</text>
<wire x1="60.4354" y1="5.6668" x2="6.6628" y2="5.5506" width="0" layer="20"/>
<wire x1="6.912" y1="60.342" x2="60.271" y2="60.452" width="0.001" layer="20"/>
<wire x1="6.912" y1="5.342" x2="6.912" y2="60.342" width="0.001" layer="20"/>
<wire x1="7.066" y1="60.244" x2="6.957" y2="60.244" width="0.001" layer="20"/>
<text x="27.382234375" y="54.71766875" size="1.778" layer="21" font="vector" ratio="1">FACE 3 EM</text>
</plain>
<libraries>
<library name="rcl">
<description>&lt;b&gt;Resistors, Capacitors, Inductors&lt;/b&gt;&lt;p&gt;
Based on the previous libraries:
&lt;ul&gt;
&lt;li&gt;r.lbr
&lt;li&gt;cap.lbr 
&lt;li&gt;cap-fe.lbr
&lt;li&gt;captant.lbr
&lt;li&gt;polcap.lbr
&lt;li&gt;ipc-smd.lbr
&lt;/ul&gt;
All SMD packages are defined according to the IPC specifications and  CECC&lt;p&gt;
&lt;author&gt;Created by librarian@cadsoft.de&lt;/author&gt;&lt;p&gt;
&lt;p&gt;
for Electrolyt Capacitors see also :&lt;p&gt;
www.bccomponents.com &lt;p&gt;
www.panasonic.com&lt;p&gt;
www.kemet.com&lt;p&gt;
http://www.secc.co.jp/pdf/os_e/2004/e_os_all.pdf &lt;b&gt;(SANYO)&lt;/b&gt;
&lt;p&gt;
for trimmer refence see : &lt;u&gt;www.electrospec-inc.com/cross_references/trimpotcrossref.asp&lt;/u&gt;&lt;p&gt;

&lt;table border=0 cellspacing=0 cellpadding=0 width="100%" cellpaddding=0&gt;
&lt;tr valign="top"&gt;

&lt;! &lt;td width="10"&gt;&amp;nbsp;&lt;/td&gt;
&lt;td width="90%"&gt;

&lt;b&gt;&lt;font color="#0000FF" size="4"&gt;TRIM-POT CROSS REFERENCE&lt;/font&gt;&lt;/b&gt;
&lt;P&gt;
&lt;TABLE BORDER=0 CELLSPACING=1 CELLPADDING=2&gt;
  &lt;TR&gt;
    &lt;TD COLSPAN=8&gt;
      &lt;FONT SIZE=3 FACE=ARIAL&gt;&lt;B&gt;RECTANGULAR MULTI-TURN&lt;/B&gt;&lt;/FONT&gt;
    &lt;/TD&gt;
  &lt;/TR&gt;
  &lt;TR&gt;
    &lt;TD ALIGN=CENTER&gt;
      &lt;B&gt;
      &lt;FONT SIZE=3 FACE=ARIAL color="#FF0000"&gt;BOURNS&lt;/FONT&gt;
      &lt;/B&gt;
    &lt;/TD&gt;
    &lt;TD ALIGN=CENTER&gt;
      &lt;B&gt;
      &lt;FONT SIZE=3 FACE=ARIAL color="#FF0000"&gt;BI&amp;nbsp;TECH&lt;/FONT&gt;
      &lt;/B&gt;
    &lt;/TD&gt;
    &lt;TD ALIGN=CENTER&gt;
      &lt;B&gt;
      &lt;FONT SIZE=3 FACE=ARIAL color="#FF0000"&gt;DALE-VISHAY&lt;/FONT&gt;
      &lt;/B&gt;
    &lt;/TD&gt;
    &lt;TD ALIGN=CENTER&gt;
      &lt;B&gt;
      &lt;FONT SIZE=3 FACE=ARIAL color="#FF0000"&gt;PHILIPS/MEPCO&lt;/FONT&gt;
      &lt;/B&gt;
    &lt;/TD&gt;
    &lt;TD ALIGN=CENTER&gt;
      &lt;B&gt;
      &lt;FONT SIZE=3 FACE=ARIAL color="#FF0000"&gt;MURATA&lt;/FONT&gt;
      &lt;/B&gt;
    &lt;/TD&gt;
    &lt;TD ALIGN=CENTER&gt;
      &lt;B&gt;
      &lt;FONT SIZE=3 FACE=ARIAL color="#FF0000"&gt;PANASONIC&lt;/FONT&gt;
      &lt;/B&gt;
    &lt;/TD&gt;
    &lt;TD ALIGN=CENTER&gt;
      &lt;B&gt;
      &lt;FONT SIZE=3 FACE=ARIAL color="#FF0000"&gt;SPECTROL&lt;/FONT&gt;
      &lt;/B&gt;
    &lt;/TD&gt;
    &lt;TD ALIGN=CENTER&gt;
      &lt;B&gt;
      &lt;FONT SIZE=3 FACE=ARIAL color="#FF0000"&gt;MILSPEC&lt;/FONT&gt;
      &lt;/B&gt;
    &lt;/TD&gt;&lt;TD&gt;&amp;nbsp;&lt;/TD&gt;
  &lt;/TR&gt;
  &lt;TR&gt;
    &lt;TD BGCOLOR="#cccccc" ALIGN=CENTER&gt;&lt;FONT FACE=ARIAL SIZE=3 &gt;
      3005P&lt;BR&gt;
      3006P&lt;BR&gt;
      3006W&lt;BR&gt;
      3006Y&lt;BR&gt;
      3009P&lt;BR&gt;
      3009W&lt;BR&gt;
      3009Y&lt;BR&gt;
      3057J&lt;BR&gt;
      3057L&lt;BR&gt;
      3057P&lt;BR&gt;
      3057Y&lt;BR&gt;
      3059J&lt;BR&gt;
      3059L&lt;BR&gt;
      3059P&lt;BR&gt;
      3059Y&lt;BR&gt;&lt;/FONT&gt;
    &lt;/TD&gt;
    &lt;TD BGCOLOR="#cccccc" ALIGN=CENTER&gt;&lt;FONT FACE=ARIAL SIZE=3&gt;
      -&lt;BR&gt;
      89P&lt;BR&gt;
      89W&lt;BR&gt;
      89X&lt;BR&gt;
      89PH&lt;BR&gt;
      76P&lt;BR&gt;
      89XH&lt;BR&gt;
      78SLT&lt;BR&gt;
      78L&amp;nbsp;ALT&lt;BR&gt;
      56P&amp;nbsp;ALT&lt;BR&gt;
      78P&amp;nbsp;ALT&lt;BR&gt;
      T8S&lt;BR&gt;
      78L&lt;BR&gt;
      56P&lt;BR&gt;
      78P&lt;BR&gt;&lt;/FONT&gt;
    &lt;/TD&gt;
    &lt;TD BGCOLOR="#cccccc" ALIGN=CENTER&gt;&lt;FONT FACE=ARIAL SIZE=3&gt;
      -&lt;BR&gt;
      T18/784&lt;BR&gt;
      783&lt;BR&gt;
      781&lt;BR&gt;
      -&lt;BR&gt;
      -&lt;BR&gt;
      -&lt;BR&gt;
      2199&lt;BR&gt;
      1697/1897&lt;BR&gt;
      1680/1880&lt;BR&gt;
      2187&lt;BR&gt;
      -&lt;BR&gt;
      -&lt;BR&gt;
      -&lt;BR&gt;
      -&lt;BR&gt;&lt;/FONT&gt;
    &lt;/TD&gt;
    &lt;TD BGCOLOR="#cccccc" ALIGN=CENTER&gt;&lt;FONT FACE=ARIAL SIZE=3&gt;
      -&lt;BR&gt;
      8035EKP/CT20/RJ-20P&lt;BR&gt;
      -&lt;BR&gt;
      RJ-20X&lt;BR&gt;
      -&lt;BR&gt;
      -&lt;BR&gt;
      -&lt;BR&gt;
      1211L&lt;BR&gt;
      8012EKQ&amp;nbsp;ALT&lt;BR&gt;
      8012EKR&amp;nbsp;ALT&lt;BR&gt;
      1211P&lt;BR&gt;
      8012EKJ&lt;BR&gt;
      8012EKL&lt;BR&gt;
      8012EKQ&lt;BR&gt;
      8012EKR&lt;BR&gt;&lt;/FONT&gt;
    &lt;/TD&gt;
    &lt;TD BGCOLOR="#cccccc" ALIGN=CENTER&gt;&lt;FONT FACE=ARIAL SIZE=3&gt;
      -&lt;BR&gt;
      2101P&lt;BR&gt;
      2101W&lt;BR&gt;
      2101Y&lt;BR&gt;
      -&lt;BR&gt;
      -&lt;BR&gt;
      -&lt;BR&gt;
      -&lt;BR&gt;
      -&lt;BR&gt;
      -&lt;BR&gt;
      -&lt;BR&gt;
      -&lt;BR&gt;
      2102L&lt;BR&gt;
      2102S&lt;BR&gt;
      2102Y&lt;BR&gt;&lt;/FONT&gt;
    &lt;/TD&gt;
    &lt;TD BGCOLOR="#cccccc" ALIGN=CENTER&gt;&lt;FONT FACE=ARIAL SIZE=3&gt;
      -&lt;BR&gt;
      EVMCOG&lt;BR&gt;
      -&lt;BR&gt;
      -&lt;BR&gt;
      -&lt;BR&gt;
      -&lt;BR&gt;
      -&lt;BR&gt;
      -&lt;BR&gt;
      -&lt;BR&gt;
      -&lt;BR&gt;
      -&lt;BR&gt;
      -&lt;BR&gt;
      -&lt;BR&gt;
      -&lt;BR&gt;
      -&lt;BR&gt;&lt;/FONT&gt;
    &lt;/TD&gt;
    &lt;TD BGCOLOR="#cccccc" ALIGN=CENTER&gt;&lt;FONT FACE=ARIAL SIZE=3&gt;
      -&lt;BR&gt;
      43P&lt;BR&gt;
      43W&lt;BR&gt;
      43Y&lt;BR&gt;
      -&lt;BR&gt;
      -&lt;BR&gt;
      -&lt;BR&gt;
      -&lt;BR&gt;
      40L&lt;BR&gt;
      40P&lt;BR&gt;
      40Y&lt;BR&gt;
      70Y-T602&lt;BR&gt;
      70L&lt;BR&gt;
      70P&lt;BR&gt;
      70Y&lt;BR&gt;&lt;/FONT&gt;
    &lt;/TD&gt;
    &lt;TD BGCOLOR="#cccccc" ALIGN=CENTER&gt;&lt;FONT FACE=ARIAL SIZE=3&gt;
      -&lt;BR&gt;
      -&lt;BR&gt;
      -&lt;BR&gt;
      -&lt;BR&gt;
      -&lt;BR&gt;
      -&lt;BR&gt;
      -&lt;BR&gt;
      -&lt;BR&gt;
      RT/RTR12&lt;BR&gt;
      RT/RTR12&lt;BR&gt;
      RT/RTR12&lt;BR&gt;
      -&lt;BR&gt;
      RJ/RJR12&lt;BR&gt;
      RJ/RJR12&lt;BR&gt;
      RJ/RJR12&lt;BR&gt;&lt;/FONT&gt;
    &lt;/TD&gt;
  &lt;/TR&gt;
  &lt;TR&gt;
    &lt;TD COLSPAN=8&gt;&amp;nbsp;
    &lt;/TD&gt;
  &lt;/TR&gt;
  &lt;TR&gt;
    &lt;TD COLSPAN=8&gt;
      &lt;FONT SIZE=4 FACE=ARIAL&gt;&lt;B&gt;SQUARE MULTI-TURN&lt;/B&gt;&lt;/FONT&gt;
    &lt;/TD&gt;
  &lt;/TR&gt;
  &lt;TR&gt;
   &lt;TD ALIGN=CENTER&gt;
      &lt;FONT SIZE=3 FACE=ARIAL&gt;&lt;B&gt;BOURN&lt;/B&gt;&lt;/FONT&gt;
    &lt;/TD&gt;
    &lt;TD ALIGN=CENTER&gt;
      &lt;FONT SIZE=3 FACE=ARIAL&gt;&lt;B&gt;BI&amp;nbsp;TECH&lt;/B&gt;&lt;/FONT&gt;
    &lt;/TD&gt;
    &lt;TD ALIGN=CENTER&gt;
      &lt;FONT SIZE=3 FACE=ARIAL&gt;&lt;B&gt;DALE-VISHAY&lt;/B&gt;&lt;/FONT&gt;
    &lt;/TD&gt;
    &lt;TD ALIGN=CENTER&gt;
      &lt;FONT SIZE=3 FACE=ARIAL&gt;&lt;B&gt;PHILIPS/MEPCO&lt;/B&gt;&lt;/FONT&gt;
    &lt;/TD&gt;
    &lt;TD ALIGN=CENTER&gt;
      &lt;FONT SIZE=3 FACE=ARIAL&gt;&lt;B&gt;MURATA&lt;/B&gt;&lt;/FONT&gt;
    &lt;/TD&gt;
    &lt;TD ALIGN=CENTER&gt;
      &lt;FONT SIZE=3 FACE=ARIAL&gt;&lt;B&gt;PANASONIC&lt;/B&gt;&lt;/FONT&gt;
    &lt;/TD&gt;
    &lt;TD ALIGN=CENTER&gt;
      &lt;FONT SIZE=3 FACE=ARIAL&gt;&lt;B&gt;SPECTROL&lt;/B&gt;&lt;/FONT&gt;
    &lt;/TD&gt;
    &lt;TD ALIGN=CENTER&gt;
      &lt;FONT SIZE=3 FACE=ARIAL&gt;&lt;B&gt;MILSPEC&lt;/B&gt;&lt;/FONT&gt;
    &lt;/TD&gt;
  &lt;/TR&gt;
  &lt;TR&gt;
    &lt;TD BGCOLOR="#cccccc" ALIGN=CENTER&gt;&lt;FONT FACE=ARIAL SIZE=3&gt;
      3250L&lt;BR&gt;
      3250P&lt;BR&gt;
      3250W&lt;BR&gt;
      3250X&lt;BR&gt;
      3252P&lt;BR&gt;
      3252W&lt;BR&gt;
      3252X&lt;BR&gt;
      3260P&lt;BR&gt;
      3260W&lt;BR&gt;
      3260X&lt;BR&gt;
      3262P&lt;BR&gt;
      3262W&lt;BR&gt;
      3262X&lt;BR&gt;
      3266P&lt;BR&gt;
      3266W&lt;BR&gt;
      3266X&lt;BR&gt;
      3290H&lt;BR&gt;
      3290P&lt;BR&gt;
      3290W&lt;BR&gt;
      3292P&lt;BR&gt;
      3292W&lt;BR&gt;
      3292X&lt;BR&gt;
      3296P&lt;BR&gt;
      3296W&lt;BR&gt;
      3296X&lt;BR&gt;
      3296Y&lt;BR&gt;
      3296Z&lt;BR&gt;
      3299P&lt;BR&gt;
      3299W&lt;BR&gt;
      3299X&lt;BR&gt;
      3299Y&lt;BR&gt;
      3299Z&lt;BR&gt;&lt;/FONT&gt;
    &lt;/TD&gt;
    &lt;TD BGCOLOR="#cccccc" ALIGN=CENTER&gt;&lt;FONT FACE=ARIAL SIZE=3&gt;
      -&lt;BR&gt;
      66P&amp;nbsp;ALT&lt;BR&gt;
      66W&amp;nbsp;ALT&lt;BR&gt;
      66X&amp;nbsp;ALT&lt;BR&gt;
      66P&amp;nbsp;ALT&lt;BR&gt;
      66W&amp;nbsp;ALT&lt;BR&gt;
      66X&amp;nbsp;ALT&lt;BR&gt;
      -&lt;BR&gt;
      64W&amp;nbsp;ALT&lt;BR&gt;
      -&lt;BR&gt;
      64P&amp;nbsp;ALT&lt;BR&gt;
      64W&amp;nbsp;ALT&lt;BR&gt;
      64X&amp;nbsp;ALT&lt;BR&gt;
      64P&lt;BR&gt;
      64W&lt;BR&gt;
      64X&lt;BR&gt;
      66X&amp;nbsp;ALT&lt;BR&gt;
      66P&amp;nbsp;ALT&lt;BR&gt;
      66W&amp;nbsp;ALT&lt;BR&gt;
      66P&lt;BR&gt;
      66W&lt;BR&gt;
      66X&lt;BR&gt;
      67P&lt;BR&gt;
      67W&lt;BR&gt;
      67X&lt;BR&gt;
      67Y&lt;BR&gt;
      67Z&lt;BR&gt;
      68P&lt;BR&gt;
      68W&lt;BR&gt;
      68X&lt;BR&gt;
      67Y&amp;nbsp;ALT&lt;BR&gt;
      67Z&amp;nbsp;ALT&lt;BR&gt;&lt;/FONT&gt;
    &lt;/TD&gt;
    &lt;TD BGCOLOR="#cccccc" ALIGN=CENTER&gt;&lt;FONT FACE=ARIAL SIZE=3&gt;
      5050&lt;BR&gt;
      5091&lt;BR&gt;
      5080&lt;BR&gt;
      5087&lt;BR&gt;
      -&lt;BR&gt;
      -&lt;BR&gt;
      -&lt;BR&gt;
      -&lt;BR&gt;
      -&lt;BR&gt;
      -&lt;BR&gt;
      -&lt;BR&gt;
      T63YB&lt;BR&gt;
      T63XB&lt;BR&gt;
      -&lt;BR&gt;
      -&lt;BR&gt;
      -&lt;BR&gt;
      5887&lt;BR&gt;
      5891&lt;BR&gt;
      5880&lt;BR&gt;
      -&lt;BR&gt;
      -&lt;BR&gt;
      -&lt;BR&gt;
      T93Z&lt;BR&gt;
      T93YA&lt;BR&gt;
      T93XA&lt;BR&gt;
      T93YB&lt;BR&gt;
      T93XB&lt;BR&gt;
      -&lt;BR&gt;
      -&lt;BR&gt;
      -&lt;BR&gt;
      -&lt;BR&gt;
      -&lt;BR&gt;&lt;/FONT&gt;
    &lt;/TD&gt;
    &lt;TD BGCOLOR="#cccccc" ALIGN=CENTER&gt;&lt;FONT FACE=ARIAL SIZE=3&gt;
      -&lt;BR&gt;
      -&lt;BR&gt;
      -&lt;BR&gt;
      -&lt;BR&gt;
      -&lt;BR&gt;
      -&lt;BR&gt;
      -&lt;BR&gt;
      -&lt;BR&gt;
      -&lt;BR&gt;
      -&lt;BR&gt;
      8026EKP&lt;BR&gt;
      8026EKW&lt;BR&gt;
      8026EKM&lt;BR&gt;
      8026EKP&lt;BR&gt;
      8026EKB&lt;BR&gt;
      8026EKM&lt;BR&gt;
      1309X&lt;BR&gt;
      1309P&lt;BR&gt;
      1309W&lt;BR&gt;
      8024EKP&lt;BR&gt;
      8024EKW&lt;BR&gt;
      8024EKN&lt;BR&gt;
      RJ-9P/CT9P&lt;BR&gt;
      RJ-9W&lt;BR&gt;
      RJ-9X&lt;BR&gt;
      -&lt;BR&gt;
      -&lt;BR&gt;
      -&lt;BR&gt;
      -&lt;BR&gt;
      -&lt;BR&gt;
      -&lt;BR&gt;
      -&lt;BR&gt;&lt;/FONT&gt;
    &lt;/TD&gt;
    &lt;TD BGCOLOR="#cccccc" ALIGN=CENTER&gt;&lt;FONT FACE=ARIAL SIZE=3&gt;
      -&lt;BR&gt;
      -&lt;BR&gt;
      -&lt;BR&gt;
      -&lt;BR&gt;
      -&lt;BR&gt;
      -&lt;BR&gt;
      -&lt;BR&gt;
      -&lt;BR&gt;
      -&lt;BR&gt;
      -&lt;BR&gt;
      3103P&lt;BR&gt;
      3103Y&lt;BR&gt;
      3103Z&lt;BR&gt;
      3103P&lt;BR&gt;
      3103Y&lt;BR&gt;
      3103Z&lt;BR&gt;
      -&lt;BR&gt;
      -&lt;BR&gt;
      -&lt;BR&gt;
      -&lt;BR&gt;
      -&lt;BR&gt;
      -&lt;BR&gt;
      3105P/3106P&lt;BR&gt;
      3105W/3106W&lt;BR&gt;
      3105X/3106X&lt;BR&gt;
      3105Y/3106Y&lt;BR&gt;
      3105Z/3105Z&lt;BR&gt;
      3102P&lt;BR&gt;
      3102W&lt;BR&gt;
      3102X&lt;BR&gt;
      3102Y&lt;BR&gt;
      3102Z&lt;BR&gt;&lt;/FONT&gt;
    &lt;/TD&gt;
    &lt;TD BGCOLOR="#cccccc" ALIGN=CENTER&gt;&lt;FONT FACE=ARIAL SIZE=3&gt;
      -&lt;BR&gt;
      -&lt;BR&gt;
      -&lt;BR&gt;
      -&lt;BR&gt;
      -&lt;BR&gt;
      -&lt;BR&gt;
      -&lt;BR&gt;
      -&lt;BR&gt;
      -&lt;BR&gt;
      -&lt;BR&gt;
      -&lt;BR&gt;
      -&lt;BR&gt;
      -&lt;BR&gt;
      -&lt;BR&gt;
      -&lt;BR&gt;
      -&lt;BR&gt;
      -&lt;BR&gt;
      -&lt;BR&gt;
      -&lt;BR&gt;
      -&lt;BR&gt;
      -&lt;BR&gt;
      -&lt;BR&gt;
      EVMCBG&lt;BR&gt;
      EVMCCG&lt;BR&gt;
      -&lt;BR&gt;
      -&lt;BR&gt;
      -&lt;BR&gt;
      -&lt;BR&gt;
      -&lt;BR&gt;
      -&lt;BR&gt;
      -&lt;BR&gt;
      -&lt;BR&gt;&lt;/FONT&gt;
    &lt;/TD&gt;
    &lt;TD BGCOLOR="#cccccc" ALIGN=CENTER&gt;&lt;FONT FACE=ARIAL SIZE=3&gt;
      55-1-X&lt;BR&gt;
      55-4-X&lt;BR&gt;
      55-3-X&lt;BR&gt;
      55-2-X&lt;BR&gt;
      -&lt;BR&gt;
      -&lt;BR&gt;
      -&lt;BR&gt;
      -&lt;BR&gt;
      -&lt;BR&gt;
      -&lt;BR&gt;
      -&lt;BR&gt;
      -&lt;BR&gt;
      -&lt;BR&gt;
      -&lt;BR&gt;
      -&lt;BR&gt;
      -&lt;BR&gt;
      50-2-X&lt;BR&gt;
      50-4-X&lt;BR&gt;
      50-3-X&lt;BR&gt;
      -&lt;BR&gt;
      -&lt;BR&gt;
      -&lt;BR&gt;
      64P&lt;BR&gt;
      64W&lt;BR&gt;
      64X&lt;BR&gt;
      64Y&lt;BR&gt;
      64Z&lt;BR&gt;
      -&lt;BR&gt;
      -&lt;BR&gt;
      -&lt;BR&gt;
      -&lt;BR&gt;
      -&lt;BR&gt;&lt;/FONT&gt;
    &lt;/TD&gt;
    &lt;TD BGCOLOR="#cccccc" ALIGN=CENTER&gt;&lt;FONT FACE=ARIAL SIZE=3&gt;
      RT/RTR22&lt;BR&gt;
      RT/RTR22&lt;BR&gt;
      RT/RTR22&lt;BR&gt;
      RT/RTR22&lt;BR&gt;
      RJ/RJR22&lt;BR&gt;
      RJ/RJR22&lt;BR&gt;
      RJ/RJR22&lt;BR&gt;
      RT/RTR26&lt;BR&gt;
      RT/RTR26&lt;BR&gt;
      RT/RTR26&lt;BR&gt;
      RJ/RJR26&lt;BR&gt;
      RJ/RJR26&lt;BR&gt;
      RJ/RJR26&lt;BR&gt;
      RJ/RJR26&lt;BR&gt;
      RJ/RJR26&lt;BR&gt;
      RJ/RJR26&lt;BR&gt;
      RT/RTR24&lt;BR&gt;
      RT/RTR24&lt;BR&gt;
      RT/RTR24&lt;BR&gt;
      RJ/RJR24&lt;BR&gt;
      RJ/RJR24&lt;BR&gt;
      RJ/RJR24&lt;BR&gt;
      RJ/RJR24&lt;BR&gt;
      RJ/RJR24&lt;BR&gt;
      RJ/RJR24&lt;BR&gt;
      -&lt;BR&gt;
      -&lt;BR&gt;
      -&lt;BR&gt;
      -&lt;BR&gt;
      -&lt;BR&gt;
      -&lt;BR&gt;
      -&lt;BR&gt;&lt;/FONT&gt;
    &lt;/TD&gt;
  &lt;/TR&gt;
  &lt;TR&gt;
    &lt;TD COLSPAN=8&gt;&amp;nbsp;
    &lt;/TD&gt;
  &lt;/TR&gt;
  &lt;TR&gt;
    &lt;TD COLSPAN=8&gt;
      &lt;FONT SIZE=4 FACE=ARIAL&gt;&lt;B&gt;SINGLE TURN&lt;/B&gt;&lt;/FONT&gt;
    &lt;/TD&gt;
  &lt;/TR&gt;
  &lt;TR&gt;
    &lt;TD ALIGN=CENTER&gt;
      &lt;FONT SIZE=3 FACE=ARIAL&gt;&lt;B&gt;BOURN&lt;/B&gt;&lt;/FONT&gt;
    &lt;/TD&gt;
    &lt;TD ALIGN=CENTER&gt;
      &lt;FONT SIZE=3 FACE=ARIAL&gt;&lt;B&gt;BI&amp;nbsp;TECH&lt;/B&gt;&lt;/FONT&gt;
    &lt;/TD&gt;
    &lt;TD ALIGN=CENTER&gt;
      &lt;FONT SIZE=3 FACE=ARIAL&gt;&lt;B&gt;DALE-VISHAY&lt;/B&gt;&lt;/FONT&gt;
    &lt;/TD&gt;
    &lt;TD ALIGN=CENTER&gt;
      &lt;FONT SIZE=3 FACE=ARIAL&gt;&lt;B&gt;PHILIPS/MEPCO&lt;/B&gt;&lt;/FONT&gt;
    &lt;/TD&gt;
    &lt;TD ALIGN=CENTER&gt;
      &lt;FONT SIZE=3 FACE=ARIAL&gt;&lt;B&gt;MURATA&lt;/B&gt;&lt;/FONT&gt;
    &lt;/TD&gt;
    &lt;TD ALIGN=CENTER&gt;
      &lt;FONT SIZE=3 FACE=ARIAL&gt;&lt;B&gt;PANASONIC&lt;/B&gt;&lt;/FONT&gt;
    &lt;/TD&gt;
    &lt;TD ALIGN=CENTER&gt;
      &lt;FONT SIZE=3 FACE=ARIAL&gt;&lt;B&gt;SPECTROL&lt;/B&gt;&lt;/FONT&gt;
    &lt;/TD&gt;
    &lt;TD ALIGN=CENTER&gt;
      &lt;FONT SIZE=3 FACE=ARIAL&gt;&lt;B&gt;MILSPEC&lt;/B&gt;&lt;/FONT&gt;
    &lt;/TD&gt;
  &lt;/TR&gt;
  &lt;TR&gt;
    &lt;TD BGCOLOR="#cccccc" ALIGN=CENTER&gt;&lt;FONT FACE=ARIAL SIZE=3&gt;
      3323P&lt;BR&gt;
      3323S&lt;BR&gt;
      3323W&lt;BR&gt;
      3329H&lt;BR&gt;
      3329P&lt;BR&gt;
      3329W&lt;BR&gt;
      3339H&lt;BR&gt;
      3339P&lt;BR&gt;
      3339W&lt;BR&gt;
      3352E&lt;BR&gt;
      3352H&lt;BR&gt;
      3352K&lt;BR&gt;
      3352P&lt;BR&gt;
      3352T&lt;BR&gt;
      3352V&lt;BR&gt;
      3352W&lt;BR&gt;
      3362H&lt;BR&gt;
      3362M&lt;BR&gt;
      3362P&lt;BR&gt;
      3362R&lt;BR&gt;
      3362S&lt;BR&gt;
      3362U&lt;BR&gt;
      3362W&lt;BR&gt;
      3362X&lt;BR&gt;
      3386B&lt;BR&gt;
      3386C&lt;BR&gt;
      3386F&lt;BR&gt;
      3386H&lt;BR&gt;
      3386K&lt;BR&gt;
      3386M&lt;BR&gt;
      3386P&lt;BR&gt;
      3386S&lt;BR&gt;
      3386W&lt;BR&gt;
      3386X&lt;BR&gt;&lt;/FONT&gt;
    &lt;/TD&gt;
    &lt;TD BGCOLOR="#cccccc" ALIGN=CENTER&gt;&lt;FONT FACE=ARIAL SIZE=3&gt;
      25P&lt;BR&gt;
      25S&lt;BR&gt;
      25RX&lt;BR&gt;
      82P&lt;BR&gt;
      82M&lt;BR&gt;
      82PA&lt;BR&gt;
      -&lt;BR&gt;
      -&lt;BR&gt;
      -&lt;BR&gt;
      91E&lt;BR&gt;
      91X&lt;BR&gt;
      91T&lt;BR&gt;
      91B&lt;BR&gt;
      91A&lt;BR&gt;
      91V&lt;BR&gt;
      91W&lt;BR&gt;
      25W&lt;BR&gt;
      25V&lt;BR&gt;
      25P&lt;BR&gt;
      -&lt;BR&gt;
      25S&lt;BR&gt;
      25U&lt;BR&gt;
      25RX&lt;BR&gt;
      25X&lt;BR&gt;
      72XW&lt;BR&gt;
      72XL&lt;BR&gt;
      72PM&lt;BR&gt;
      72RX&lt;BR&gt;
      -&lt;BR&gt;
      72PX&lt;BR&gt;
      72P&lt;BR&gt;
      72RXW&lt;BR&gt;
      72RXL&lt;BR&gt;
      72X&lt;BR&gt;&lt;/FONT&gt;
    &lt;/TD&gt;
    &lt;TD BGCOLOR="#cccccc" ALIGN=CENTER&gt;&lt;FONT FACE=ARIAL SIZE=3&gt;
      -&lt;BR&gt;
      -&lt;BR&gt;
      -&lt;BR&gt;
      T7YB&lt;BR&gt;
      T7YA&lt;BR&gt;
      -&lt;BR&gt;
      -&lt;BR&gt;
      -&lt;BR&gt;
      -&lt;BR&gt;
      -&lt;BR&gt;
      -&lt;BR&gt;
      -&lt;BR&gt;
      -&lt;BR&gt;
      -&lt;BR&gt;
      -&lt;BR&gt;
      -&lt;BR&gt;
      -&lt;BR&gt;
      TXD&lt;BR&gt;
      TYA&lt;BR&gt;
      TYP&lt;BR&gt;
      -&lt;BR&gt;
      TYD&lt;BR&gt;
      TX&lt;BR&gt;
      -&lt;BR&gt;
      150SX&lt;BR&gt;
      100SX&lt;BR&gt;
      102T&lt;BR&gt;
      101S&lt;BR&gt;
      190T&lt;BR&gt;
      150TX&lt;BR&gt;
      101&lt;BR&gt;
      -&lt;BR&gt;
      -&lt;BR&gt;
      101SX&lt;BR&gt;&lt;/FONT&gt;
    &lt;/TD&gt;
    &lt;TD BGCOLOR="#cccccc" ALIGN=CENTER&gt;&lt;FONT FACE=ARIAL SIZE=3&gt;
      ET6P&lt;BR&gt;
      ET6S&lt;BR&gt;
      ET6X&lt;BR&gt;
      RJ-6W/8014EMW&lt;BR&gt;
      RJ-6P/8014EMP&lt;BR&gt;
      RJ-6X/8014EMX&lt;BR&gt;
      TM7W&lt;BR&gt;
      TM7P&lt;BR&gt;
      TM7X&lt;BR&gt;
      -&lt;BR&gt;
      8017SMS&lt;BR&gt;
      -&lt;BR&gt;
      8017SMB&lt;BR&gt;
      8017SMA&lt;BR&gt;
      -&lt;BR&gt;
      -&lt;BR&gt;
      CT-6W&lt;BR&gt;
      CT-6H&lt;BR&gt;
      CT-6P&lt;BR&gt;
      CT-6R&lt;BR&gt;
      -&lt;BR&gt;
      CT-6V&lt;BR&gt;
      CT-6X&lt;BR&gt;
      -&lt;BR&gt;
      -&lt;BR&gt;
      8038EKV&lt;BR&gt;
      -&lt;BR&gt;
      8038EKX&lt;BR&gt;
      -&lt;BR&gt;
      -&lt;BR&gt;
      8038EKP&lt;BR&gt;
      8038EKZ&lt;BR&gt;
      8038EKW&lt;BR&gt;
      -&lt;BR&gt;&lt;/FONT&gt;
    &lt;/TD&gt;
    &lt;TD BGCOLOR="#cccccc" ALIGN=CENTER&gt;&lt;FONT FACE=ARIAL SIZE=3&gt;
      -&lt;BR&gt;
      -&lt;BR&gt;
      -&lt;BR&gt;
      3321H&lt;BR&gt;
      3321P&lt;BR&gt;
      3321N&lt;BR&gt;
      1102H&lt;BR&gt;
      1102P&lt;BR&gt;
      1102T&lt;BR&gt;
      RVA0911V304A&lt;BR&gt;
      -&lt;BR&gt;
      RVA0911H413A&lt;BR&gt;
      RVG0707V100A&lt;BR&gt;
      RVA0607V(H)306A&lt;BR&gt;
      RVA1214H213A&lt;BR&gt;
      -&lt;BR&gt;
      -&lt;BR&gt;
      -&lt;BR&gt;
      -&lt;BR&gt;
      -&lt;BR&gt;
      -&lt;BR&gt;
      -&lt;BR&gt;
      -&lt;BR&gt;
      -&lt;BR&gt;
      3104B&lt;BR&gt;
      3104C&lt;BR&gt;
      3104F&lt;BR&gt;
      3104H&lt;BR&gt;
      -&lt;BR&gt;
      3104M&lt;BR&gt;
      3104P&lt;BR&gt;
      3104S&lt;BR&gt;
      3104W&lt;BR&gt;
      3104X&lt;BR&gt;&lt;/FONT&gt;
    &lt;/TD&gt;
    &lt;TD BGCOLOR="#cccccc" ALIGN=CENTER&gt;&lt;FONT FACE=ARIAL SIZE=3&gt;
      EVMQ0G&lt;BR&gt;
      EVMQIG&lt;BR&gt;
      EVMQ3G&lt;BR&gt;
      EVMS0G&lt;BR&gt;
      EVMQ0G&lt;BR&gt;
      EVMG0G&lt;BR&gt;
      -&lt;BR&gt;
      -&lt;BR&gt;
      -&lt;BR&gt;
      EVMK4GA00B&lt;BR&gt;
      EVM30GA00B&lt;BR&gt;
      EVMK0GA00B&lt;BR&gt;
      EVM38GA00B&lt;BR&gt;
      EVMB6&lt;BR&gt;
      EVLQ0&lt;BR&gt;
      -&lt;BR&gt;
      EVMMSG&lt;BR&gt;
      EVMMBG&lt;BR&gt;
      EVMMAG&lt;BR&gt;
      -&lt;BR&gt;
      -&lt;BR&gt;
      EVMMCS&lt;BR&gt;
      -&lt;BR&gt;
      -&lt;BR&gt;
      -&lt;BR&gt;
      -&lt;BR&gt;
      -&lt;BR&gt;
      EVMM1&lt;BR&gt;
      -&lt;BR&gt;
      -&lt;BR&gt;
      EVMM0&lt;BR&gt;
      -&lt;BR&gt;
      -&lt;BR&gt;
      EVMM3&lt;BR&gt;&lt;/FONT&gt;
    &lt;/TD&gt;
    &lt;TD BGCOLOR="#cccccc" ALIGN=CENTER&gt;&lt;FONT FACE=ARIAL SIZE=3&gt;
      -&lt;BR&gt;
      -&lt;BR&gt;
      -&lt;BR&gt;
      62-3-1&lt;BR&gt;
      62-1-2&lt;BR&gt;
      -&lt;BR&gt;
      -&lt;BR&gt;
      -&lt;BR&gt;
      -&lt;BR&gt;
      -&lt;BR&gt;
      -&lt;BR&gt;
      -&lt;BR&gt;
      -&lt;BR&gt;
      -&lt;BR&gt;
      -&lt;BR&gt;
      -&lt;BR&gt;
      67R&lt;BR&gt;
      -&lt;BR&gt;
      67P&lt;BR&gt;
      -&lt;BR&gt;
      -&lt;BR&gt;
      -&lt;BR&gt;
      -&lt;BR&gt;
      67X&lt;BR&gt;
      63V&lt;BR&gt;
      63S&lt;BR&gt;
      63M&lt;BR&gt;
      -&lt;BR&gt;
      -&lt;BR&gt;
      63H&lt;BR&gt;
      63P&lt;BR&gt;
      -&lt;BR&gt;
      -&lt;BR&gt;
      63X&lt;BR&gt;&lt;/FONT&gt;
    &lt;/TD&gt;
    &lt;TD BGCOLOR="#cccccc" ALIGN=CENTER&gt;&lt;FONT FACE=ARIAL SIZE=3&gt;
      -&lt;BR&gt;
      -&lt;BR&gt;
      -&lt;BR&gt;
      RJ/RJR50&lt;BR&gt;
      RJ/RJR50&lt;BR&gt;
      RJ/RJR50&lt;BR&gt;
      -&lt;BR&gt;
      -&lt;BR&gt;
      -&lt;BR&gt;
      -&lt;BR&gt;
      -&lt;BR&gt;
      -&lt;BR&gt;
      -&lt;BR&gt;
      -&lt;BR&gt;
      -&lt;BR&gt;
      -&lt;BR&gt;
      -&lt;BR&gt;
      -&lt;BR&gt;
      -&lt;BR&gt;
      -&lt;BR&gt;
      -&lt;BR&gt;
      -&lt;BR&gt;
      -&lt;BR&gt;
      -&lt;BR&gt;
      -&lt;BR&gt;
      -&lt;BR&gt;
      -&lt;BR&gt;
      -&lt;BR&gt;
      -&lt;BR&gt;
      -&lt;BR&gt;
      -&lt;BR&gt;
      -&lt;BR&gt;
      -&lt;BR&gt;
      -&lt;BR&gt;&lt;/FONT&gt;
    &lt;/TD&gt;
  &lt;/TR&gt;
&lt;/TABLE&gt;
&lt;P&gt;&amp;nbsp;&lt;P&gt;
&lt;TABLE BORDER=0 CELLSPACING=1 CELLPADDING=3&gt;
  &lt;TR&gt;
    &lt;TD COLSPAN=7&gt;
      &lt;FONT color="#0000FF" SIZE=4 FACE=ARIAL&gt;&lt;B&gt;SMD TRIM-POT CROSS REFERENCE&lt;/B&gt;&lt;/FONT&gt;
      &lt;P&gt;
      &lt;FONT SIZE=4 FACE=ARIAL&gt;&lt;B&gt;MULTI-TURN&lt;/B&gt;&lt;/FONT&gt;
    &lt;/TD&gt;
  &lt;/TR&gt;
  &lt;TR&gt;
    &lt;TD&gt;
      &lt;FONT SIZE=3 FACE=ARIAL&gt;&lt;B&gt;BOURNS&lt;/B&gt;&lt;/FONT&gt;
    &lt;/TD&gt;
    &lt;TD&gt;
      &lt;FONT SIZE=3 FACE=ARIAL&gt;&lt;B&gt;BI&amp;nbsp;TECH&lt;/B&gt;&lt;/FONT&gt;
    &lt;/TD&gt;
    &lt;TD&gt;
      &lt;FONT SIZE=3 FACE=ARIAL&gt;&lt;B&gt;DALE-VISHAY&lt;/B&gt;&lt;/FONT&gt;
    &lt;/TD&gt;
    &lt;TD&gt;
      &lt;FONT SIZE=3 FACE=ARIAL&gt;&lt;B&gt;PHILIPS/MEPCO&lt;/B&gt;&lt;/FONT&gt;
    &lt;/TD&gt;
    &lt;TD&gt;
      &lt;FONT SIZE=3 FACE=ARIAL&gt;&lt;B&gt;PANASONIC&lt;/B&gt;&lt;/FONT&gt;
    &lt;/TD&gt;
    &lt;TD&gt;
      &lt;FONT SIZE=3 FACE=ARIAL&gt;&lt;B&gt;TOCOS&lt;/B&gt;&lt;/FONT&gt;
    &lt;/TD&gt;
    &lt;TD&gt;
      &lt;FONT SIZE=3 FACE=ARIAL&gt;&lt;B&gt;AUX/KYOCERA&lt;/B&gt;&lt;/FONT&gt;
    &lt;/TD&gt;
  &lt;/TR&gt;
  &lt;TR&gt;
    &lt;TD BGCOLOR="#cccccc" ALIGN=CENTER&gt;&lt;FONT FACE=ARIAL SIZE=3&gt;
      3224G&lt;BR&gt;
      3224J&lt;BR&gt;
      3224W&lt;BR&gt;
      3269P&lt;BR&gt;
      3269W&lt;BR&gt;
      3269X&lt;BR&gt;&lt;/FONT&gt;
    &lt;/TD&gt;
    &lt;TD BGCOLOR="#cccccc" ALIGN=CENTER&gt;&lt;FONT FACE=ARIAL SIZE=3&gt;
      44G&lt;BR&gt;
      44J&lt;BR&gt;
      44W&lt;BR&gt;
      84P&lt;BR&gt;
      84W&lt;BR&gt;
      84X&lt;BR&gt;&lt;/FONT&gt;
    &lt;/TD&gt;
    &lt;TD BGCOLOR="#cccccc" ALIGN=CENTER&gt;&lt;FONT FACE=ARIAL SIZE=3&gt;
      -&lt;BR&gt;
      -&lt;BR&gt;
      -&lt;BR&gt;
      ST63Z&lt;BR&gt;
      ST63Y&lt;BR&gt;
      -&lt;BR&gt;&lt;/FONT&gt;
    &lt;/TD&gt;
    &lt;TD BGCOLOR="#cccccc" ALIGN=CENTER&gt;&lt;FONT FACE=ARIAL SIZE=3&gt;
      -&lt;BR&gt;
      -&lt;BR&gt;
      -&lt;BR&gt;
      ST5P&lt;BR&gt;
      ST5W&lt;BR&gt;
      ST5X&lt;BR&gt;&lt;/FONT&gt;
    &lt;/TD&gt;
    &lt;TD BGCOLOR="#cccccc" ALIGN=CENTER&gt;&lt;FONT FACE=ARIAL SIZE=3&gt;
      -&lt;BR&gt;
      -&lt;BR&gt;
      -&lt;BR&gt;
      -&lt;BR&gt;
      -&lt;BR&gt;
      -&lt;BR&gt;&lt;/FONT&gt;
    &lt;/TD&gt;
    &lt;TD BGCOLOR="#cccccc" ALIGN=CENTER&gt;&lt;FONT FACE=ARIAL SIZE=3&gt;
      -&lt;BR&gt;
      -&lt;BR&gt;
      -&lt;BR&gt;
      -&lt;BR&gt;
      -&lt;BR&gt;
      -&lt;BR&gt;&lt;/FONT&gt;
    &lt;/TD&gt;
    &lt;TD BGCOLOR="#cccccc" ALIGN=CENTER&gt;&lt;FONT FACE=ARIAL SIZE=3&gt;
      -&lt;BR&gt;
      -&lt;BR&gt;
      -&lt;BR&gt;
      -&lt;BR&gt;
      -&lt;BR&gt;
      -&lt;BR&gt;&lt;/FONT&gt;
    &lt;/TD&gt;
  &lt;/TR&gt;
  &lt;TR&gt;
    &lt;TD COLSPAN=7&gt;&amp;nbsp;
    &lt;/TD&gt;
  &lt;/TR&gt;
  &lt;TR&gt;
    &lt;TD COLSPAN=7&gt;
      &lt;FONT SIZE=4 FACE=ARIAL&gt;&lt;B&gt;SINGLE TURN&lt;/B&gt;&lt;/FONT&gt;
    &lt;/TD&gt;
  &lt;/TR&gt;
  &lt;TR&gt;
    &lt;TD&gt;
      &lt;FONT SIZE=3 FACE=ARIAL&gt;&lt;B&gt;BOURNS&lt;/B&gt;&lt;/FONT&gt;
    &lt;/TD&gt;
    &lt;TD&gt;
      &lt;FONT SIZE=3 FACE=ARIAL&gt;&lt;B&gt;BI&amp;nbsp;TECH&lt;/B&gt;&lt;/FONT&gt;
    &lt;/TD&gt;
    &lt;TD&gt;
      &lt;FONT SIZE=3 FACE=ARIAL&gt;&lt;B&gt;DALE-VISHAY&lt;/B&gt;&lt;/FONT&gt;
    &lt;/TD&gt;
    &lt;TD&gt;
      &lt;FONT SIZE=3 FACE=ARIAL&gt;&lt;B&gt;PHILIPS/MEPCO&lt;/B&gt;&lt;/FONT&gt;
    &lt;/TD&gt;
    &lt;TD&gt;
      &lt;FONT SIZE=3 FACE=ARIAL&gt;&lt;B&gt;PANASONIC&lt;/B&gt;&lt;/FONT&gt;
    &lt;/TD&gt;
    &lt;TD&gt;
      &lt;FONT SIZE=3 FACE=ARIAL&gt;&lt;B&gt;TOCOS&lt;/B&gt;&lt;/FONT&gt;
    &lt;/TD&gt;
    &lt;TD&gt;
      &lt;FONT SIZE=3 FACE=ARIAL&gt;&lt;B&gt;AUX/KYOCERA&lt;/B&gt;&lt;/FONT&gt;
    &lt;/TD&gt;
  &lt;/TR&gt;
  &lt;TR&gt;
    &lt;TD BGCOLOR="#cccccc" ALIGN=CENTER&gt;&lt;FONT FACE=ARIAL SIZE=3&gt;
      3314G&lt;BR&gt;
      3314J&lt;BR&gt;
      3364A/B&lt;BR&gt;
      3364C/D&lt;BR&gt;
      3364W/X&lt;BR&gt;
      3313G&lt;BR&gt;
      3313J&lt;BR&gt;&lt;/FONT&gt;
    &lt;/TD&gt;
    &lt;TD BGCOLOR="#cccccc" ALIGN=CENTER&gt;&lt;FONT FACE=ARIAL SIZE=3&gt;
      23B&lt;BR&gt;
      23A&lt;BR&gt;
      21X&lt;BR&gt;
      21W&lt;BR&gt;
      -&lt;BR&gt;
      22B&lt;BR&gt;
      22A&lt;BR&gt;&lt;/FONT&gt;
    &lt;/TD&gt;
    &lt;TD BGCOLOR="#cccccc" ALIGN=CENTER&gt;&lt;FONT FACE=ARIAL SIZE=3&gt;
      ST5YL/ST53YL&lt;BR&gt;
      ST5YJ/5T53YJ&lt;BR&gt;
      ST-23A&lt;BR&gt;
      ST-22B&lt;BR&gt;
      ST-22&lt;BR&gt;
      -&lt;BR&gt;
      -&lt;BR&gt;&lt;/FONT&gt;
    &lt;/TD&gt;
    &lt;TD BGCOLOR="#cccccc" ALIGN=CENTER&gt;&lt;FONT FACE=ARIAL SIZE=3&gt;
      ST-4B&lt;BR&gt;
      ST-4A&lt;BR&gt;
      -&lt;BR&gt;
      -&lt;BR&gt;
      -&lt;BR&gt;
      ST-3B&lt;BR&gt;
      ST-3A&lt;BR&gt;&lt;/FONT&gt;
    &lt;/TD&gt;
    &lt;TD BGCOLOR="#cccccc" ALIGN=CENTER&gt;&lt;FONT FACE=ARIAL SIZE=3&gt;
      -&lt;BR&gt;
      EVM-6YS&lt;BR&gt;
      EVM-1E&lt;BR&gt;
      EVM-1G&lt;BR&gt;
      EVM-1D&lt;BR&gt;
      -&lt;BR&gt;
      -&lt;BR&gt;&lt;/FONT&gt;
    &lt;/TD&gt;
    &lt;TD BGCOLOR="#cccccc" ALIGN=CENTER&gt;&lt;FONT FACE=ARIAL SIZE=3&gt;
      G4B&lt;BR&gt;
      G4A&lt;BR&gt;
      TR04-3S1&lt;BR&gt;
      TRG04-2S1&lt;BR&gt;
      -&lt;BR&gt;
      -&lt;BR&gt;
      -&lt;BR&gt;&lt;/FONT&gt;
    &lt;/TD&gt;
    &lt;TD BGCOLOR="#cccccc" ALIGN=CENTER&gt;&lt;FONT FACE=ARIAL SIZE=3&gt;
      -&lt;BR&gt;
      -&lt;BR&gt;
      DVR-43A&lt;BR&gt;
      CVR-42C&lt;BR&gt;
      CVR-42A/C&lt;BR&gt;
      -&lt;BR&gt;
      -&lt;BR&gt;&lt;/FONT&gt;
    &lt;/TD&gt;
  &lt;/TR&gt;
&lt;/TABLE&gt;
&lt;P&gt;
&lt;FONT SIZE=4 FACE=ARIAL&gt;&lt;B&gt;ALT =&amp;nbsp;ALTERNATE&lt;/B&gt;&lt;/FONT&gt;
&lt;P&gt;

&amp;nbsp;
&lt;P&gt;
&lt;/td&gt;
&lt;/tr&gt;
&lt;/table&gt;</description>
<packages>
<package name="R0805">
<description>&lt;b&gt;RESISTOR&lt;/b&gt;&lt;p&gt;</description>
<wire x1="-0.41" y1="0.635" x2="0.41" y2="0.635" width="0.1524" layer="51"/>
<wire x1="-0.41" y1="-0.635" x2="0.41" y2="-0.635" width="0.1524" layer="51"/>
<wire x1="-1.973" y1="0.983" x2="1.973" y2="0.983" width="0.0508" layer="39"/>
<wire x1="1.973" y1="0.983" x2="1.973" y2="-0.983" width="0.0508" layer="39"/>
<wire x1="1.973" y1="-0.983" x2="-1.973" y2="-0.983" width="0.0508" layer="39"/>
<wire x1="-1.973" y1="-0.983" x2="-1.973" y2="0.983" width="0.0508" layer="39"/>
<smd name="1" x="-0.95" y="0" dx="1.3" dy="1.5" layer="1"/>
<smd name="2" x="0.95" y="0" dx="1.3" dy="1.5" layer="1"/>
<text x="-0.635" y="1.27" size="1.27" layer="25">&gt;NAME</text>
<text x="-0.635" y="-2.54" size="1.27" layer="27">&gt;VALUE</text>
<rectangle x1="0.4064" y1="-0.6985" x2="1.0564" y2="0.7015" layer="51"/>
<rectangle x1="-1.0668" y1="-0.6985" x2="-0.4168" y2="0.7015" layer="51"/>
<rectangle x1="-0.1999" y1="-0.5001" x2="0.1999" y2="0.5001" layer="35"/>
</package>
</packages>
</library>
<library name="adafruit">
<packages>
<package name="CHIPLED_0805">
<description>&lt;b&gt;CHIPLED&lt;/b&gt;&lt;p&gt;
Source: http://www.osram.convergy.de/ ... LG_R971.pdf</description>
<wire x1="-0.35" y1="1" x2="0.35" y2="1" width="0.1016" layer="51" curve="180" cap="flat"/>
<wire x1="-0.35" y1="-1" x2="0.35" y2="-1" width="0.1016" layer="51" curve="-180" cap="flat"/>
<wire x1="0.575" y1="0.525" x2="0.575" y2="-0.525" width="0.1016" layer="51"/>
<wire x1="-0.575" y1="-0.5" x2="-0.575" y2="0.925" width="0.1016" layer="51"/>
<circle x="-0.45" y="0.85" radius="0.103" width="0.1016" layer="51"/>
<smd name="C" x="0" y="1.05" dx="1.2" dy="1.2" layer="1"/>
<smd name="A" x="0" y="-1.05" dx="1.2" dy="1.2" layer="1"/>
<text x="-1.27" y="-1.27" size="1.27" layer="25" rot="R90">&gt;NAME</text>
<text x="2.54" y="-1.27" size="1.27" layer="27" rot="R90">&gt;VALUE</text>
<rectangle x1="0.3" y1="0.5" x2="0.625" y2="1" layer="51"/>
<rectangle x1="-0.325" y1="0.5" x2="-0.175" y2="0.75" layer="51"/>
<rectangle x1="0.175" y1="0.5" x2="0.325" y2="0.75" layer="51"/>
<rectangle x1="-0.2" y1="0.5" x2="0.2" y2="0.675" layer="51"/>
<rectangle x1="0.3" y1="-1" x2="0.625" y2="-0.5" layer="51"/>
<rectangle x1="-0.625" y1="-1" x2="-0.3" y2="-0.5" layer="51"/>
<rectangle x1="0.175" y1="-0.75" x2="0.325" y2="-0.5" layer="51"/>
<rectangle x1="-0.325" y1="-0.75" x2="-0.175" y2="-0.5" layer="51"/>
<rectangle x1="-0.2" y1="-0.675" x2="0.2" y2="-0.5" layer="51"/>
<rectangle x1="-0.1" y1="0" x2="0.1" y2="0.2" layer="21"/>
<rectangle x1="-0.6" y1="0.5" x2="-0.3" y2="0.8" layer="51"/>
<rectangle x1="-0.625" y1="0.925" x2="-0.4" y2="1" layer="51"/>
</package>
</packages>
</library>
<library name="testpad">
<description>&lt;b&gt;Test Pins/Pads&lt;/b&gt;&lt;p&gt;
Cream on SMD OFF.&lt;br&gt;
new: Attribute TP_SIGNAL_NAME&lt;br&gt;
&lt;author&gt;Created by librarian@cadsoft.de&lt;/author&gt;</description>
<packages>
<package name="TP11R">
<description>&lt;b&gt;TEST PAD&lt;/b&gt;</description>
<smd name="TP" x="0" y="0" dx="1.1" dy="1.1" layer="1" roundness="100" cream="no"/>
<text x="-0.5499" y="0.5999" size="1.27" layer="25">&gt;NAME</text>
<text x="-0.508" y="-0.508" size="0.0254" layer="27">&gt;VALUE</text>
<text x="0" y="-1.905" size="1" layer="37">&gt;TP_SIGNAL_NAME</text>
<smd name="P$1" x="0.381" y="0" dx="1.27" dy="0.635" layer="1" rot="R90"/>
<smd name="P$2" x="1.016" y="0" dx="1.27" dy="0.635" layer="1" rot="R90"/>
<smd name="P$3" x="-0.254" y="0" dx="1.27" dy="0.635" layer="1" rot="R90"/>
<smd name="P$4" x="-0.889" y="0" dx="1.27" dy="0.635" layer="1" rot="R90"/>
<smd name="P$5" x="-1.524" y="0" dx="1.27" dy="0.635" layer="1" rot="R90"/>
<smd name="P$6" x="1.6129" y="0" dx="1.27" dy="0.635" layer="1" rot="R90"/>
<smd name="P$7" x="2.2098" y="0" dx="1.27" dy="0.635" layer="1" rot="R90"/>
<smd name="P$8" x="-2.1463" y="0" dx="1.27" dy="0.635" layer="1" rot="R90"/>
<smd name="P$9" x="-2.7686" y="0" dx="1.27" dy="0.635" layer="1" rot="R90"/>
</package>
<package name="B2,54">
<description>&lt;b&gt;TEST PAD&lt;/b&gt;</description>
<wire x1="0.254" y1="0" x2="1.016" y2="0" width="0.0024" layer="37"/>
<wire x1="0" y1="-0.635" x2="0" y2="0.635" width="0.0024" layer="37"/>
<circle x="0" y="0" radius="0.635" width="0.254" layer="37"/>
<smd name="TP" x="0" y="0" dx="2.54" dy="2.54" layer="16" roundness="100" rot="R180" cream="no"/>
<text x="-1.27" y="1.651" size="1.27" layer="26" ratio="10">&gt;NAME</text>
<text x="-1.27" y="-1.397" size="0.0254" layer="27">&gt;VALUE</text>
<text x="-1.27" y="-3.175" size="1" layer="38">&gt;TP_SIGNAL_NAME</text>
<smd name="P$1" x="0" y="0" dx="3.175" dy="3.175" layer="16" roundness="100" rot="R90"/>
</package>
</packages>
</library>
<library name="VCNL4010-GS08">
<packages>
<package name="XDCR_VCNL4010-GS08">
<wire x1="-1.975" y1="1.975" x2="-1.975" y2="-1.975" width="0.127" layer="51"/>
<wire x1="-1.975" y1="-1.975" x2="1.975" y2="-1.975" width="0.127" layer="51"/>
<wire x1="1.975" y1="-1.975" x2="1.975" y2="1.975" width="0.127" layer="51"/>
<wire x1="1.975" y1="1.975" x2="-1.975" y2="1.975" width="0.127" layer="51"/>
<wire x1="-1.98" y1="1.78" x2="-1.98" y2="1.98" width="0.127" layer="21"/>
<wire x1="-1.98" y1="1.98" x2="-0.54" y2="1.98" width="0.127" layer="21"/>
<wire x1="0.17" y1="1.97" x2="1.98" y2="1.97" width="0.127" layer="21"/>
<wire x1="1.98" y1="1.97" x2="1.98" y2="1.79" width="0.127" layer="21"/>
<wire x1="-1.97" y1="-1.77" x2="-1.97" y2="-1.97" width="0.127" layer="21"/>
<wire x1="-1.97" y1="-1.97" x2="-1.14" y2="-1.97" width="0.127" layer="21"/>
<wire x1="1.97" y1="-1.76" x2="1.97" y2="-1.98" width="0.127" layer="21"/>
<wire x1="1.97" y1="-1.98" x2="0.36" y2="-1.98" width="0.127" layer="21"/>
<circle x="-2.59" y="1.52" radius="0.164009375" width="0.3048" layer="21"/>
<circle x="-2.59" y="1.51" radius="0.031621875" width="0.127" layer="21"/>
<text x="-3.06" y="2.2" size="1.27" layer="25">&gt;NAME</text>
<text x="-3.25" y="-3.58" size="1.27" layer="27">&gt;VALUE</text>
<wire x1="-2.4" y1="2.4" x2="2.4" y2="2.4" width="0.127" layer="39"/>
<wire x1="2.4" y1="2.4" x2="2.4" y2="-2.4" width="0.127" layer="39"/>
<wire x1="2.4" y1="-2.4" x2="-2.4" y2="-2.4" width="0.127" layer="39"/>
<wire x1="-2.4" y1="-2.4" x2="-2.4" y2="2.4" width="0.127" layer="39"/>
<smd name="1" x="-1.7725" y="1.5" dx="0.805" dy="0.35" layer="1"/>
<smd name="2" x="-1.7725" y="0.75" dx="0.805" dy="0.35" layer="1"/>
<smd name="3" x="-1.7725" y="0" dx="0.805" dy="0.35" layer="1"/>
<smd name="4" x="-1.7725" y="-0.75" dx="0.805" dy="0.35" layer="1"/>
<smd name="5" x="-1.7725" y="-1.5" dx="0.805" dy="0.35" layer="1"/>
<smd name="6" x="-0.8" y="-1.7725" dx="0.805" dy="0.4" layer="1" rot="R90"/>
<smd name="7" x="1.7725" y="-1.5" dx="0.805" dy="0.35" layer="1" rot="R180"/>
<smd name="8" x="1.7725" y="-0.75" dx="0.805" dy="0.35" layer="1" rot="R180"/>
<smd name="9" x="1.7725" y="0" dx="0.805" dy="0.35" layer="1" rot="R180"/>
<smd name="10" x="1.7725" y="0.75" dx="0.805" dy="0.35" layer="1" rot="R180"/>
<smd name="11" x="1.7725" y="1.5" dx="0.805" dy="0.35" layer="1" rot="R180"/>
<smd name="12" x="-0.175" y="1.7725" dx="0.805" dy="0.4" layer="1" rot="R270"/>
<smd name="13" x="0" y="-1.7725" dx="0.805" dy="0.4" layer="1" rot="R90"/>
</package>
</packages>
</library>
<library name="Xevelabs">
<description>*****TODO:*****&lt;p&gt;
- L&lt;p&gt;
- C-POLARIZED&lt;p&gt;
- USB-STANDARD&lt;p&gt;
- USB-MINI/MICRO&lt;p&gt;</description>
<packages>
<package name="DYNAMIXEL_3POS_RIGHT">
<wire x1="6.6" y1="-7.5" x2="6.6" y2="0.9" width="0.127" layer="21"/>
<wire x1="6.6" y1="0.9" x2="6.6" y2="2.5" width="0.127" layer="21"/>
<wire x1="-1.5" y1="-7.5" x2="6.6" y2="-7.5" width="0.127" layer="21"/>
<wire x1="-1.5" y1="2.5" x2="5" y2="2.5" width="0.127" layer="21"/>
<wire x1="5" y1="2.5" x2="6.6" y2="2.5" width="0.127" layer="21"/>
<wire x1="-1.5" y1="2.5" x2="-1.5" y2="0.6" width="0.127" layer="21"/>
<wire x1="-1.5" y1="-0.6" x2="-1.5" y2="-1.9" width="0.127" layer="21"/>
<wire x1="-1.5" y1="-3.1" x2="-1.5" y2="-4.4" width="0.127" layer="21"/>
<wire x1="-1.5" y1="-5.6" x2="-1.5" y2="-7.5" width="0.127" layer="21"/>
<wire x1="-1.1" y1="0.5" x2="-1.5" y2="0.6" width="0.127" layer="21"/>
<wire x1="-1.1" y1="-0.5" x2="-1.5" y2="-0.6" width="0.127" layer="21"/>
<wire x1="-1.1" y1="-2" x2="-1.5" y2="-1.9" width="0.127" layer="21"/>
<wire x1="-1.1" y1="-3" x2="-1.5" y2="-3.1" width="0.127" layer="21"/>
<wire x1="-1.1" y1="-4.5" x2="-1.5" y2="-4.4" width="0.127" layer="21"/>
<wire x1="-1.1" y1="-5.5" x2="-1.5" y2="-5.6" width="0.127" layer="21"/>
<wire x1="5" y1="2.5" x2="6.6" y2="0.9" width="0.127" layer="21"/>
<pad name="GND" x="0" y="0" drill="0.8" diameter="1.6764" shape="square"/>
<pad name="VBUS" x="0" y="-2.5" drill="0.8" diameter="1.6764"/>
<pad name="DATA" x="0" y="-5" drill="0.8" diameter="1.6764"/>
<wire x1="10.5" y1="2.5" x2="10.5" y2="1.1" width="0.127" layer="51"/>
<wire x1="10.5" y1="1.1" x2="10.5" y2="-1.1" width="0.127" layer="51"/>
<wire x1="10.5" y1="-1.1" x2="10.5" y2="-1.5" width="0.127" layer="51"/>
<wire x1="10.5" y1="-1.5" x2="10.5" y2="-3.5" width="0.127" layer="51"/>
<wire x1="10.5" y1="-3.5" x2="10.5" y2="-3.9" width="0.127" layer="51"/>
<wire x1="10.5" y1="-3.9" x2="10.5" y2="-6.1" width="0.127" layer="51"/>
<wire x1="10.5" y1="-6.1" x2="10.5" y2="-7.5" width="0.127" layer="51"/>
<wire x1="10.5" y1="-7.5" x2="9.7" y2="-7.5" width="0.127" layer="51"/>
<wire x1="9.7" y1="-7.5" x2="9.7" y2="-6.6" width="0.127" layer="51"/>
<wire x1="9.7" y1="-6.6" x2="9.7" y2="1.6" width="0.127" layer="51"/>
<wire x1="9.7" y1="1.6" x2="9.7" y2="2.5" width="0.127" layer="51"/>
<wire x1="9.7" y1="2.5" x2="10.5" y2="2.5" width="0.127" layer="51"/>
<wire x1="9.7" y1="1.6" x2="6.7" y2="1.6" width="0.127" layer="51"/>
<wire x1="9.7" y1="-6.6" x2="6.7" y2="-6.6" width="0.127" layer="51"/>
<wire x1="10.5" y1="2.5" x2="11.5" y2="2.5" width="0.127" layer="51"/>
<wire x1="11.5" y1="2.5" x2="11.5" y2="1.1" width="0.127" layer="51"/>
<wire x1="11.5" y1="1.1" x2="10.5" y2="1.1" width="0.127" layer="51"/>
<wire x1="10.5" y1="-7.5" x2="11.5" y2="-7.5" width="0.127" layer="51"/>
<wire x1="11.5" y1="-7.5" x2="11.5" y2="-6.1" width="0.127" layer="51"/>
<wire x1="11.5" y1="-6.1" x2="10.5" y2="-6.1" width="0.127" layer="51"/>
<wire x1="10.5" y1="-1.5" x2="11.5" y2="-1.5" width="0.127" layer="51"/>
<wire x1="11.5" y1="-1.5" x2="11.5" y2="-1.1" width="0.127" layer="51"/>
<wire x1="11.5" y1="-1.1" x2="10.5" y2="-1.1" width="0.127" layer="51"/>
<wire x1="10.5" y1="-3.5" x2="11.6" y2="-3.5" width="0.127" layer="51"/>
<wire x1="11.6" y1="-3.5" x2="11.6" y2="-3.9" width="0.127" layer="51"/>
<wire x1="11.6" y1="-3.9" x2="10.5" y2="-3.9" width="0.127" layer="51"/>
</package>
</packages>
</library>
</libraries>
<attributes>
</attributes>
<variantdefs>
</variantdefs>
<classes>
<class number="0" name="default" width="0" drill="0">
</class>
</classes>
<designrules name="default">
<description language="de">&lt;b&gt;EAGLE Design Rules&lt;/b&gt;
&lt;p&gt;
Die Standard-Design-Rules sind so gewählt, dass sie für 
die meisten Anwendungen passen. Sollte ihre Platine 
besondere Anforderungen haben, treffen Sie die erforderlichen
Einstellungen hier und speichern die Design Rules unter 
einem neuen Namen ab.</description>
<description language="en">&lt;b&gt;EAGLE Design Rules&lt;/b&gt;
&lt;p&gt;
The default Design Rules have been set to cover
a wide range of applications. Your particular design
may have different requirements, so please make the
necessary adjustments and save your customized
design rules under a new name.</description>
<param name="layerSetup" value="(1*16)"/>
<param name="mtCopper" value="0.035mm 0.035mm 0.035mm 0.035mm 0.035mm 0.035mm 0.035mm 0.035mm 0.035mm 0.035mm 0.035mm 0.035mm 0.035mm 0.035mm 0.035mm 0.035mm"/>
<param name="mtIsolate" value="1.5mm 0.15mm 0.2mm 0.15mm 0.2mm 0.15mm 0.2mm 0.15mm 0.2mm 0.15mm 0.2mm 0.15mm 0.2mm 0.15mm 0.2mm"/>
<param name="mdWireWire" value="8mil"/>
<param name="mdWirePad" value="8mil"/>
<param name="mdWireVia" value="8mil"/>
<param name="mdPadPad" value="8mil"/>
<param name="mdPadVia" value="8mil"/>
<param name="mdViaVia" value="8mil"/>
<param name="mdSmdPad" value="8mil"/>
<param name="mdSmdVia" value="8mil"/>
<param name="mdSmdSmd" value="8mil"/>
<param name="mdViaViaSameLayer" value="8mil"/>
<param name="mnLayersViaInSmd" value="2"/>
<param name="mdCopperDimension" value="40mil"/>
<param name="mdDrill" value="8mil"/>
<param name="mdSmdStop" value="0mil"/>
<param name="msWidth" value="10mil"/>
<param name="msDrill" value="24mil"/>
<param name="msMicroVia" value="9.99mm"/>
<param name="msBlindViaRatio" value="0.5"/>
<param name="rvPadTop" value="0.25"/>
<param name="rvPadInner" value="0.25"/>
<param name="rvPadBottom" value="0.25"/>
<param name="rvViaOuter" value="0.25"/>
<param name="rvViaInner" value="0.25"/>
<param name="rvMicroViaOuter" value="0.25"/>
<param name="rvMicroViaInner" value="0.25"/>
<param name="rlMinPadTop" value="10mil"/>
<param name="rlMaxPadTop" value="20mil"/>
<param name="rlMinPadInner" value="10mil"/>
<param name="rlMaxPadInner" value="20mil"/>
<param name="rlMinPadBottom" value="10mil"/>
<param name="rlMaxPadBottom" value="20mil"/>
<param name="rlMinViaOuter" value="8mil"/>
<param name="rlMaxViaOuter" value="20mil"/>
<param name="rlMinViaInner" value="8mil"/>
<param name="rlMaxViaInner" value="20mil"/>
<param name="rlMinMicroViaOuter" value="4mil"/>
<param name="rlMaxMicroViaOuter" value="20mil"/>
<param name="rlMinMicroViaInner" value="4mil"/>
<param name="rlMaxMicroViaInner" value="20mil"/>
<param name="psTop" value="-1"/>
<param name="psBottom" value="-1"/>
<param name="psFirst" value="-1"/>
<param name="psElongationLong" value="100"/>
<param name="psElongationOffset" value="100"/>
<param name="mvStopFrame" value="1"/>
<param name="mvCreamFrame" value="0"/>
<param name="mlMinStopFrame" value="4mil"/>
<param name="mlMaxStopFrame" value="4mil"/>
<param name="mlMinCreamFrame" value="0mil"/>
<param name="mlMaxCreamFrame" value="0mil"/>
<param name="mlViaStopLimit" value="0mil"/>
<param name="srRoundness" value="0"/>
<param name="srMinRoundness" value="0mil"/>
<param name="srMaxRoundness" value="0mil"/>
<param name="slThermalIsolate" value="10mil"/>
<param name="slThermalsForVias" value="0"/>
<param name="dpMaxLengthDifference" value="10mm"/>
<param name="dpGapFactor" value="2.5"/>
<param name="checkGrid" value="0"/>
<param name="checkAngle" value="0"/>
<param name="checkFont" value="1"/>
<param name="checkRestrict" value="1"/>
<param name="useDiameter" value="13"/>
<param name="maxErrors" value="50"/>
</designrules>
<autorouter>
<pass name="Default">
<param name="RoutingGrid" value="12.5mil"/>
<param name="AutoGrid" value="1"/>
<param name="Efforts" value="0"/>
<param name="TopRouterVariant" value="1"/>
<param name="tpViaShape" value="round"/>
<param name="PrefDir.1" value="-"/>
<param name="PrefDir.2" value="0"/>
<param name="PrefDir.3" value="0"/>
<param name="PrefDir.4" value="0"/>
<param name="PrefDir.5" value="0"/>
<param name="PrefDir.6" value="0"/>
<param name="PrefDir.7" value="0"/>
<param name="PrefDir.8" value="0"/>
<param name="PrefDir.9" value="0"/>
<param name="PrefDir.10" value="0"/>
<param name="PrefDir.11" value="0"/>
<param name="PrefDir.12" value="0"/>
<param name="PrefDir.13" value="0"/>
<param name="PrefDir.14" value="0"/>
<param name="PrefDir.15" value="0"/>
<param name="PrefDir.16" value="|"/>
<param name="cfVia" value="8"/>
<param name="cfNonPref" value="5"/>
<param name="cfChangeDir" value="2"/>
<param name="cfOrthStep" value="2"/>
<param name="cfDiagStep" value="3"/>
<param name="cfExtdStep" value="0"/>
<param name="cfBonusStep" value="1"/>
<param name="cfMalusStep" value="1"/>
<param name="cfPadImpact" value="4"/>
<param name="cfSmdImpact" value="4"/>
<param name="cfBusImpact" value="0"/>
<param name="cfHugging" value="3"/>
<param name="cfAvoid" value="4"/>
<param name="cfPolygon" value="10"/>
<param name="cfBase.1" value="0"/>
<param name="cfBase.2" value="1"/>
<param name="cfBase.3" value="1"/>
<param name="cfBase.4" value="1"/>
<param name="cfBase.5" value="1"/>
<param name="cfBase.6" value="1"/>
<param name="cfBase.7" value="1"/>
<param name="cfBase.8" value="1"/>
<param name="cfBase.9" value="1"/>
<param name="cfBase.10" value="1"/>
<param name="cfBase.11" value="1"/>
<param name="cfBase.12" value="1"/>
<param name="cfBase.13" value="1"/>
<param name="cfBase.14" value="1"/>
<param name="cfBase.15" value="1"/>
<param name="cfBase.16" value="0"/>
<param name="mnVias" value="20"/>
<param name="mnSegments" value="9999"/>
<param name="mnExtdSteps" value="9999"/>
<param name="mnRipupLevel" value="10"/>
<param name="mnRipupSteps" value="100"/>
<param name="mnRipupTotal" value="100"/>
</pass>
<pass name="Follow-me" refer="Default" active="yes">
</pass>
<pass name="Busses" refer="Default" active="yes">
<param name="cfNonPref" value="4"/>
<param name="cfBusImpact" value="4"/>
<param name="cfHugging" value="0"/>
<param name="mnVias" value="0"/>
</pass>
<pass name="Route" refer="Default" active="yes">
</pass>
<pass name="Optimize1" refer="Default" active="yes">
<param name="cfVia" value="99"/>
<param name="cfExtdStep" value="10"/>
<param name="cfHugging" value="1"/>
<param name="mnExtdSteps" value="1"/>
<param name="mnRipupLevel" value="0"/>
</pass>
<pass name="Optimize2" refer="Optimize1" active="yes">
<param name="cfNonPref" value="0"/>
<param name="cfChangeDir" value="6"/>
<param name="cfExtdStep" value="0"/>
<param name="cfBonusStep" value="2"/>
<param name="cfMalusStep" value="2"/>
<param name="cfPadImpact" value="2"/>
<param name="cfSmdImpact" value="2"/>
<param name="cfHugging" value="0"/>
</pass>
<pass name="Optimize3" refer="Optimize2" active="yes">
<param name="cfChangeDir" value="8"/>
<param name="cfPadImpact" value="0"/>
<param name="cfSmdImpact" value="0"/>
</pass>
<pass name="Optimize4" refer="Optimize3" active="yes">
<param name="cfChangeDir" value="25"/>
</pass>
</autorouter>
<elements>
<element name="LED3" library="adafruit" package="CHIPLED_0805" value="" x="31.577" y="32.867" rot="MR0"/>
<element name="R21" library="rcl" package="R0805" value="220" x="31.6532" y="32.74" rot="R270"/>
<element name="3V3_C3" library="testpad" package="TP11R" value="PTR1TP11R" x="61.2442" y="47.6498">
<attribute name="TP_SIGNAL_NAME" value="" x="61.2442" y="51.0788" size="1.778" layer="27" display="off"/>
</element>
<element name="GND_C3" library="testpad" package="TP11R" value="PTR1TP11R" x="59.6346" y="57.7284">
<attribute name="TP_SIGNAL_NAME" value="" x="59.6346" y="54.2994" size="1.778" layer="27" display="off"/>
</element>
<element name="L_C2_C3" library="testpad" package="TP11R" value="PTR1TP11R" x="61.3204" y="31.6732">
<attribute name="TP_SIGNAL_NAME" value="" x="61.3204" y="31.6732" size="1.778" layer="27" display="off"/>
</element>
<element name="MECH_LINK_7" library="testpad" package="TP11R" value="PTR1TP11R" x="61.2442" y="42.2396">
<attribute name="TP_SIGNAL_NAME" value="" x="61.2442" y="45.6686" size="1.778" layer="27" display="off"/>
</element>
<element name="MECH_LINK_11" library="testpad" package="TP11R" value="PTR1TP11R" x="61.2188" y="17.627">
<attribute name="TP_SIGNAL_NAME" value="" x="61.2188" y="3.911" size="1.778" layer="27" display="off"/>
</element>
<element name="MECH_LINK_8" library="testpad" package="TP11R" value="PTR1TP11R" x="61.1934" y="34.3402">
<attribute name="TP_SIGNAL_NAME" value="" x="61.1934" y="27.4822" size="1.778" layer="27" display="off"/>
</element>
<element name="MECH_LINK_9" library="testpad" package="TP11R" value="PTR1TP11R" x="61.2188" y="26.2376">
<attribute name="TP_SIGNAL_NAME" value="" x="61.2188" y="9.0926" size="1.778" layer="27" display="off"/>
</element>
<element name="SCL_S3_C3_C2" library="testpad" package="TP11R" value="PTR1TP11R" x="61.2188" y="23.4436">
<attribute name="TP_SIGNAL_NAME" value="" x="61.2188" y="20.0146" size="1.778" layer="27" display="off"/>
</element>
<element name="VCC_2_C3" library="testpad" package="B2,54" value="TPB2,54" x="46.507" y="20.806">
<attribute name="TP_SIGNAL_NAME" value="" x="46.507" y="47.476" size="1.778" layer="27" display="off"/>
</element>
<element name="VCC_1_C3" library="testpad" package="B2,54" value="TPB2,54" x="22.503" y="20.801">
<attribute name="TP_SIGNAL_NAME" value="" x="3.199" y="36.803" size="1.778" layer="27" display="off"/>
</element>
<element name="VCC_3_C3" library="testpad" package="B2,54" value="TPB2,54" x="46.376" y="44.85">
<attribute name="TP_SIGNAL_NAME" value="" x="36.978" y="60.852" size="1.778" layer="27" display="off"/>
</element>
<element name="VCC_4_C3" library="testpad" package="B2,54" value="TPB2,54" x="22.441" y="44.73">
<attribute name="TP_SIGNAL_NAME" value="" x="3.645" y="55.398" size="1.778" layer="27" display="off"/>
</element>
<element name="GND_2_C3" library="testpad" package="B2,54" value="TPB2,54" x="42.488" y="24.728">
<attribute name="TP_SIGNAL_NAME" value="" x="22.422" y="15.965" size="1.778" layer="27" display="off"/>
</element>
<element name="GND_1_C3" library="testpad" package="B2,54" value="TPB2,54" x="26.58" y="24.74">
<attribute name="TP_SIGNAL_NAME" value="" x="16.166" y="10.643" size="1.778" layer="27" display="off"/>
</element>
<element name="GND_3_C3" library="testpad" package="B2,54" value="TPB2,54" x="42.576" y="40.722">
<attribute name="TP_SIGNAL_NAME" value="" x="42.576" y="26.625" size="1.778" layer="27" display="off"/>
</element>
<element name="GND_4_C3" library="testpad" package="B2,54" value="TPB2,54" x="26.445" y="40.72">
<attribute name="TP_SIGNAL_NAME" value="" x="16.793" y="21.289" size="1.778" layer="27" display="off"/>
</element>
<element name="CANL_2_C3" library="testpad" package="B2,54" value="TPB2,54" x="54.509" y="12.713">
<attribute name="TP_SIGNAL_NAME" value="" x="44.095" y="-22.72" size="1.778" layer="27" display="off"/>
</element>
<element name="CANL_1_C3" library="testpad" package="B2,54" value="TPB2,54" x="14.448" y="12.814">
<attribute name="TP_SIGNAL_NAME" value="" x="14.448" y="-27.953" size="1.778" layer="27" display="off"/>
</element>
<element name="CANL_3_C3" library="testpad" package="B2,54" value="TPB2,54" x="54.44" y="52.813">
<attribute name="TP_SIGNAL_NAME" value="" x="33.612" y="6.712" size="1.778" layer="27" display="off"/>
</element>
<element name="CANL_4_C3" library="testpad" package="B2,54" value="TPB2,54" x="14.545" y="52.781">
<attribute name="TP_SIGNAL_NAME" value="" x="14.545" y="6.68" size="1.778" layer="27" display="off"/>
</element>
<element name="CANL_C3" library="testpad" package="TP11R" value="PTR1TP11R" x="59.4906" y="8.3638">
<attribute name="TP_SIGNAL_NAME" value="" x="40.0596" y="-27.0692" size="1.778" layer="27" display="off"/>
</element>
<element name="CANH_2_C3" library="testpad" package="B2,54" value="TPB2,54" x="50.47" y="16.733">
<attribute name="TP_SIGNAL_NAME" value="" x="39.802" y="-54.133" size="1.778" layer="27" display="off"/>
</element>
<element name="CANH_1_C3" library="testpad" package="B2,54" value="TPB2,54" x="18.582" y="16.732">
<attribute name="TP_SIGNAL_NAME" value="" x="18.582" y="-59.468" size="1.778" layer="27" display="off"/>
</element>
<element name="CANH_3_C3" library="testpad" package="B2,54" value="TPB2,54" x="50.521" y="48.715">
<attribute name="TP_SIGNAL_NAME" value="" x="50.521" y="-27.485" size="1.778" layer="27" display="off"/>
</element>
<element name="CANH_4_C3" library="testpad" package="B2,54" value="TPB2,54" x="18.454" y="48.74">
<attribute name="TP_SIGNAL_NAME" value="" x="7.786" y="-32.794" size="1.778" layer="27" display="off"/>
</element>
<element name="CANH_C3" library="testpad" package="TP11R" value="PTR1TP11R" x="59.5336" y="12.208">
<attribute name="TP_SIGNAL_NAME" value="" x="49.7546" y="-47.99" size="1.778" layer="27" display="off"/>
</element>
<element name="MECH_LINK_6" library="testpad" package="TP11R" value="PTR1TP11R" x="61.2696" y="44.8304">
<attribute name="TP_SIGNAL_NAME" value="" x="61.2696" y="44.8304" size="1.778" layer="27" display="off"/>
</element>
<element name="R7" library="rcl" package="R0805" value="220" x="35.4632" y="32.7654" rot="R90"/>
<element name="VCC_C3" library="testpad" package="TP11R" value="PTR1TP11R" x="59.6088" y="54.88">
<attribute name="TP_SIGNAL_NAME" value="" x="59.6088" y="54.88" size="1.778" layer="27" display="off"/>
</element>
<element name="U4" library="VCNL4010-GS08" package="XDCR_VCNL4010-GS08" value="VCNL4010-GS08" x="35.4378" y="32.7654" rot="MR270"/>
<element name="SDA_S3_C3_C4" library="testpad" package="TP11R" value="PTR1TP11R" x="61.1934" y="20.6496">
<attribute name="TP_SIGNAL_NAME" value="" x="61.1934" y="13.9948" size="1.778" layer="27" display="off"/>
</element>
<element name="R26" library="rcl" package="R0805" value="4.7k" x="35.923" y="12.475" rot="R270"/>
<element name="R27" library="rcl" package="R0805" value="4.7k" x="32.2014" y="12.4676" rot="R270"/>
<element name="DXL1" library="Xevelabs" package="DYNAMIXEL_3POS_RIGHT" value="DYNAMIXEL_3POS-R" x="9.832" y="14.414"/>
<element name="MECH_LINK_1" library="testpad" package="TP11R" value="PTR1TP11R" x="61.2442" y="39.471">
<attribute name="TP_SIGNAL_NAME" value="" x="61.2442" y="39.471" size="1.778" layer="27" display="off"/>
</element>
<element name="MECH_LINK_2" library="testpad" package="TP11R" value="PTR1TP11R" x="61.2442" y="36.7024">
<attribute name="TP_SIGNAL_NAME" value="" x="61.2442" y="36.7024" size="1.778" layer="27" display="off"/>
</element>
<element name="MECH_LINK_3" library="testpad" package="TP11R" value="PTR1TP11R" x="61.2442" y="28.9046">
<attribute name="TP_SIGNAL_NAME" value="" x="61.2442" y="28.9046" size="1.778" layer="27" display="off"/>
</element>
</elements>
<signals>
<signal name="N$16">
<contactref element="LED3" pad="C"/>
<contactref element="R21" pad="1"/>
<wire x1="31.6532" y1="33.69" x2="29.6568" y2="33.69" width="0.4064" layer="1"/>
<wire x1="29.6568" y1="33.69" x2="29.6212" y2="33.6798" width="0.4064" layer="1"/>
<via x="29.6212" y="33.6798" extent="1-16" drill="0.6" shape="square"/>
<wire x1="29.6212" y1="33.6798" x2="31.3398" y2="33.6798" width="0.4064" layer="16"/>
<wire x1="31.3398" y1="33.6798" x2="31.577" y2="33.917" width="0.4064" layer="16"/>
</signal>
<signal name="GND3">
<contactref element="R21" pad="2"/>
<contactref element="GND_C3" pad="TP"/>
<contactref element="GND_1_C3" pad="TP"/>
<contactref element="GND_2_C3" pad="TP"/>
<contactref element="GND_3_C3" pad="TP"/>
<contactref element="GND_4_C3" pad="TP"/>
<wire x1="31.6786" y1="31.8154" x2="31.6532" y2="31.79" width="0.4064" layer="1"/>
<polygon width="0.4064" layer="16" isolate="0.762">
<vertex x="6.7654" y="5.3492"/>
<vertex x="60.2838" y="5.1816"/>
<vertex x="59.941" y="15.422"/>
<vertex x="62.5518" y="15.6524"/>
<vertex x="62.6542" y="50.472"/>
<vertex x="60.521" y="50.505"/>
<vertex x="60.175" y="60.407"/>
<vertex x="6.6344" y="60.6038"/>
</polygon>
<contactref element="U4" pad="13"/>
<contactref element="U4" pad="12"/>
<contactref element="R7" pad="1"/>
<wire x1="31.6786" y1="31.8154" x2="35.4632" y2="31.8154" width="0.4064" layer="1"/>
<wire x1="42.488" y1="24.728" x2="42.488" y2="24.623" width="3.2" layer="16"/>
<wire x1="42.488" y1="24.623" x2="39.301" y2="21.436" width="3.2" layer="16"/>
<wire x1="39.301" y1="21.436" x2="29.884" y2="21.436" width="3.2" layer="16"/>
<wire x1="29.884" y1="21.436" x2="28.1635" y2="23.1565" width="3.2" layer="16"/>
<wire x1="28.1635" y1="23.1565" x2="26.58" y2="24.74" width="3.2" layer="16"/>
<wire x1="26.445" y1="40.72" x2="26.445" y2="40.569" width="3.2" layer="16"/>
<wire x1="26.445" y1="40.569" x2="23.484" y2="37.608" width="3.2" layer="16"/>
<wire x1="23.484" y1="37.608" x2="23.484" y2="37.541" width="3.2" layer="16"/>
<wire x1="23.484" y1="37.541" x2="22.368" y2="36.425" width="3.2" layer="16"/>
<wire x1="22.368" y1="36.425" x2="22.368" y2="28.952" width="3.2" layer="16"/>
<wire x1="22.368" y1="28.952" x2="25.223" y2="26.097" width="3.2" layer="16"/>
<wire x1="25.223" y1="26.097" x2="26.58" y2="24.74" width="3.2" layer="16"/>
<wire x1="26.445" y1="40.72" x2="26.519" y2="40.72" width="3.2" layer="16"/>
<wire x1="26.519" y1="40.72" x2="30.113" y2="44.314" width="3.2" layer="16"/>
<wire x1="30.113" y1="44.314" x2="38.984" y2="44.314" width="3.2" layer="16"/>
<wire x1="38.984" y1="44.314" x2="42.576" y2="40.722" width="3.2" layer="16"/>
<wire x1="59.566" y1="57.797" x2="59.6346" y2="57.7284" width="2.54" layer="1"/>
<wire x1="30.113" y1="44.314" x2="38.98" y2="44.314" width="2.54" layer="16"/>
<wire x1="38.98" y1="44.314" x2="43.615" y2="39.679" width="2.54" layer="16"/>
<wire x1="43.615" y1="39.679" x2="50.814" y2="39.679" width="2.54" layer="16"/>
<wire x1="50.814" y1="39.679" x2="51.817" y2="40.682" width="2.54" layer="16"/>
<via x="51.817" y="40.682" extent="1-16" drill="0.6" shape="square"/>
<wire x1="51.817" y1="40.682" x2="51.817" y2="40.776" width="2.54" layer="1"/>
<wire x1="51.817" y1="40.776" x2="53.594" y2="42.553" width="2.54" layer="1"/>
<wire x1="53.594" y1="55.656" x2="53.594" y2="42.553" width="2.54" layer="1"/>
<wire x1="33.6653" y1="32.9404" x2="35.2156" y2="32.9404" width="0.3048" layer="16"/>
<wire x1="35.2156" y1="32.9404" x2="35.512" y2="32.644" width="0.3048" layer="16"/>
<wire x1="35.512" y1="32.644" x2="37.0889" y2="32.644" width="0.3048" layer="16"/>
<wire x1="37.0889" y1="32.644" x2="37.2103" y2="32.7654" width="0.3048" layer="16"/>
<wire x1="35.4632" y1="31.8154" x2="38.4274" y2="31.8154" width="0.3048" layer="1"/>
<wire x1="38.4274" y1="31.8154" x2="38.465" y2="31.853" width="0.3048" layer="1"/>
<via x="38.465" y="31.853" extent="1-16" drill="0.6" shape="square"/>
<wire x1="38.465" y1="31.853" x2="38.1227" y2="31.853" width="0.3048" layer="16"/>
<wire x1="38.1227" y1="31.853" x2="37.2103" y2="32.7654" width="0.3048" layer="16"/>
<wire x1="28.1635" y1="23.1565" x2="25.223" y2="26.097" width="0.3048" layer="16"/>
<contactref element="DXL1" pad="GND"/>
<wire x1="59.6346" y1="57.7284" x2="54.1404" y2="57.7284" width="2.54" layer="1"/>
<wire x1="54.1404" y1="57.7284" x2="53.59" y2="57.178" width="2.54" layer="1"/>
<wire x1="53.59" y1="57.178" x2="53.59" y2="55.66" width="2.54" layer="1"/>
<wire x1="53.59" y1="55.66" x2="53.594" y2="55.656" width="0.1524" layer="1"/>
<wire x1="9.832" y1="14.414" x2="9.832" y2="19.374" width="1.016" layer="16"/>
<wire x1="9.832" y1="19.374" x2="9.813" y2="19.393" width="0.3048" layer="16"/>
<via x="9.813" y="19.393" extent="1-16" drill="0.6" shape="square"/>
<wire x1="24.102884375" y1="27.08395625" x2="28.871928125" y2="31.853" width="1.016" layer="1"/>
<wire x1="24.102884375" y1="27.08395625" x2="16.352853125" y2="19.333925" width="1.016" layer="1"/>
<wire x1="16.352853125" y1="19.333925" x2="9.872075" y2="19.333925" width="1.016" layer="1"/>
<wire x1="9.872075" y1="19.333925" x2="9.813" y2="19.393" width="1.016" layer="1"/>
<wire x1="38.465" y1="31.853" x2="28.871928125" y2="31.853" width="1.016" layer="1"/>
<via x="24.22168125" y="27.2331625" extent="1-16" drill="0.35"/>
<wire x1="24.22168125" y1="27.2331625" x2="24.22168125" y2="27.202753125" width="1.016" layer="1"/>
<wire x1="24.22168125" y1="27.202753125" x2="24.102884375" y2="27.08395625" width="1.016" layer="1"/>
</signal>
<signal name="3V3_C3">
<contactref element="3V3_C3" pad="TP"/>
<contactref element="U4" pad="1"/>
<contactref element="U4" pad="7"/>
<contactref element="R26" pad="2"/>
<contactref element="R27" pad="2"/>
<wire x1="33.9378" y1="34.5379" x2="33.9378" y2="35.5354" width="0.3048" layer="16"/>
<wire x1="33.9378" y1="35.5354" x2="33.2534" y2="36.2198" width="0.3048" layer="16"/>
<wire x1="33.2534" y1="36.2198" x2="29.4942" y2="36.2198" width="0.3048" layer="16"/>
<wire x1="29.4942" y1="36.2198" x2="28.62" y2="35.3116" width="0.3048" layer="16"/>
<wire x1="28.62" y1="35.3116" x2="28.656" y2="28.2784" width="0.3048" layer="16"/>
<via x="38.7566" y="26.3828" extent="1-16" drill="0.6" shape="square"/>
<wire x1="35.923" y1="11.525" x2="32.2088" y2="11.525" width="0.8128" layer="1"/>
<wire x1="32.2014" y1="11.5176" x2="32.2088" y2="11.525" width="0.8128" layer="1"/>
<wire x1="35.923" y1="11.525" x2="30.539" y2="11.525" width="0.8128" layer="1"/>
<wire x1="30.539" y1="11.525" x2="29.665" y2="12.399" width="0.8128" layer="1"/>
<wire x1="29.665" y1="12.399" x2="29.665" y2="19.16" width="0.8128" layer="1"/>
<wire x1="29.665" y1="19.16" x2="32.369" y2="21.899" width="0.8128" layer="1"/>
<wire x1="32.369" y1="21.899" x2="37.43" y2="21.899" width="0.8128" layer="1"/>
<wire x1="37.43" y1="21.899" x2="38.725" y2="23.147" width="0.8128" layer="1"/>
<wire x1="38.725" y1="23.147" x2="38.725" y2="25.9424" width="0.8128" layer="1"/>
<wire x1="38.725" y1="25.9424" x2="38.7566" y2="26.3828" width="0.8128" layer="1"/>
<wire x1="35.696" y1="11.298" x2="35.923" y2="11.525" width="0.8128" layer="1"/>
<wire x1="29.4942" y1="36.2198" x2="29.4942" y2="37.6872" width="0.4064" layer="16"/>
<wire x1="29.4942" y1="37.6872" x2="30.244" y2="38.437" width="0.4064" layer="16"/>
<wire x1="38.7566" y1="26.3828" x2="37.4192" y2="26.3828" width="0.3048" layer="16"/>
<wire x1="38.781" y1="26.4072" x2="38.7566" y2="26.3828" width="0.4064" layer="1"/>
<wire x1="28.656" y1="28.2784" x2="28.656" y2="27.843" width="0.3048" layer="16"/>
<wire x1="28.656" y1="27.843" x2="29.501" y2="26.998" width="0.3048" layer="16"/>
<wire x1="29.501" y1="26.998" x2="36.804" y2="26.998" width="0.3048" layer="16"/>
<wire x1="36.804" y1="26.998" x2="37.4192" y2="26.3828" width="0.3048" layer="16"/>
<wire x1="30.244" y1="38.437" x2="41.71" y2="38.437" width="0.4064" layer="16"/>
<wire x1="41.71" y1="38.437" x2="42.795" y2="37.352" width="0.4064" layer="16"/>
<wire x1="42.795" y1="37.352" x2="54.642" y2="37.352" width="0.4064" layer="16"/>
<wire x1="54.642" y1="37.352" x2="55.645" y2="38.355" width="0.4064" layer="16"/>
<wire x1="55.645" y1="38.355" x2="55.645" y2="40.73" width="0.4064" layer="16"/>
<wire x1="55.645" y1="40.73" x2="56.51" y2="41.595" width="0.4064" layer="16"/>
<via x="56.51" y="41.595" extent="1-16" drill="0.6" shape="square"/>
<contactref element="DXL1" pad="DATA"/>
<wire x1="9.832" y1="9.414" x2="12.419553125" y2="9.414" width="0.8128" layer="16"/>
<wire x1="12.419553125" y1="9.414" x2="12.46795625" y2="9.365596875" width="0.3048" layer="16"/>
<via x="12.46795625" y="9.365596875" extent="1-16" drill="0.6" shape="square"/>
<wire x1="12.46795625" y1="9.365596875" x2="31.203396875" y2="9.365596875" width="0.8128" layer="1"/>
<wire x1="31.203396875" y1="9.365596875" x2="32.202403125" y2="10.364603125" width="0.8128" layer="1"/>
<wire x1="32.202403125" y1="10.364603125" x2="32.202403125" y2="11.516596875" width="0.8128" layer="1"/>
<wire x1="32.202403125" y1="11.516596875" x2="32.2014" y2="11.5176" width="0.3048" layer="1"/>
<wire x1="36.9378" y1="30.9929" x2="36.9349875" y2="29.314096875" width="0.3048" layer="16"/>
<via x="36.9349875" y="29.314096875" extent="1-16" drill="0.35"/>
<wire x1="36.9349875" y1="29.314096875" x2="37.546903125" y2="29.314096875" width="0.8128" layer="1"/>
<wire x1="38.7566" y1="28.1044" x2="38.7566" y2="26.3828" width="0.8128" layer="1"/>
<wire x1="37.546903125" y1="29.314096875" x2="38.7566" y2="28.1044" width="0.8128" layer="1"/>
<wire x1="61.2442" y1="47.6498" x2="57.325875" y2="47.6498" width="1.016" layer="1"/>
<wire x1="57.325875" y1="47.6498" x2="56.532540625" y2="46.856465625" width="1.016" layer="1"/>
<wire x1="56.532540625" y1="46.856465625" x2="56.532540625" y2="41.617540625" width="1.016" layer="1"/>
<wire x1="56.532540625" y1="41.617540625" x2="56.51" y2="41.595" width="1.016" layer="1"/>
</signal>
<signal name="LED_S3_C3">
<contactref element="L_C2_C3" pad="TP"/>
<contactref element="LED3" pad="A"/>
<wire x1="31.577" y1="31.817" x2="31.577" y2="28.7136" width="0.4064" layer="16"/>
<wire x1="31.577" y1="28.7136" x2="32.5868" y2="27.7038" width="0.4064" layer="16"/>
<wire x1="32.5868" y1="27.7038" x2="53.8428" y2="27.6678" width="0.4064" layer="16"/>
<wire x1="53.8428" y1="27.6678" x2="53.8284" y2="27.6194" width="0.4064" layer="16"/>
<wire x1="53.8284" y1="27.6194" x2="54.7624" y2="28.5208" width="0.4064" layer="16"/>
<wire x1="54.7624" y1="28.5208" x2="54.7476" y2="31.5646" width="0.4064" layer="16"/>
<via x="54.7476" y="31.5646" extent="1-16" drill="0.6" shape="square"/>
<wire x1="54.7476" y1="31.5646" x2="61.2188" y2="31.5716" width="0.4064" layer="1"/>
<wire x1="61.2188" y1="31.5716" x2="61.3204" y2="31.6732" width="0.4064" layer="1"/>
</signal>
<signal name="VCC_C3">
<contactref element="VCC_1_C3" pad="TP"/>
<contactref element="VCC_2_C3" pad="TP"/>
<contactref element="VCC_3_C3" pad="TP"/>
<contactref element="VCC_4_C3" pad="TP"/>
<contactref element="VCC_C3" pad="TP"/>
<polygon width="0.4064" layer="1" isolate="0.8128">
<vertex x="6.8954" y="5.4708"/>
<vertex x="60.2176" y="5.4622"/>
<vertex x="59.9852" y="15.6668"/>
<vertex x="62.5006" y="15.5628"/>
<vertex x="62.7208" y="50.2914"/>
<vertex x="60.77" y="50.3116"/>
<vertex x="60.5224" y="60.3342"/>
<vertex x="6.6344" y="60.4988"/>
</polygon>
<wire x1="46.376" y1="44.85" x2="58.649" y2="44.85" width="3.2" layer="16"/>
<wire x1="58.649" y1="44.85" x2="59.621" y2="45.822" width="3.2" layer="16"/>
<wire x1="59.621" y1="45.822" x2="59.621" y2="51.106" width="3.2" layer="16"/>
<wire x1="59.621" y1="51.106" x2="59.659" y2="51.144" width="3.2" layer="16"/>
<via x="59.659" y="51.144" extent="1-16" drill="0.6" shape="square"/>
<wire x1="59.659" y1="51.144" x2="59.659" y2="54.8298" width="2.1844" layer="1"/>
<wire x1="59.659" y1="54.8298" x2="59.6088" y2="54.88" width="2.54" layer="1"/>
<wire x1="49.271" y1="54.761" x2="49.277" y2="54.767" width="2.1844" layer="1"/>
<via x="49.277" y="54.767" extent="1-16" drill="0.6" shape="square"/>
<wire x1="49.277" y1="54.767" x2="49.277" y2="54.77" width="2.1844" layer="16"/>
<wire x1="49.277" y1="54.77" x2="51.903" y2="57.396" width="2.1844" layer="16"/>
<wire x1="51.903" y1="57.396" x2="57.807" y2="57.396" width="2.1844" layer="16"/>
<wire x1="57.807" y1="57.396" x2="59.582" y2="55.621" width="2.1844" layer="16"/>
<wire x1="59.582" y1="55.621" x2="59.582" y2="51.221" width="2.1844" layer="16"/>
<wire x1="59.582" y1="51.221" x2="59.659" y2="51.144" width="2.1844" layer="16"/>
<wire x1="46.507" y1="20.806" x2="46.507" y2="20.759" width="3.2" layer="16"/>
<wire x1="46.507" y1="20.759" x2="42.648" y2="16.9" width="3.2" layer="16"/>
<wire x1="42.648" y1="16.9" x2="26.404" y2="16.9" width="3.2" layer="16"/>
<wire x1="26.404" y1="16.9" x2="22.503" y2="20.801" width="3.2" layer="16"/>
<wire x1="22.503" y1="20.801" x2="22.418" y2="20.801" width="3.2" layer="16"/>
<wire x1="22.418" y1="20.801" x2="18.167" y2="25.052" width="3.2" layer="16"/>
<wire x1="18.167" y1="25.052" x2="18.167" y2="40.456" width="3.2" layer="16"/>
<wire x1="18.167" y1="40.456" x2="22.441" y2="44.73" width="3.2" layer="16"/>
<wire x1="22.441" y1="44.73" x2="22.646" y2="44.73" width="3.2" layer="16"/>
<wire x1="22.646" y1="44.73" x2="26.109" y2="48.193" width="3.2" layer="16"/>
<wire x1="26.109" y1="48.193" x2="43.033" y2="48.193" width="3.2" layer="16"/>
<wire x1="43.033" y1="48.193" x2="46.376" y2="44.85" width="3.2" layer="16"/>
<contactref element="DXL1" pad="VBUS"/>
</signal>
<signal name="CANL_C3">
<contactref element="CANL_C3" pad="TP"/>
<contactref element="CANL_1_C3" pad="TP"/>
<contactref element="CANL_2_C3" pad="TP"/>
<contactref element="CANL_3_C3" pad="TP"/>
<contactref element="CANL_4_C3" pad="TP"/>
<wire x1="54.44" y1="52.813" x2="14.577" y2="52.813" width="0.6096" layer="16"/>
<wire x1="14.577" y1="52.813" x2="14.545" y2="52.781" width="0.6096" layer="16"/>
<wire x1="14.545" y1="52.781" x2="14.545" y2="12.911" width="0.6096" layer="16"/>
<wire x1="14.545" y1="12.911" x2="14.448" y2="12.814" width="0.6096" layer="16"/>
<wire x1="54.408" y1="12.814" x2="54.509" y2="12.713" width="0.6096" layer="16"/>
<wire x1="14.545" y1="52.781" x2="14.545" y2="52.201" width="0.6096" layer="16"/>
<wire x1="59.4906" y1="8.3638" x2="55.9192" y2="8.3638" width="1.6764" layer="1"/>
<wire x1="55.9192" y1="8.3638" x2="54.571" y2="9.712" width="1.6764" layer="1"/>
<via x="54.571" y="9.712" extent="1-16" drill="0.6" shape="square"/>
<wire x1="54.571" y1="9.712" x2="54.571" y2="12.651" width="1.6764" layer="16"/>
<wire x1="54.571" y1="12.651" x2="54.509" y2="12.713" width="1.6764" layer="16"/>
<wire x1="14.448" y1="12.814" x2="14.956" y2="12.814" width="1.016" layer="16"/>
<wire x1="14.448" y1="12.814" x2="14.448" y2="9.847" width="1.016" layer="16"/>
<wire x1="14.448" y1="9.847" x2="17.62" y2="6.675" width="1.016" layer="16"/>
<wire x1="45.495" y1="6.675" x2="17.62" y2="6.675" width="1.016" layer="16"/>
<wire x1="54.509" y1="12.713" x2="52.63445" y2="12.713" width="1.016" layer="16"/>
<wire x1="52.63445" y1="12.713" x2="46.57481875" y2="6.67804375" width="1.016" layer="16"/>
<wire x1="46.57481875" y1="6.67804375" x2="45.51663125" y2="6.67804375" width="1.016" layer="16"/>
<wire x1="45.51663125" y1="6.67804375" x2="45.495" y2="6.675" width="1.016" layer="16"/>
</signal>
<signal name="CANH_C3">
<contactref element="CANH_C3" pad="TP"/>
<contactref element="CANH_1_C3" pad="TP"/>
<contactref element="CANH_2_C3" pad="TP"/>
<contactref element="CANH_3_C3" pad="TP"/>
<contactref element="CANH_4_C3" pad="TP"/>
<wire x1="50.521" y1="48.715" x2="48.366" y2="48.715" width="0.6096" layer="16"/>
<wire x1="48.366" y1="48.715" x2="45.996" y2="51.085" width="0.6096" layer="16"/>
<wire x1="45.996" y1="51.085" x2="20.799" y2="51.085" width="0.6096" layer="16"/>
<wire x1="20.799" y1="51.085" x2="18.454" y2="48.74" width="0.6096" layer="16"/>
<wire x1="18.454" y1="48.74" x2="18.454" y2="48.476" width="0.6096" layer="16"/>
<wire x1="18.454" y1="48.476" x2="16.067" y2="46.089" width="0.6096" layer="16"/>
<wire x1="16.067" y1="46.089" x2="15.936" y2="46.089" width="0.6096" layer="16"/>
<wire x1="15.936" y1="46.089" x2="15.673" y2="45.826" width="0.6096" layer="16"/>
<wire x1="15.673" y1="45.826" x2="15.673" y2="19.641" width="0.6096" layer="16"/>
<wire x1="15.673" y1="19.641" x2="18.582" y2="16.732" width="0.6096" layer="16"/>
<wire x1="18.582" y1="16.732" x2="22.14" y2="16.732" width="0.6096" layer="16"/>
<wire x1="24.7651375" y1="14.1068625" x2="22.14" y2="16.732" width="0.6096" layer="16"/>
<wire x1="24.7651375" y1="14.1068625" x2="24.953" y2="13.919" width="0.6096" layer="16"/>
<wire x1="46.863" y1="16.733" x2="50.47" y2="16.733" width="0.6096" layer="16"/>
<wire x1="46.863" y1="16.733" x2="43.934" y2="13.804" width="0.6096" layer="16"/>
<wire x1="43.934" y1="13.804" x2="25.068" y2="13.804" width="0.6096" layer="16"/>
<wire x1="25.068" y1="13.804" x2="24.953" y2="13.919" width="0.6096" layer="16"/>
<wire x1="50.47" y1="16.733" x2="55.884" y2="16.733" width="0.6096" layer="16"/>
<wire x1="55.884" y1="16.733" x2="57.469" y2="15.148" width="0.6096" layer="16"/>
<via x="57.469" y="15.148" extent="1-16" drill="0.6" shape="square"/>
<wire x1="59.5336" y1="12.208" x2="59.5336" y2="13.0834" width="0.6096" layer="1"/>
<wire x1="59.5336" y1="13.0834" x2="57.469" y2="15.148" width="0.6096" layer="1"/>
</signal>
<signal name="N$35">
<via x="26.37" y="32.867" extent="1-16" drill="2"/>
</signal>
<signal name="N$36">
<via x="34.371" y="40.8934" extent="1-16" drill="2"/>
</signal>
<signal name="N$37">
<via x="42.372" y="32.867" extent="1-16" drill="2"/>
</signal>
<signal name="N$38">
<via x="34.371" y="24.866" extent="1-16" drill="2"/>
</signal>
<signal name="N$8">
<contactref element="U4" pad="3"/>
<contactref element="R7" pad="2"/>
<contactref element="U4" pad="2"/>
<wire x1="35.4378" y1="34.5379" x2="34.6878" y2="34.5379" width="0.4064" layer="16"/>
<wire x1="35.4632" y1="33.7154" x2="35.4632" y2="36.2198" width="0.4064" layer="1"/>
<wire x1="35.4632" y1="36.2198" x2="34.6758" y2="37.0072" width="0.4064" layer="1"/>
<via x="34.6758" y="37.0072" extent="1-16" drill="0.6" shape="square"/>
<wire x1="34.6758" y1="37.0072" x2="34.6758" y2="34.5499" width="0.4064" layer="16"/>
<wire x1="34.6758" y1="34.5499" x2="34.6878" y2="34.5379" width="0.4064" layer="16"/>
</signal>
<signal name="SCL_S3_U">
<contactref element="SCL_S3_C3_C2" pad="TP"/>
<contactref element="U4" pad="5"/>
<contactref element="R27" pad="1"/>
<wire x1="32.2014" y1="13.4176" x2="32.2014" y2="18.3514" width="0.8128" layer="1"/>
<wire x1="32.2014" y1="18.3514" x2="34.105" y2="20.255" width="0.8128" layer="1"/>
<wire x1="34.105" y1="20.255" x2="51.858" y2="20.255" width="0.8128" layer="1"/>
<wire x1="51.858" y1="20.255" x2="54.8735" y2="23.2705" width="0.8128" layer="1"/>
<wire x1="54.8735" y1="23.2705" x2="54.964" y2="23.361" width="0.8128" layer="1"/>
<wire x1="54.964" y1="23.361" x2="61.1362" y2="23.361" width="0.8128" layer="1"/>
<wire x1="61.1362" y1="23.361" x2="61.2188" y2="23.4436" width="0.8128" layer="1"/>
<wire x1="36.9378" y1="34.5379" x2="39.2411" y2="34.5379" width="0.8128" layer="16"/>
<wire x1="39.2411" y1="34.5379" x2="40.004" y2="33.775" width="0.8128" layer="16"/>
<wire x1="40.004" y1="33.775" x2="40.004" y2="30.058" width="0.8128" layer="16"/>
<wire x1="40.004" y1="30.058" x2="40.977" y2="29.085" width="0.8128" layer="16"/>
<wire x1="40.977" y1="29.085" x2="48.092" y2="29.085" width="0.8128" layer="16"/>
<wire x1="48.092" y1="29.085" x2="48.153" y2="29.146" width="0.8128" layer="16"/>
<via x="48.153" y="29.146" extent="1-16" drill="0.5" shape="square"/>
<wire x1="48.153" y1="29.146" x2="48.998" y2="29.146" width="0.8128" layer="1"/>
<wire x1="48.998" y1="29.146" x2="54.8735" y2="23.2705" width="0.8128" layer="1"/>
</signal>
<signal name="SDA_S3_U">
<contactref element="SDA_S3_C3_C4" pad="TP"/>
<contactref element="U4" pad="4"/>
<contactref element="R26" pad="1"/>
<wire x1="35.923" y1="13.425" x2="35.923" y2="17.328" width="0.8128" layer="1"/>
<wire x1="35.923" y1="17.328" x2="37.084" y2="18.489" width="0.8128" layer="1"/>
<wire x1="37.084" y1="18.489" x2="53.136" y2="18.489" width="0.8128" layer="1"/>
<wire x1="53.136" y1="18.489" x2="55.268" y2="20.621" width="0.8128" layer="1"/>
<wire x1="55.268" y1="20.621" x2="56.867059375" y2="20.621" width="0.8128" layer="1"/>
<wire x1="56.867059375" y1="20.621" x2="61.1648" y2="20.621" width="0.8128" layer="1"/>
<wire x1="61.1648" y1="20.621" x2="61.1934" y2="20.6496" width="0.8128" layer="1"/>
<wire x1="36.1878" y1="34.5379" x2="36.1878" y2="35.8018" width="0.35" layer="16"/>
<wire x1="36.1878" y1="35.8018" x2="37.084" y2="36.698" width="0.35" layer="16"/>
<wire x1="55.95573125" y1="36.698" x2="56.759859375" y2="35.893871875" width="0.35" layer="16"/>
<wire x1="37.084" y1="36.698" x2="55.95573125" y2="36.698" width="0.35" layer="16"/>
<wire x1="56.759859375" y1="35.893871875" x2="56.759859375" y2="20.7282" width="0.35" layer="16"/>
<wire x1="56.759859375" y1="20.7282" x2="56.867059375" y2="20.621" width="0.35" layer="16"/>
<via x="56.867059375" y="20.621" extent="1-16" drill="0.6" shape="square"/>
</signal>
<signal name="N$13">
<via x="8.562" y="35.541" extent="1-16" drill="1.5"/>
</signal>
<signal name="N$19">
<via x="8.562" y="27.807" extent="1-16" drill="1.5"/>
</signal>
</signals>
</board>
</drawing>
</eagle>
