G75*
%MOIN*%
%OFA0B0*%
%FSLAX25Y25*%
%IPPOS*%
%LPD*%
%AMOC8*
5,1,8,0,0,1.08239X$1,22.5*
%
%ADD10C,0.00000*%
%ADD11C,0.05150*%
%ADD12C,0.05150*%
%ADD13C,0.05937*%
%ADD14C,0.21126*%
D10*
X0001262Y0002031D02*
X0001262Y0218566D01*
X0217797Y0218566D01*
X0217797Y0002031D01*
X0001262Y0002031D01*
D11*
X0144787Y0010365D02*
X0149937Y0010365D01*
X0149937Y0020365D02*
X0144787Y0020365D01*
X0144787Y0030365D02*
X0149937Y0030365D01*
X0149937Y0040365D02*
X0144787Y0040365D01*
X0144787Y0050365D02*
X0149937Y0050365D01*
X0149937Y0060365D02*
X0144787Y0060365D01*
X0144787Y0070365D02*
X0149937Y0070365D01*
X0149937Y0080365D02*
X0144787Y0080365D01*
X0144787Y0090365D02*
X0149937Y0090365D01*
X0149937Y0100365D02*
X0144787Y0100365D01*
X0144787Y0110365D02*
X0149937Y0110365D01*
X0149937Y0120365D02*
X0144787Y0120365D01*
X0144787Y0130365D02*
X0149937Y0130365D01*
X0149937Y0140365D02*
X0144787Y0140365D01*
X0144787Y0150365D02*
X0149937Y0150365D01*
X0204787Y0150365D02*
X0209937Y0150365D01*
X0209937Y0140365D02*
X0204787Y0140365D01*
X0204787Y0130365D02*
X0209937Y0130365D01*
X0209937Y0120365D02*
X0204787Y0120365D01*
X0204787Y0110365D02*
X0209937Y0110365D01*
X0209937Y0100365D02*
X0204787Y0100365D01*
X0204787Y0090365D02*
X0209937Y0090365D01*
X0209937Y0080365D02*
X0204787Y0080365D01*
X0204787Y0070365D02*
X0209937Y0070365D01*
X0209937Y0060365D02*
X0204787Y0060365D01*
X0204787Y0050365D02*
X0209937Y0050365D01*
X0209937Y0040365D02*
X0204787Y0040365D01*
X0204787Y0030365D02*
X0209937Y0030365D01*
X0209937Y0020365D02*
X0204787Y0020365D01*
X0204787Y0010365D02*
X0209937Y0010365D01*
D12*
X0187362Y0145365D03*
X0187362Y0155365D03*
X0177362Y0155365D03*
X0177362Y0145365D03*
X0167362Y0145365D03*
X0167362Y0155365D03*
D13*
X0165900Y0170524D03*
X0165900Y0180524D03*
X0165900Y0190524D03*
X0182878Y0190498D03*
X0182878Y0180498D03*
X0182878Y0170498D03*
X0201294Y0170441D03*
X0201294Y0180441D03*
X0201294Y0190441D03*
X0148061Y0190585D03*
X0148061Y0180585D03*
X0148061Y0170585D03*
X0050896Y0037661D03*
X0040896Y0037661D03*
X0030896Y0037661D03*
X0020896Y0037661D03*
D14*
X0089662Y0180437D03*
X0117614Y0180437D03*
M02*
