%
M48
M72
T01C0.03150
T02C0.03937
T03C0.17126
%
T01
X147362Y10365
X147362Y20365
X147362Y30365
X147362Y40365
X147362Y50365
X147362Y60365
X147362Y70365
X147362Y80365
X147362Y90365
X147362Y100365
X147362Y110365
X147362Y120365
X147362Y130365
X147362Y140365
X147362Y150365
X167362Y145365
X177362Y145365
X177362Y155365
X167362Y155365
X187362Y155365
X187362Y145365
X207362Y140365
X207362Y130365
X207362Y120365
X207362Y110365
X207362Y100365
X207362Y90365
X207362Y80365
X207362Y70365
X207362Y60365
X207362Y50365
X207362Y40365
X207362Y30365
X207362Y20365
X207362Y10365
X207362Y150365
T02
X20896Y37661
X30896Y37661
X40896Y37661
X50896Y37661
X148061Y170585
X148061Y180585
X148061Y190585
X165900Y190524
X165900Y180524
X165900Y170524
X182878Y170498
X182878Y180498
X182878Y190498
X201294Y190441
X201294Y180441
X201294Y170441
T03
X117614Y180437
X89662Y180437
M30
